{"count":74,"next":"https://kudago.com/public-api/v1.4/events/?actual_since=1551578208.411&expand=place%2Cimages&fields=id%2Ctitle%2Cslug%2Cprice%2Ccategories%2Cimages%2Cis_free%2Cshort_title%2Cdates%2Cdescription%2Cfavorites_count%2Ccomments_count%2Cage_restriction%2Cplace&is_free=false&location=kzn&page=7&page_size=12","previous":"https://kudago.com/public-api/v1.4/events/?actual_since=1551578208.411&expand=place%2Cimages&fields=id%2Ctitle%2Cslug%2Cprice%2Ccategories%2Cimages%2Cis_free%2Cshort_title%2Cdates%2Cdescription%2Cfavorites_count%2Ccomments_count%2Cage_restriction%2Cplace&is_free=false&location=kzn&page=5&page_size=12","results":[{"id":159114,"dates":[{"start":1466110800,"end":1577826000}],"title":"экспозиция Ильдара Зарипова","slug":"vyistavka-ekspozitsiya-ildara-zaripova","place":{"id":7798,"title":"Национальная художественная галерея «Хазинэ»","slug":"nacionalnaya-hudozhestvennaya-galereya-hazine","address":"ул.  Кремлевская, д. 2","phone":"+7 843 567-80-43","subway":"Кремлевская","location":"kzn","site_url":"https://kudago.com/kzn/place/nacionalnaya-hudozhestvennaya-galereya-hazine/","is_closed":false,"coords":{"lat":55.79574699997472,"lon":49.10962099999999},"is_stub":false},"description":"<p>В Национальной художественной галерее «Хазинэ» открыта экспозиция Ильдара Зарипова, одного из самых ярких татарских живописцев прошлого века.</p>\n","categories":["exhibition"],"age_restriction":0,"price":"до 200 рублей","is_free":false,"images":[{"image":"https://kudago.com/media/images/event/f7/09/f709a60dadb52231bb0d5e11361f63df.jpg","thumbnails":{"640x384":"https://kudago.com/media/thumbs/640x384/images/event/f7/09/f709a60dadb52231bb0d5e11361f63df.jpg","144x96":"https://kudago.com/media/thumbs/144x96/images/event/f7/09/f709a60dadb52231bb0d5e11361f63df.jpg"},"source":{"name":"horriyat.ru","link":"http://horriyat.ru/zaripov"}},{"image":"https://kudago.com/media/images/event/99/61/996111f6db3bd71780e4c44cb0e42c59.jpg","thumbnails":{"640x384":"https://kudago.com/media/thumbs/640x384/images/event/99/61/996111f6db3bd71780e4c44cb0e42c59.jpg","144x96":"https://kudago.com/media/thumbs/144x96/images/event/99/61/996111f6db3bd71780e4c44cb0e42c59.jpg"},"source":{"name":"temakazan.ru","link":"http://www.temakazan.ru/poster/5458/"}},{"image":"https://kudago.com/media/images/event/fe/b2/feb2db8370de2f9f3491c7f7ba3b4fd4.jpg","thumbnails":{"640x384":"https://kudago.com/media/thumbs/640x384/images/event/fe/b2/feb2db8370de2f9f3491c7f7ba3b4fd4.jpg","144x96":"https://kudago.com/media/thumbs/144x96/images/event/fe/b2/feb2db8370de2f9f3491c7f7ba3b4fd4.jpg"},"source":{"name":"horriyat.ru","link":"http://horriyat.ru/zaripov"}}],"favorites_count":0,"comments_count":0,"short_title":"экспозиция Ильдара Зарипова"},{"id":63996,"dates":[{"start":-62135433000,"end":253370754000}],"title":"выставка «Собрание Лихачева»","slug":"vystavka-sobranie-lihacheva","place":{"id":4698,"title":"Музей изобразительных искусств Республики Татарстан","slug":"muzej-izobrazitelnyh-iskusstv","address":"ул. К.Маркса, 64","phone":"+7 843 236-69-31","subway":"","location":"kzn","site_url":"https://kudago.com/kzn/place/muzej-izobrazitelnyh-iskusstv/","is_closed":false,"coords":{"lat":55.7946839999999,"lon":49.13417199999999},"is_stub":false},"description":"<p>На этой выставке можно познакомиться со знаменитой коллекцией А.Ф. Лихачева, в которую входит собрание монет, более четырехсот произведений изобразительного искусства и другие предметы, касающиеся истории и этнографии.</p>\n","categories":["exhibition"],"age_restriction":"6+","price":"от 50 до 300 рублей","is_free":false,"images":[{"image":"https://kudago.com/media/images/event/8b/27/8b278044aa78f8bcf97b62759b572452.jpg","thumbnails":{"640x384":"https://kudago.com/media/thumbs/640x384/images/event/8b/27/8b278044aa78f8bcf97b62759b572452.jpg","144x96":"https://kudago.com/media/thumbs/144x96/images/event/8b/27/8b278044aa78f8bcf97b62759b572452.jpg"},"source":{"name":"g2.izo-museum.ru","link":"http://g2.izo-museum.ru/v/kollekciya/jivopis_kak-by-kollekciya_20120422/"}},{"image":"https://kudago.com/media/images/event/2a/77/2a773ebec1d038b688021c2657438610.jpg","thumbnails":{"640x384":"https://kudago.com/media/thumbs/640x384/images/event/2a/77/2a773ebec1d038b688021c2657438610.jpg","144x96":"https://kudago.com/media/thumbs/144x96/images/event/2a/77/2a773ebec1d038b688021c2657438610.jpg"},"source":{"name":"g2.izo-museum.ru","link":"http://g2.izo-museum.ru/v/kollekciya/jivopis_kak-by-kollekciya_20120422/"}},{"image":"https://kudago.com/media/images/event/95/e3/95e385d442aa88c68f1ddea4ac89d5f5.jpg","thumbnails":{"640x384":"https://kudago.com/media/thumbs/640x384/images/event/95/e3/95e385d442aa88c68f1ddea4ac89d5f5.jpg","144x96":"https://kudago.com/media/thumbs/144x96/images/event/95/e3/95e385d442aa88c68f1ddea4ac89d5f5.jpg"},"source":{"name":"g2.izo-museum.ru","link":"http://g2.izo-museum.ru/v/kollekciya/jivopis_kak-by-kollekciya_20120422/"}}],"favorites_count":9,"comments_count":0,"short_title":"Собрание Лихачева"},{"id":63986,"dates":[{"start":-62135433000,"end":253370754000}],"title":"выставка «Морской и горный пейзаж»","slug":"vystavka-morskoj-i-gornyj-pejzazh","place":{"id":4698,"title":"Музей изобразительных искусств Республики Татарстан","slug":"muzej-izobrazitelnyh-iskusstv","address":"ул. К.Маркса, 64","phone":"+7 843 236-69-31","subway":"","location":"kzn","site_url":"https://kudago.com/kzn/place/muzej-izobrazitelnyh-iskusstv/","is_closed":false,"coords":{"lat":55.7946839999999,"lon":49.13417199999999},"is_stub":false},"description":"<p>В Музее изобразительных искусств ежедневно проходит выставка морских и горных пейзажей. Живописные виды моря и неприступных гор наполнены могущественной красотой и величавостью и пробуждают в зрителе самые светлые чувства и эмоции.</p>\n","categories":["exhibition"],"age_restriction":"12+","price":"от 50 до 300 рублей","is_free":false,"images":[{"image":"https://kudago.com/media/images/event/4d/40/4d40b9cc43c3b7e371f47fb18ce1c806.jpg","thumbnails":{"640x384":"https://kudago.com/media/thumbs/640x384/images/event/4d/40/4d40b9cc43c3b7e371f47fb18ce1c806.jpg","144x96":"https://kudago.com/media/thumbs/144x96/images/event/4d/40/4d40b9cc43c3b7e371f47fb18ce1c806.jpg"},"source":{"name":"izo-museum.ru","link":"http://izo-museum.ru/article/2014/12/06/morskoy-i-gornyy-peyzazh-iz-sobraniya-gmii-rt"}},{"image":"https://kudago.com/media/images/event/e7/df/e7dfbdf54a1bcea582e6f4f7a7d9205d.jpg","thumbnails":{"640x384":"https://kudago.com/media/thumbs/640x384/images/event/e7/df/e7dfbdf54a1bcea582e6f4f7a7d9205d.jpg","144x96":"https://kudago.com/media/thumbs/144x96/images/event/e7/df/e7dfbdf54a1bcea582e6f4f7a7d9205d.jpg"},"source":{"name":"izo-museum.ru","link":"http://izo-museum.ru/article/2014/12/06/morskoy-i-gornyy-peyzazh-iz-sobraniya-gmii-rt"}},{"image":"https://kudago.com/media/images/event/3f/ae/3faee017a195f85a76e2f57aaaffaff4.jpg","thumbnails":{"640x384":"https://kudago.com/media/thumbs/640x384/images/event/3f/ae/3faee017a195f85a76e2f57aaaffaff4.jpg","144x96":"https://kudago.com/media/thumbs/144x96/images/event/3f/ae/3faee017a195f85a76e2f57aaaffaff4.jpg"},"source":{"name":"izo-museum.ru","link":"http://izo-museum.ru/article/2014/12/06/morskoy-i-gornyy-peyzazh-iz-sobraniya-gmii-rt"}}],"favorites_count":5,"comments_count":0,"short_title":"Морской и горный пейзаж"},{"id":63963,"dates":[{"start":-62135433000,"end":253370754000}],"title":"выставка «Зарисовки усадебного быта»","slug":"vystavka-zarisovki-usadebnogo-byta","place":{"id":4667,"title":"Кремлевский выставочный зал «Манеж»","slug":"kremlevskij-vystavochnyj-zal-manezh","address":"Кремль, д. 11","phone":"+7 843 567-80-67","subway":"Кремлевская","location":"kzn","site_url":"https://kudago.com/kzn/place/kremlevskij-vystavochnyj-zal-manezh/","is_closed":false,"coords":{"lat":55.78876299999999,"lon":49.09900299999998},"is_stub":false},"description":"<p>Посетители выставки попадут в настоящий дворянский усадебный дом, обставленный с уютной роскошью, часто привозимыми из-за рубежа изящными и оригинальными предметами. Особо интересно посещение детской комнаты начала позапрошлого века, с французской колыбелью, старинными куклами и картинами.</p>\n","categories":["exhibition"],"age_restriction":"6+","price":"от 50 до 120 рублей","is_free":false,"images":[{"image":"https://kudago.com/media/images/event/05/2f/052f0ebca42683acb3ba20c7a1f76690.jpg","thumbnails":{"640x384":"https://kudago.com/media/thumbs/640x384/images/event/05/2f/052f0ebca42683acb3ba20c7a1f76690.jpg","144x96":"https://kudago.com/media/thumbs/144x96/images/event/05/2f/052f0ebca42683acb3ba20c7a1f76690.jpg"},"source":{"name":"kazan-kremlin.ru","link":"http://www.kazan-kremlin.ru/archive/photo/724"}},{"image":"https://kudago.com/media/images/event/95/cf/95cfcb54f4381c8fc6c2caf4029fa87b.jpg","thumbnails":{"640x384":"https://kudago.com/media/thumbs/640x384/images/event/95/cf/95cfcb54f4381c8fc6c2caf4029fa87b.jpg","144x96":"https://kudago.com/media/thumbs/144x96/images/event/95/cf/95cfcb54f4381c8fc6c2caf4029fa87b.jpg"},"source":{"name":"kazan-kremlin.ru","link":"http://www.kazan-kremlin.ru/archive/photo/724"}},{"image":"https://kudago.com/media/images/event/7c/ff/7cffd53f170375045cb8521750f9f012.jpg","thumbnails":{"640x384":"https://kudago.com/media/thumbs/640x384/images/event/7c/ff/7cffd53f170375045cb8521750f9f012.jpg","144x96":"https://kudago.com/media/thumbs/144x96/images/event/7c/ff/7cffd53f170375045cb8521750f9f012.jpg"},"source":{"name":"kazan-kremlin.ru","link":"http://www.kazan-kremlin.ru/archive/photo/724"}}],"favorites_count":0,"comments_count":0,"short_title":"Зарисовки усадебного быта"},{"id":63955,"dates":[{"start":-62135433000,"end":253370754000}],"title":"выставка «Древнерусское искусство»","slug":"vystavka-drevnerusskoe-iskusstvo","place":{"id":4698,"title":"Музей изобразительных искусств Республики Татарстан","slug":"muzej-izobrazitelnyh-iskusstv","address":"ул. К.Маркса, 64","phone":"+7 843 236-69-31","subway":"","location":"kzn","site_url":"https://kudago.com/kzn/place/muzej-izobrazitelnyh-iskusstv/","is_closed":false,"coords":{"lat":55.7946839999999,"lon":49.13417199999999},"is_stub":false},"description":"<p>Демонстрация предметов древнерусского искусства, входящих в сокровищницу русской культуры. На выставке представлены созданные в первой половине XVI века икона Богоматери Одигитрии Смоленской и икона оригинального извода, а также датируемый серединой XVI столетия образ Богоматери Знамение.</p>\n","categories":["exhibition"],"age_restriction":"6+","price":"от 50 до 300 рублей","is_free":false,"images":[{"image":"https://kudago.com/media/images/event/c2/13/c213f877183b712dffebc9a1885439a9.jpg","thumbnails":{"640x384":"https://kudago.com/media/thumbs/640x384/images/event/c2/13/c213f877183b712dffebc9a1885439a9.jpg","144x96":"https://kudago.com/media/thumbs/144x96/images/event/c2/13/c213f877183b712dffebc9a1885439a9.jpg"},"source":{"name":"izo-museum.ru","link":"http://izo-museum.ru/gmii-rt/muzey-drevnerusskogo-iskusstva"}},{"image":"https://kudago.com/media/images/event/02/fd/02fdb60f97ef9f3da9aca9281e9eb1ab.jpg","thumbnails":{"640x384":"https://kudago.com/media/thumbs/640x384/images/event/02/fd/02fdb60f97ef9f3da9aca9281e9eb1ab.jpg","144x96":"https://kudago.com/media/thumbs/144x96/images/event/02/fd/02fdb60f97ef9f3da9aca9281e9eb1ab.jpg"},"source":{"name":"izo-museum.ru","link":"http://izo-museum.ru/gmii-rt/muzey-drevnerusskogo-iskusstva"}},{"image":"https://kudago.com/media/images/event/4f/66/4f66b2e267a39d5c22f885ef127be01f.jpg","thumbnails":{"640x384":"https://kudago.com/media/thumbs/640x384/images/event/4f/66/4f66b2e267a39d5c22f885ef127be01f.jpg","144x96":"https://kudago.com/media/thumbs/144x96/images/event/4f/66/4f66b2e267a39d5c22f885ef127be01f.jpg"},"source":{"name":"izo-museum.ru","link":"http://izo-museum.ru/gmii-rt/muzey-drevnerusskogo-iskusstva"}}],"favorites_count":1,"comments_count":0,"short_title":"Древнерусское искусство"},{"id":63956,"dates":[{"start":-62135433000,"end":253370754000}],"title":"выставка «Древности времен Крымского ханства в Казани»","slug":"vystavka-drevnosti-vremen-krymskogo-hanstva-v-kaza","place":{"id":4640,"title":"Музей истории государственности татарского народа и Республики Татарстан","slug":"muzej-istorii-respubliki-tatarstan","address":"Кремль","phone":"+7 843 567-80-24","subway":"Кремлевская","location":"kzn","site_url":"https://kudago.com/kzn/place/muzej-istorii-respubliki-tatarstan/","is_closed":false,"coords":{"lat":55.78876299999999,"lon":49.09900299999998},"is_stub":false},"description":"<p>Выставка посвящается истории Крымского ханства, быту и духовности крымских татар, их внутренним взаимоотношениям и международным связям. В экспозиции представлены литографии крымских достопримечательностей, книги об истории Крыма, картины с изображением живописных крымских пейзажей и татар. Также можно познакомиться с работами известных в Крымском ханстве ученых, деятелей искусства и политиков.</p>\n","categories":["exhibition"],"age_restriction":"6+","price":"от 30 до 50 рублей","is_free":false,"images":[{"image":"https://kudago.com/media/images/event/da/a3/daa3a392f3fa73a024f9877a4378d099.jpg","thumbnails":{"640x384":"https://kudago.com/media/thumbs/640x384/images/event/da/a3/daa3a392f3fa73a024f9877a4378d099.jpg","144x96":"https://kudago.com/media/thumbs/144x96/images/event/da/a3/daa3a392f3fa73a024f9877a4378d099.jpg"},"source":{"name":"kazan-kremlin.ru","link":"http://www.kazan-kremlin.ru/archive/news/id/1592"}},{"image":"https://kudago.com/media/images/event/6e/86/6e8676d2aa2d19de05a0709d8c1e399f.jpg","thumbnails":{"640x384":"https://kudago.com/media/thumbs/640x384/images/event/6e/86/6e8676d2aa2d19de05a0709d8c1e399f.jpg","144x96":"https://kudago.com/media/thumbs/144x96/images/event/6e/86/6e8676d2aa2d19de05a0709d8c1e399f.jpg"},"source":{"name":"kazan-kremlin.ru","link":"http://www.kazan-kremlin.ru/archive/news/id/1592"}},{"image":"https://kudago.com/media/images/event/10/23/1023ce7fb989eb7a5a6b0a53b122dbf1.jpg","thumbnails":{"640x384":"https://kudago.com/media/thumbs/640x384/images/event/10/23/1023ce7fb989eb7a5a6b0a53b122dbf1.jpg","144x96":"https://kudago.com/media/thumbs/144x96/images/event/10/23/1023ce7fb989eb7a5a6b0a53b122dbf1.jpg"},"source":{"name":"kazan-kremlin.ru","link":"http://www.kazan-kremlin.ru/archive/news/id/1592"}}],"favorites_count":1,"comments_count":0,"short_title":"Древности времен Крымского ханства в Казани"},{"id":63989,"dates":[{"start":-62135433000,"end":253370754000}],"title":"обзорная экскурсия в музее К. Васильева","slug":"obzornaya-ekskursiya-v-muzee-k-vasileva","place":{"id":4690,"title":"картинная галерея Константина Васильева","slug":"kartinnaya-galereya-konstantina-vasileva","address":"ул. Баумана, д. 29/11","phone":"","subway":"Кремлёвская, Площадь Габдуллы Тукая","location":"kzn","site_url":"https://kudago.com/kzn/place/kartinnaya-galereya-konstantina-vasileva/","is_closed":false,"coords":{"lat":55.7901358095156,"lon":49.11661811296464},"is_stub":false},"description":"<p>Константин Васильев – советский художник, чьи картины на сказочные и былинные темы, графика, портреты, сюрреалистические произведения завоевали широкую известность. Полотна Васильева отличаются глубоким символизмом и оригинальностью цветового сочетания. В экспозиции представлено более четырехсот работ художника.</p>\n","categories":["tour"],"age_restriction":"6+","price":"от 60 до 160 рублей","is_free":false,"images":[{"image":"https://kudago.com/media/images/event/30/40/304050753ff4f9171f922968b4bd5e4d.jpg","thumbnails":{"640x384":"https://kudago.com/media/thumbs/640x384/images/event/30/40/304050753ff4f9171f922968b4bd5e4d.jpg","144x96":"https://kudago.com/media/thumbs/144x96/images/event/30/40/304050753ff4f9171f922968b4bd5e4d.jpg"},"source":{"name":"museum.ru","link":"http://www.museum.ru/M2731"}},{"image":"https://kudago.com/media/images/event/78/37/78371ebd0ddadc3258dee413dc251183.jpg","thumbnails":{"640x384":"https://kudago.com/media/thumbs/640x384/images/event/78/37/78371ebd0ddadc3258dee413dc251183.jpg","144x96":"https://kudago.com/media/thumbs/144x96/images/event/78/37/78371ebd0ddadc3258dee413dc251183.jpg"},"source":{"name":"museum.ru","link":"http://www.museum.ru/M2731"}},{"image":"https://kudago.com/media/images/event/09/ef/09ef3d8b38b19a8283b8b7c81b84629f.jpg","thumbnails":{"640x384":"https://kudago.com/media/thumbs/640x384/images/event/09/ef/09ef3d8b38b19a8283b8b7c81b84629f.jpg","144x96":"https://kudago.com/media/thumbs/144x96/images/event/09/ef/09ef3d8b38b19a8283b8b7c81b84629f.jpg"},"source":{"name":"museum.ru","link":"http://www.museum.ru/M2731"}}],"favorites_count":3,"comments_count":0,"short_title":""},{"id":63945,"dates":[{"start":-62135433000,"end":253370754000}],"title":"выставка «В начале было Слово...»","slug":"vystavka-v-nachale-bylo-slovo","place":{"id":4634,"title":"музей-заповедник «Казанский Кремль»","slug":"muzej-zapovednik-kazanskij-kreml","address":"Кремль","phone":"+7 843 567-80-01","subway":"Кремлевская","location":"kzn","site_url":"https://kudago.com/kzn/place/muzej-zapovednik-kazanskij-kreml/","is_closed":false,"coords":{"lat":55.7977017548241,"lon":49.10383097622552},"is_stub":false},"description":"<p>Выставка, посвященная искусству арабской каллиграфии. Посетители увидят работы, выполненные с использованием различных техник и материалов. Экспозиция наглядно демонстрирует развитие мастерства каллиграфии и его изменения с древних времен до наших дней.</p>\n","categories":["exhibition","permanent-exhibitions"],"age_restriction":"6+","price":"от 150 до 200 рублей","is_free":false,"images":[{"image":"https://kudago.com/media/images/event/49/1d/491d47bfb4c330d3561250d81cf9989b.jpg","thumbnails":{"640x384":"https://kudago.com/media/thumbs/640x384/images/event/49/1d/491d47bfb4c330d3561250d81cf9989b.jpg","144x96":"https://kudago.com/media/thumbs/144x96/images/event/49/1d/491d47bfb4c330d3561250d81cf9989b.jpg"},"source":{"name":"kazan-kremlin.ru","link":"http://www.kazan-kremlin.ru/archive/photo/702"}},{"image":"https://kudago.com/media/images/event/fd/73/fd734fb9bab3d7716b50bc6bcfead64c.jpg","thumbnails":{"640x384":"https://kudago.com/media/thumbs/640x384/images/event/fd/73/fd734fb9bab3d7716b50bc6bcfead64c.jpg","144x96":"https://kudago.com/media/thumbs/144x96/images/event/fd/73/fd734fb9bab3d7716b50bc6bcfead64c.jpg"},"source":{"name":"kazan-kremlin.ru","link":"http://www.kazan-kremlin.ru/archive/photo/702"}},{"image":"https://kudago.com/media/images/event/df/63/df630b6c73abed052801b670fa1e682e.jpg","thumbnails":{"640x384":"https://kudago.com/media/thumbs/640x384/images/event/df/63/df630b6c73abed052801b670fa1e682e.jpg","144x96":"https://kudago.com/media/thumbs/144x96/images/event/df/63/df630b6c73abed052801b670fa1e682e.jpg"},"source":{"name":"kazan-kremlin.ru","link":"http://www.kazan-kremlin.ru/archive/photo/702"}}],"favorites_count":2,"comments_count":0,"short_title":"В начале было Слово..."},{"id":63952,"dates":[{"start":-62135433000,"end":253370754000}],"title":"выставка «Габдерахим Утыз Имяни: путь к жемчужинам знаний»","slug":"gabderahim-utyz-imyani-put-k-zhemchuzhinam-znanij","place":{"id":4634,"title":"музей-заповедник «Казанский Кремль»","slug":"muzej-zapovednik-kazanskij-kreml","address":"Кремль","phone":"+7 843 567-80-01","subway":"Кремлевская","location":"kzn","site_url":"https://kudago.com/kzn/place/muzej-zapovednik-kazanskij-kreml/","is_closed":false,"coords":{"lat":55.7977017548241,"lon":49.10383097622552},"is_stub":false},"description":"<p>Выставка, посвященная 260-летию со дня рождения великого татарского философа и поэта, выдающегося педагога и богослова. Посетители смогут познакомиться с его поэтическими рукописями и богословскими научными трудами.</p>\n","categories":["exhibition","permanent-exhibitions"],"age_restriction":"6+","price":"от 40 до 100 рублей","is_free":false,"images":[{"image":"https://kudago.com/media/images/event/8d/d2/8dd2ca1cce7a60ce512f4b87e36a89a7.jpg","thumbnails":{"640x384":"https://kudago.com/media/thumbs/640x384/images/event/8d/d2/8dd2ca1cce7a60ce512f4b87e36a89a7.jpg","144x96":"https://kudago.com/media/thumbs/144x96/images/event/8d/d2/8dd2ca1cce7a60ce512f4b87e36a89a7.jpg"},"source":{"name":"kazan-kremlin.ru","link":"http://www.kazan-kremlin.ru/archive/photo/742"}},{"image":"https://kudago.com/media/images/event/84/17/8417f532770d281b7259418609979057.jpg","thumbnails":{"640x384":"https://kudago.com/media/thumbs/640x384/images/event/84/17/8417f532770d281b7259418609979057.jpg","144x96":"https://kudago.com/media/thumbs/144x96/images/event/84/17/8417f532770d281b7259418609979057.jpg"},"source":{"name":"kazan-kremlin.ru","link":"http://www.kazan-kremlin.ru/archive/photo/742"}},{"image":"https://kudago.com/media/images/event/8b/b3/8bb3c52a54a1d329e4c6982c9c19e00a.jpg","thumbnails":{"640x384":"https://kudago.com/media/thumbs/640x384/images/event/8b/b3/8bb3c52a54a1d329e4c6982c9c19e00a.jpg","144x96":"https://kudago.com/media/thumbs/144x96/images/event/8b/b3/8bb3c52a54a1d329e4c6982c9c19e00a.jpg"},"source":{"name":"kazan-kremlin.ru","link":"http://www.kazan-kremlin.ru/archive/photo/742"}}],"favorites_count":0,"comments_count":0,"short_title":""},{"id":63947,"dates":[{"start":-62135433000,"end":253370754000}],"title":"экскурсия «Вариации на тему жизни и творчества Салиха Сайдашева»","slug":"ekskursiya-variacii-na-temu-zhizni-i-tvorchestva-s","place":{"id":4671,"title":"Музей С. Сайдашева","slug":"muzej-s-sajdasheva","address":"ул. Горького, д. 13","phone":"+7 843 238-56-96","subway":"Площадь Габдуллы Тукая","location":"kzn","site_url":"https://kudago.com/kzn/place/muzej-s-sajdasheva/","is_closed":false,"coords":{"lat":55.79430999999989,"lon":49.13018299999997},"is_stub":false},"description":"<p>Эта экскурсия ежедневно проходит в Музее С. Сайдашева и посвящается жизни и творчеству известного татарского композитора. Сайдашев является основателем национальной музыкальной драмы. Также известен как дирижер, пианист, автор музыкальных композиций к спектаклям.</p>\n","categories":["tour"],"age_restriction":"6+","price":"от 25 до 70 рублей","is_free":false,"images":[{"image":"https://kudago.com/media/images/event/93/57/9357fb7f043016b7c42cd348c84b79d5.jpg","thumbnails":{"640x384":"https://kudago.com/media/thumbs/640x384/images/event/93/57/9357fb7f043016b7c42cd348c84b79d5.jpg","144x96":"https://kudago.com/media/thumbs/144x96/images/event/93/57/9357fb7f043016b7c42cd348c84b79d5.jpg"},"source":{"name":"museum.ru","link":"http://www.museum.ru/M2175images"}},{"image":"https://kudago.com/media/images/event/3e/57/3e570340ad78ce491f556a5706a9a3bd.jpg","thumbnails":{"640x384":"https://kudago.com/media/thumbs/640x384/images/event/3e/57/3e570340ad78ce491f556a5706a9a3bd.jpg","144x96":"https://kudago.com/media/thumbs/144x96/images/event/3e/57/3e570340ad78ce491f556a5706a9a3bd.jpg"},"source":{"name":"museum.ru","link":"http://www.museum.ru/M2175images"}},{"image":"https://kudago.com/media/images/event/6e/65/6e65a01608554af97c913bd8d77711c4.jpg","thumbnails":{"640x384":"https://kudago.com/media/thumbs/640x384/images/event/6e/65/6e65a01608554af97c913bd8d77711c4.jpg","144x96":"https://kudago.com/media/thumbs/144x96/images/event/6e/65/6e65a01608554af97c913bd8d77711c4.jpg"},"source":{"name":"museum.ru","link":"http://www.museum.ru/M2175images"}}],"favorites_count":2,"comments_count":0,"short_title":"Вариации на тему жизни и творчества Салиха Сайдашева"},{"id":63974,"dates":[{"start":-62135433000,"end":253370754000}],"title":"выставка «История Казанского университета»","slug":"vystavka-istoriya-kazanskogo-universiteta","place":{"id":4668,"title":"Музей истории Казанского университета","slug":"muzej-istorii-kazanskogo-universiteta","address":"ул. Кремлевская, д. 18","phone":"+7 843 238-15-73","subway":"Площадь Габдуллы Тукая","location":"kzn","site_url":"https://kudago.com/kzn/place/muzej-istorii-kazanskogo-universiteta/","is_closed":false,"coords":{"lat":55.79089399999999,"lon":49.121775},"is_stub":false},"description":"<p>Выставка, знакомящая посетителей с более, чем двухсотлетней историей Казанского университета. Большинство экспонатов посвящено научным открытиям, исследованиям и выдающимся ученым, чьи достижения признаны во всем мире.</p>\n","categories":["exhibition","permanent-exhibitions"],"age_restriction":"6+","price":"от 35 до 45 рублей","is_free":false,"images":[{"image":"https://kudago.com/media/images/event/93/05/9305ad830624fde0337c18b71cf9a655.jpg","thumbnails":{"640x384":"https://kudago.com/media/thumbs/640x384/images/event/93/05/9305ad830624fde0337c18b71cf9a655.jpg","144x96":"https://kudago.com/media/thumbs/144x96/images/event/93/05/9305ad830624fde0337c18b71cf9a655.jpg"},"source":{"name":"kpfu.ru","link":"http://kpfu.ru/museum-of-history/ekspoziciya"}},{"image":"https://kudago.com/media/images/event/eb/7f/eb7f4a4724885140e1e43a04a9129a03.jpg","thumbnails":{"640x384":"https://kudago.com/media/thumbs/640x384/images/event/eb/7f/eb7f4a4724885140e1e43a04a9129a03.jpg","144x96":"https://kudago.com/media/thumbs/144x96/images/event/eb/7f/eb7f4a4724885140e1e43a04a9129a03.jpg"},"source":{"name":"kpfu.ru","link":"http://kpfu.ru/museum-of-history/ekspoziciya"}},{"image":"https://kudago.com/media/images/event/06/e5/06e5a96a6f7558034304fde727d848c7.jpg","thumbnails":{"640x384":"https://kudago.com/media/thumbs/640x384/images/event/06/e5/06e5a96a6f7558034304fde727d848c7.jpg","144x96":"https://kudago.com/media/thumbs/144x96/images/event/06/e5/06e5a96a6f7558034304fde727d848c7.jpg"},"source":{"name":"kpfu.ru","link":"http://kpfu.ru/museum-of-history/ekspoziciya"}}],"favorites_count":1,"comments_count":0,"short_title":"История Казанского университета"},{"id":63962,"dates":[{"start":-62135433000,"end":253370754000}],"title":"выставка «Запротоколированный творческий путь Урманче»","slug":"vystavka-zaprotokolirovannyj-tvorcheskij-put-urman","place":{"id":4670,"title":"Музей Баки Урманче","slug":"muzej-b-urmanche","address":"ул. Щапова, д.20","phone":"+7 843 236-99-62","subway":"Площадь Габдуллы Тукая","location":"kzn","site_url":"https://kudago.com/kzn/place/muzej-b-urmanche/","is_closed":false,"coords":{"lat":55.79178499999995,"lon":49.13307599999998},"is_stub":false},"description":"<p>Выставка проходит в музее Б.И. Урманче. В залах, расположенных на первом этаже музея посетители увидят созданные Баки Урманче скульптуры, а на втором этаже представлены его картины, написанные с 1920 по 1970 года.</p>\n","categories":["exhibition"],"age_restriction":"6+","price":"от 50 до 70 рублей","is_free":false,"images":[{"image":"https://kudago.com/media/images/event/f4/fa/f4fab251e619516f1c5c463bcf87376f.jpg","thumbnails":{"640x384":"https://kudago.com/media/thumbs/640x384/images/event/f4/fa/f4fab251e619516f1c5c463bcf87376f.jpg","144x96":"https://kudago.com/media/thumbs/144x96/images/event/f4/fa/f4fab251e619516f1c5c463bcf87376f.jpg"},"source":{"name":"horriyat.ru","link":"http://horriyat.ru/muzei/muzey-baki-urmanche.html"}},{"image":"https://kudago.com/media/images/event/4d/f5/4df5f66bc24f822da1e82843100230b6.jpg","thumbnails":{"640x384":"https://kudago.com/media/thumbs/640x384/images/event/4d/f5/4df5f66bc24f822da1e82843100230b6.jpg","144x96":"https://kudago.com/media/thumbs/144x96/images/event/4d/f5/4df5f66bc24f822da1e82843100230b6.jpg"},"source":{"name":"horriyat.ru","link":"http://horriyat.ru/muzei/muzey-baki-urmanche.html"}},{"image":"https://kudago.com/media/images/event/04/66/046667d95046b3bd050e45175209c5a2.jpg","thumbnails":{"640x384":"https://kudago.com/media/thumbs/640x384/images/event/04/66/046667d95046b3bd050e45175209c5a2.jpg","144x96":"https://kudago.com/media/thumbs/144x96/images/event/04/66/046667d95046b3bd050e45175209c5a2.jpg"},"source":{"name":"horriyat.ru","link":"http://horriyat.ru/muzei/muzey-baki-urmanche.html"}}],"favorites_count":1,"comments_count":0,"short_title":"Запротоколированный творческий путь Урманче"}]}