{"count":74,"next":"https://kudago.com/public-api/v1.4/events/?actual_since=1551578188.151&expand=place%2Cimages&fields=id%2Ctitle%2Cslug%2Cprice%2Ccategories%2Cimages%2Cis_free%2Cshort_title%2Cdates%2Cdescription%2Cfavorites_count%2Ccomments_count%2Cage_restriction%2Cplace&is_free=false&location=kzn&page=2&page_size=12","previous":null,"results":[{"id":156360,"dates":[{"start":-62135433000,"end":253370754000}],"title":"киноночи в «Циферблате» на Щапова","slug":"noch-kinonochi-v-tsiferblate-na-schapova","place":{"id":8927,"title":"свободное пространство «Циферблат» на улице Щапова","slug":"svobodnoe-prostranstvo-ciferblat-na-ulice-shapova","address":"ул. Щапова, д. 47","phone":"+7 843 245-21-99","subway":"Площадь Габдуллы Тукая","location":"kzn","site_url":"https://kudago.com/kzn/place/svobodnoe-prostranstvo-ciferblat-na-ulice-shapova/","is_closed":false,"coords":{"lat":55.78875483750547,"lon":49.11555042567775},"is_stub":false},"description":"<p>Артхаус, классика, мейнстрим — смотрим хорошее кино самых разных направлений и жанров.</p>\n","categories":["night","show"],"age_restriction":"18+","price":"до 360 рублей","is_free":false,"images":[{"image":"https://kudago.com/media/images/event/23/80/238041c54dc22b2549f6cd4fc9f2d701.jpg","thumbnails":{"640x384":"https://kudago.com/media/thumbs/640x384/images/event/23/80/238041c54dc22b2549f6cd4fc9f2d701.jpg","144x96":"https://kudago.com/media/thumbs/144x96/images/event/23/80/238041c54dc22b2549f6cd4fc9f2d701.jpg"},"source":{"name":"lipetsk.ru","link":"http://www.lipetsk.ru/content/news/68266"}},{"image":"https://kudago.com/media/images/event/83/ac/83ac40ae1455b369cf6c1334a8a04a9e.jpg","thumbnails":{"640x384":"https://kudago.com/media/thumbs/640x384/images/event/83/ac/83ac40ae1455b369cf6c1334a8a04a9e.jpg","144x96":"https://kudago.com/media/thumbs/144x96/images/event/83/ac/83ac40ae1455b369cf6c1334a8a04a9e.jpg"},"source":{"name":"5.178.87.42:8080","link":"http://5.178.87.42:8080/2017/06/noch-kino-v-belgorode/"}},{"image":"https://kudago.com/media/images/event/a3/32/a332a98dcbd481b12eb1836bd4dac4fb.jpg","thumbnails":{"640x384":"https://kudago.com/media/thumbs/640x384/images/event/a3/32/a332a98dcbd481b12eb1836bd4dac4fb.jpg","144x96":"https://kudago.com/media/thumbs/144x96/images/event/a3/32/a332a98dcbd481b12eb1836bd4dac4fb.jpg"},"source":{"name":"infovoronezh.ru","link":"http://www.infovoronezh.ru/News/Sozdan-komitet-po-provedeniyu-Goda-rossiyskogo-kino-43993.html"}},{"image":"https://kudago.com/media/images/event/fa/04/fa0448e160d23747765907be8413506e.jpeg","thumbnails":{"640x384":"https://kudago.com/media/thumbs/640x384/images/event/fa/04/fa0448e160d23747765907be8413506e.jpeg","144x96":"https://kudago.com/media/thumbs/144x96/images/event/fa/04/fa0448e160d23747765907be8413506e.jpeg"},"source":{"name":"timeout.ru","link":"http://www.timeout.ru/rostov/feature/457891"}},{"image":"https://kudago.com/media/images/event/75/ec/75ec7986d4669020bb402e4534175e99.jpg","thumbnails":{"640x384":"https://kudago.com/media/thumbs/640x384/images/event/75/ec/75ec7986d4669020bb402e4534175e99.jpg","144x96":"https://kudago.com/media/thumbs/144x96/images/event/75/ec/75ec7986d4669020bb402e4534175e99.jpg"},"source":{"name":"forum.videoediting.ru","link":"http://forum.videoediting.ru/index.php?/topic/53610-в-чем-красят-фильмы/"}},{"image":"https://kudago.com/media/images/event/ad/a2/ada2b06297991f5765d9792ecafe5ed1.jpg","thumbnails":{"640x384":"https://kudago.com/media/thumbs/640x384/images/event/ad/a2/ada2b06297991f5765d9792ecafe5ed1.jpg","144x96":"https://kudago.com/media/thumbs/144x96/images/event/ad/a2/ada2b06297991f5765d9792ecafe5ed1.jpg"},"source":{"name":"vk.com","link":"https://vk.com/zf_cinema"}},{"image":"https://kudago.com/media/images/event/17/f0/17f099d54e40114c530a2006f4d2af88.jpg","thumbnails":{"640x384":"https://kudago.com/media/thumbs/640x384/images/event/17/f0/17f099d54e40114c530a2006f4d2af88.jpg","144x96":"https://kudago.com/media/thumbs/144x96/images/event/17/f0/17f099d54e40114c530a2006f4d2af88.jpg"},"source":{"name":"vk.com","link":"https://vk.com/zf_cinema"}},{"image":"https://kudago.com/media/images/event/80/2a/802ac23df4902b4ca46b9520e26c715b.jpg","thumbnails":{"640x384":"https://kudago.com/media/thumbs/640x384/images/event/80/2a/802ac23df4902b4ca46b9520e26c715b.jpg","144x96":"https://kudago.com/media/thumbs/144x96/images/event/80/2a/802ac23df4902b4ca46b9520e26c715b.jpg"},"source":{"name":"vk.com","link":"https://vk.com/zf_cinema"}},{"image":"https://kudago.com/media/images/event/1f/a6/1fa69ed83eee5ac998583e3b249d3f77.jpg","thumbnails":{"640x384":"https://kudago.com/media/thumbs/640x384/images/event/1f/a6/1fa69ed83eee5ac998583e3b249d3f77.jpg","144x96":"https://kudago.com/media/thumbs/144x96/images/event/1f/a6/1fa69ed83eee5ac998583e3b249d3f77.jpg"},"source":{"name":"4lifemsk.ru","link":"http://4lifemsk.ru/2016/11/02/kinonochi-v-neobychnom-zale-lyumer-xolla-na-dizajn-zavode-flacon/"}}],"favorites_count":13,"comments_count":0,"short_title":"Киноночи в «Циферблате» на Щапова"},{"id":156374,"dates":[{"start":-62135433000,"end":253370754000}],"title":"джазовые вечера в «Циферблате» на Щапова","slug":"kontsert-dzhazovyie-vechera-v-tsiferblate-na-schapova","place":{"id":8927,"title":"свободное пространство «Циферблат» на улице Щапова","slug":"svobodnoe-prostranstvo-ciferblat-na-ulice-shapova","address":"ул. Щапова, д. 47","phone":"+7 843 245-21-99","subway":"Площадь Габдуллы Тукая","location":"kzn","site_url":"https://kudago.com/kzn/place/svobodnoe-prostranstvo-ciferblat-na-ulice-shapova/","is_closed":false,"coords":{"lat":55.78875483750547,"lon":49.11555042567775},"is_stub":false},"description":"<p>Душевные посиделки под классический и современный джаз.</p>\n","categories":["concert"],"age_restriction":"12+","price":"первые 2 часа — 2 рубля в минуту, далее 1 рубль в минуту","is_free":false,"images":[{"image":"https://kudago.com/media/images/event/4d/2e/4d2e6cb6240093122d2571567ca8c0b8.jpg","thumbnails":{"640x384":"https://kudago.com/media/thumbs/640x384/images/event/4d/2e/4d2e6cb6240093122d2571567ca8c0b8.jpg","144x96":"https://kudago.com/media/thumbs/144x96/images/event/4d/2e/4d2e6cb6240093122d2571567ca8c0b8.jpg"},"source":{"name":"onanebreetnogi.livejournal.com","link":"http://onanebreetnogi.livejournal.com/176094.html"}},{"image":"https://kudago.com/media/images/event/d2/60/d260c6316bf07881b8d62bd5156f466a.jpg","thumbnails":{"640x384":"https://kudago.com/media/thumbs/640x384/images/event/d2/60/d260c6316bf07881b8d62bd5156f466a.jpg","144x96":"https://kudago.com/media/thumbs/144x96/images/event/d2/60/d260c6316bf07881b8d62bd5156f466a.jpg"},"source":{"name":"weloveua.com","link":"http://weloveua.com/ua/staryj-dobryj-dzhaz-prozvuchit-v-stolitse/"}},{"image":"https://kudago.com/media/images/event/25/d3/25d3165dc92665968100af368ab85861.jpg","thumbnails":{"640x384":"https://kudago.com/media/thumbs/640x384/images/event/25/d3/25d3165dc92665968100af368ab85861.jpg","144x96":"https://kudago.com/media/thumbs/144x96/images/event/25/d3/25d3165dc92665968100af368ab85861.jpg"},"source":{"name":"stihi.ru","link":"http://www.stihi.ru/2016/09/06/145"}}],"favorites_count":2,"comments_count":0,"short_title":"Джазовые вечера в «Циферблате» на Щапова"},{"id":156412,"dates":[{"start":-62135433000,"end":253370754000}],"title":"English Workout в «Циферблате» на Щапова: Advanced & Beginners","slug":"znaniya-english-workout-advanced-and-beginners","place":{"id":8927,"title":"свободное пространство «Циферблат» на улице Щапова","slug":"svobodnoe-prostranstvo-ciferblat-na-ulice-shapova","address":"ул. Щапова, д. 47","phone":"+7 843 245-21-99","subway":"Площадь Габдуллы Тукая","location":"kzn","site_url":"https://kudago.com/kzn/place/svobodnoe-prostranstvo-ciferblat-na-ulice-shapova/","is_closed":false,"coords":{"lat":55.78875483750547,"lon":49.11555042567775},"is_stub":false},"description":"<p>Продвинутый английский для тех, кто уже в теме.</p>\n","categories":["education"],"age_restriction":"12+","price":"первые 2 часа — 2 рубля в минуту, далее 1 рубль в минуту","is_free":false,"images":[{"image":"https://kudago.com/media/images/event/a2/89/a2893f7689d1d0359d64e45f5e0f1925.jpg","thumbnails":{"640x384":"https://kudago.com/media/thumbs/640x384/images/event/a2/89/a2893f7689d1d0359d64e45f5e0f1925.jpg","144x96":"https://kudago.com/media/thumbs/144x96/images/event/a2/89/a2893f7689d1d0359d64e45f5e0f1925.jpg"},"source":{"name":"fivesquid.com","link":"https://www.fivesquid.com/blog/article/fivesquids-top-10-british-slang-words-and-phrases"}},{"image":"https://kudago.com/media/images/event/df/6d/df6d4d23f37b0d7023d4bfa38ca84d70.jpg","thumbnails":{"640x384":"https://kudago.com/media/thumbs/640x384/images/event/df/6d/df6d4d23f37b0d7023d4bfa38ca84d70.jpg","144x96":"https://kudago.com/media/thumbs/144x96/images/event/df/6d/df6d4d23f37b0d7023d4bfa38ca84d70.jpg"},"source":{"name":"kto-chto-gde.ru","link":"http://kto-chto-gde.ru/kak-vyuchit-anglijskij-yazyk-samostoyatelno-doma-s-nulya/"}},{"image":"https://kudago.com/media/images/event/d1/8b/d18b0a33c06f05175dfd09a87a0ac1b6.jpg","thumbnails":{"640x384":"https://kudago.com/media/thumbs/640x384/images/event/d1/8b/d18b0a33c06f05175dfd09a87a0ac1b6.jpg","144x96":"https://kudago.com/media/thumbs/144x96/images/event/d1/8b/d18b0a33c06f05175dfd09a87a0ac1b6.jpg"},"source":{"name":"englishstudent.net","link":"https://englishstudent.net/blog/ru/2016/12/10/7-pravil-samostojatelnogo-izuchenija/"}}],"favorites_count":0,"comments_count":0,"short_title":"English Workout: Advanced & Beginners"},{"id":156413,"dates":[{"start":-62135433000,"end":253370754000}],"title":"школа акварельного скетчинга в «Циферблате» на Университетской","slug":"znaniya-shkola-akvarelnogo-sketchinga","place":{"id":1319,"title":"свободное пространство «Циферблат» на Университетской","slug":"svobodnoe-prostranstvo-ciferblat","address":"ул. Университетская, д. 14","phone":"+7 843 253-52-19","subway":"","location":"kzn","site_url":"https://kudago.com/kzn/place/svobodnoe-prostranstvo-ciferblat/","is_closed":false,"coords":{"lat":55.789132,"lon":49.122566},"is_stub":false},"description":"<p>Учимся делать яркие и выразительные зарисовки при помощи акварели.</p>\n","categories":["education"],"age_restriction":"12+","price":"500 рублей","is_free":false,"images":[{"image":"https://kudago.com/media/images/event/76/3d/763d2d6c091377eec11e04330c6334f1.jpg","thumbnails":{"640x384":"https://kudago.com/media/thumbs/640x384/images/event/76/3d/763d2d6c091377eec11e04330c6334f1.jpg","144x96":"https://kudago.com/media/thumbs/144x96/images/event/76/3d/763d2d6c091377eec11e04330c6334f1.jpg"},"source":{"name":"","link":"http://irina-la-luna.blogspot.com/feeds/posts/default/?start-index=41&max-results=10"}},{"image":"https://kudago.com/media/images/event/e3/36/e336ac2bb149080df9850b6637bfa7a5.jpg","thumbnails":{"640x384":"https://kudago.com/media/thumbs/640x384/images/event/e3/36/e336ac2bb149080df9850b6637bfa7a5.jpg","144x96":"https://kudago.com/media/thumbs/144x96/images/event/e3/36/e336ac2bb149080df9850b6637bfa7a5.jpg"},"source":{"name":"","link":"https://afisha.yandex.ua/events/56aa373c7abde982428bda8b?city=belgorod&schedule-date=2015-10-28&ncrnd=4499"}},{"image":"https://kudago.com/media/images/event/86/f4/86f43b4634f43ab6ceadf3b2b99fc378.jpg","thumbnails":{"640x384":"https://kudago.com/media/thumbs/640x384/images/event/86/f4/86f43b4634f43ab6ceadf3b2b99fc378.jpg","144x96":"https://kudago.com/media/thumbs/144x96/images/event/86/f4/86f43b4634f43ab6ceadf3b2b99fc378.jpg"},"source":{"name":"","link":"http://sketchpark.ru/sweet"}}],"favorites_count":3,"comments_count":0,"short_title":"Школа акварельного скетчинга"},{"id":177423,"dates":[{"start":1551801600,"end":1551801600}],"title":"концерт Classic Enigma Show","slug":"kontsert-classic-enigma-show","place":{"id":23822,"title":"бальный зал Korston","slug":"balnyj-zal","address":"ул. Н. Ершова, д. 1","phone":"+7 843 279-30-39","subway":"Кремлёвская","location":"kzn","site_url":"https://kudago.com/kzn/place/balnyj-zal/","is_closed":false,"coords":{"lat":55.79411799999999,"lon":49.14759300000001},"is_stub":false},"description":"<p>В рамках мирового тура музыкальный проект Classic Enigma Show выступит в Казани. Уникальное трёхчасовое представление с участием приглашённых вокалистов, хора и оркестра не оставит равнодушными поклонников потрясающей музыки Enigma. </p>","categories":["concert","show"],"age_restriction":"12+","price":"от 1000 рублей","is_free":false,"images":[{"image":"https://kudago.com/media/images/event/a2/90/a290e873a72288d4a8d44443addd7dee.jpg","thumbnails":{"640x384":"https://kudago.com/media/thumbs/640x384/images/event/a2/90/a290e873a72288d4a8d44443addd7dee.jpg","144x96":"https://kudago.com/media/thumbs/144x96/images/event/a2/90/a290e873a72288d4a8d44443addd7dee.jpg"},"source":{"name":"","link":""}},{"image":"https://kudago.com/media/images/event/d5/fa/d5fa27ce0a09e571feaa7113721178d5.jpg","thumbnails":{"640x384":"https://kudago.com/media/thumbs/640x384/images/event/d5/fa/d5fa27ce0a09e571feaa7113721178d5.jpg","144x96":"https://kudago.com/media/thumbs/144x96/images/event/d5/fa/d5fa27ce0a09e571feaa7113721178d5.jpg"},"source":{"name":"","link":""}}],"favorites_count":0,"comments_count":0,"short_title":"Classic Enigma Show"},{"id":177484,"dates":[{"start":1552158000,"end":1552158000}],"title":"концерт Zivert","slug":"kontsert-zivert-mart-2019","place":{"id":23822,"title":"бальный зал Korston","slug":"balnyj-zal","address":"ул. Н. Ершова, д. 1","phone":"+7 843 279-30-39","subway":"Кремлёвская","location":"kzn","site_url":"https://kudago.com/kzn/place/balnyj-zal/","is_closed":false,"coords":{"lat":55.79411799999999,"lon":49.14759300000001},"is_stub":false},"description":"<p>Эффектная брюнетка, чьи хиты уверенно покоряют цифровые музыкальные сервисы, выступит в Казани с праздничным шоу.</p>","categories":["concert","show"],"age_restriction":"18+","price":"от 750 рублей","is_free":false,"images":[{"image":"https://kudago.com/media/images/event/91/f3/91f3f3df4be3679b84c3cfd82f6d3952.jpg","thumbnails":{"640x384":"https://kudago.com/media/thumbs/640x384/images/event/91/f3/91f3f3df4be3679b84c3cfd82f6d3952.jpg","144x96":"https://kudago.com/media/thumbs/144x96/images/event/91/f3/91f3f3df4be3679b84c3cfd82f6d3952.jpg"},"source":{"name":"","link":""}},{"image":"https://kudago.com/media/images/event/6e/8f/6e8f8e48ee964584a275ac38e80308fa.jpg","thumbnails":{"640x384":"https://kudago.com/media/thumbs/640x384/images/event/6e/8f/6e8f8e48ee964584a275ac38e80308fa.jpg","144x96":"https://kudago.com/media/thumbs/144x96/images/event/6e/8f/6e8f8e48ee964584a275ac38e80308fa.jpg"},"source":{"name":"","link":""}},{"image":"https://kudago.com/media/images/event/c6/88/c68850a0f14424a466b83e8836ad0430.jpg","thumbnails":{"640x384":"https://kudago.com/media/thumbs/640x384/images/event/c6/88/c68850a0f14424a466b83e8836ad0430.jpg","144x96":"https://kudago.com/media/thumbs/144x96/images/event/c6/88/c68850a0f14424a466b83e8836ad0430.jpg"},"source":{"name":"www.eventworld.co","link":"https://www.eventworld.co/saint-petersburg/zivert/?hl=ru"}}],"favorites_count":0,"comments_count":0,"short_title":"Zivert"},{"id":177463,"dates":[{"start":1552064400,"end":1552064400}],"title":"концерт Лёши Свика","slug":"kontsert-lyosha-svik-mart-2019","place":{"id":23822,"title":"бальный зал Korston","slug":"balnyj-zal","address":"ул. Н. Ершова, д. 1","phone":"+7 843 279-30-39","subway":"Кремлёвская","location":"kzn","site_url":"https://kudago.com/kzn/place/balnyj-zal/","is_closed":false,"coords":{"lat":55.79411799999999,"lon":49.14759300000001},"is_stub":false},"description":"<p>В Международный женский день звезда рунета и один из ключевых хитмейкеров страны даст большой сольный концерт, на котором исполнит свои лучшие композиции.</p>","categories":["concert","show"],"age_restriction":"12+","price":"от 1100 рублей","is_free":false,"images":[{"image":"https://kudago.com/media/images/event/7f/77/7f77b94fe3f607f75dddd71094d224d4.jpg","thumbnails":{"640x384":"https://kudago.com/media/thumbs/640x384/images/event/7f/77/7f77b94fe3f607f75dddd71094d224d4.jpg","144x96":"https://kudago.com/media/thumbs/144x96/images/event/7f/77/7f77b94fe3f607f75dddd71094d224d4.jpg"},"source":{"name":"","link":""}}],"favorites_count":0,"comments_count":0,"short_title":"Лёша Свик"},{"id":63997,"dates":[{"start":-62135433000,"end":253370754000}],"title":"выставка «Советские игровые автоматы»","slug":"vystavka-sovetskie-igrovye-avtomaty","place":{"id":17961,"title":"ДК 21","slug":"muzej-sovetskih-igrovyh-avtomatov","address":"ул. Кремлевская, д.21","phone":"","subway":"","location":"kzn","site_url":"https://kudago.com/kzn/place/muzej-sovetskih-igrovyh-avtomatov/","is_closed":false,"coords":{"lat":55.793566,"lon":49.116529},"is_stub":true},"description":"<p>Посетители Музея советских игровых автоматов с головой окунутся в детство. Ведь экспонаты выставки можно не только рассмотреть, но и поиграть на них, попробовав свои силы и скорость реакции в стрелялках и качалках. Каждый победитель награждается граненым стаканом газировки за три копейки. А при желании действующие автоматы можно арендовать на вечеринку, которую, кстати, можно провести и в самом музее.</p>\n","categories":["exhibition","permanent-exhibitions"],"age_restriction":"6+","price":"300 рублей","is_free":false,"images":[{"image":"https://kudago.com/media/images/event/42/34/42349742f5e61f2f22b598121b788a00.jpg","thumbnails":{"640x384":"https://kudago.com/media/thumbs/640x384/images/event/42/34/42349742f5e61f2f22b598121b788a00.jpg","144x96":"https://kudago.com/media/thumbs/144x96/images/event/42/34/42349742f5e61f2f22b598121b788a00.jpg"},"source":{"name":"vk.com/15kopkzn","link":"http://vk.com/15kopkzn"}},{"image":"https://kudago.com/media/images/event/93/55/935566d4ceeb16999d623b06a166d76b.jpg","thumbnails":{"640x384":"https://kudago.com/media/thumbs/640x384/images/event/93/55/935566d4ceeb16999d623b06a166d76b.jpg","144x96":"https://kudago.com/media/thumbs/144x96/images/event/93/55/935566d4ceeb16999d623b06a166d76b.jpg"},"source":{"name":"vk.com/15kopkzn","link":"http://vk.com/15kopkzn"}},{"image":"https://kudago.com/media/images/event/df/00/df00428cd17b6edbb6d42c1fbea96eec.jpg","thumbnails":{"640x384":"https://kudago.com/media/thumbs/640x384/images/event/df/00/df00428cd17b6edbb6d42c1fbea96eec.jpg","144x96":"https://kudago.com/media/thumbs/144x96/images/event/df/00/df00428cd17b6edbb6d42c1fbea96eec.jpg"},"source":{"name":"vk.com/15kopkzn","link":"http://vk.com/15kopkzn"}}],"favorites_count":11,"comments_count":0,"short_title":"Советские игровые автоматы"},{"id":63978,"dates":[{"start":-62135433000,"end":253370754000}],"title":"выставка «Казанская художественная школа»","slug":"vystavka-kazanskaya-hudozhestvennaya-shkola","place":{"id":4698,"title":"Музей изобразительных искусств Республики Татарстан","slug":"muzej-izobrazitelnyh-iskusstv","address":"ул. К.Маркса, 64","phone":"+7 843 236-69-31","subway":"","location":"kzn","site_url":"https://kudago.com/kzn/place/muzej-izobrazitelnyh-iskusstv/","is_closed":false,"coords":{"lat":55.7946839999999,"lon":49.13417199999999},"is_stub":false},"description":"<p>Выставка художественных произведений, авторы которых обучались или преподавали в Казанской художественной школе. Это учебное заведение сыграло огромную роль в развитии изобразительного искусства этого края, а также традиции школы сказались на становлении нынешнего художественного стиля.</p>\n","categories":["exhibition","permanent-exhibitions"],"age_restriction":"6+","price":"от 50 до 300 рублей","is_free":false,"images":[{"image":"https://kudago.com/media/images/event/a3/53/a3533b1828617dedffe46b688b6a3768.jpg","thumbnails":{"640x384":"https://kudago.com/media/thumbs/640x384/images/event/a3/53/a3533b1828617dedffe46b688b6a3768.jpg","144x96":"https://kudago.com/media/thumbs/144x96/images/event/a3/53/a3533b1828617dedffe46b688b6a3768.jpg"},"source":{"name":"izo-museum.ru","link":"http://izo-museum.ru/article/2013/12/22/hudozhestvennye-sokrovishcha-tatarstana-kazanskaya-hudozhestvennaya-shkola"}},{"image":"https://kudago.com/media/images/event/9a/23/9a23d263c8e098b3655007da8ecc1092.jpg","thumbnails":{"640x384":"https://kudago.com/media/thumbs/640x384/images/event/9a/23/9a23d263c8e098b3655007da8ecc1092.jpg","144x96":"https://kudago.com/media/thumbs/144x96/images/event/9a/23/9a23d263c8e098b3655007da8ecc1092.jpg"},"source":{"name":"izo-museum.ru","link":"http://izo-museum.ru/article/2013/12/22/hudozhestvennye-sokrovishcha-tatarstana-kazanskaya-hudozhestvennaya-shkola"}},{"image":"https://kudago.com/media/images/event/77/95/77959e031c56474a055123b1e3b949e3.jpg","thumbnails":{"640x384":"https://kudago.com/media/thumbs/640x384/images/event/77/95/77959e031c56474a055123b1e3b949e3.jpg","144x96":"https://kudago.com/media/thumbs/144x96/images/event/77/95/77959e031c56474a055123b1e3b949e3.jpg"},"source":{"name":"izo-museum.ru","link":"http://izo-museum.ru/article/2013/12/22/hudozhestvennye-sokrovishcha-tatarstana-kazanskaya-hudozhestvennaya-shkola"}}],"favorites_count":8,"comments_count":0,"short_title":"Казанская художественная школа"},{"id":58297,"dates":[{"start":-62135433000,"end":253370754000}],"title":"выставка «Татарская золотая кладовая»","slug":"vystavka-tatarskaya-zolotaya-kladovaya","place":{"id":4702,"title":"Национальный музей Республики Татарстан","slug":"nacionalnyj-muzej-respubliki-tatarstan","address":"ул. Кремлевская, д. 2","phone":"+7 843 292-89-84","subway":"Кремлевская","location":"kzn","site_url":"https://kudago.com/kzn/place/nacionalnyj-muzej-respubliki-tatarstan/","is_closed":false,"coords":{"lat":55.79559999999997,"lon":49.11011500000001},"is_stub":false},"description":"<p>Экспозиция знаменитой «Татарской золотой кладовой», где представлены уникальные золотые и серебряные головные, шейно-нагрудные и наручные украшения, созданные в XVII-XIX веках. На выставке можно увидеть также украшения в сочетании с традиционными мужскими и женскими татарскими костюмами. Особое внимание заслуживают футляры для миниатюрных Коранов.</p>\n","categories":["exhibition"],"age_restriction":"6+","price":"от 50 до 300 рублей","is_free":false,"images":[{"image":"https://kudago.com/media/images/event/75/58/755875aca06d8ab5a922d4f64aee6868.jpg","thumbnails":{"640x384":"https://kudago.com/media/thumbs/640x384/images/event/75/58/755875aca06d8ab5a922d4f64aee6868.jpg","144x96":"https://kudago.com/media/thumbs/144x96/images/event/75/58/755875aca06d8ab5a922d4f64aee6868.jpg"},"source":{"name":"tatmuseum.ru","link":"http://tatmuseum.ru/tatar-gold-pantry/#!"}},{"image":"https://kudago.com/media/images/event/a6/c4/a6c422954a73607cabb2d83ffe73a4e2.jpg","thumbnails":{"640x384":"https://kudago.com/media/thumbs/640x384/images/event/a6/c4/a6c422954a73607cabb2d83ffe73a4e2.jpg","144x96":"https://kudago.com/media/thumbs/144x96/images/event/a6/c4/a6c422954a73607cabb2d83ffe73a4e2.jpg"},"source":{"name":"tatmuseum.ru","link":"http://tatmuseum.ru/tatar-gold-pantry/#!"}},{"image":"https://kudago.com/media/images/event/cd/83/cd833557a8fdcac2880abdebca60810b.jpg","thumbnails":{"640x384":"https://kudago.com/media/thumbs/640x384/images/event/cd/83/cd833557a8fdcac2880abdebca60810b.jpg","144x96":"https://kudago.com/media/thumbs/144x96/images/event/cd/83/cd833557a8fdcac2880abdebca60810b.jpg"},"source":{"name":"tatmuseum.ru","link":"http://tatmuseum.ru/tatar-gold-pantry/#!"}}],"favorites_count":13,"comments_count":0,"short_title":"татарская золотая кладовая"},{"id":58325,"dates":[{"start":-62135433000,"end":253370754000}],"title":"выставка «Жизнь и творчество Селиха Сайдашева. Белые комнаты»","slug":"zhizn-i-tvorchestvo-seliha-sajdasheva-bel","place":{"id":4671,"title":"Музей С. Сайдашева","slug":"muzej-s-sajdasheva","address":"ул. Горького, д. 13","phone":"+7 843 238-56-96","subway":"Площадь Габдуллы Тукая","location":"kzn","site_url":"https://kudago.com/kzn/place/muzej-s-sajdasheva/","is_closed":false,"coords":{"lat":55.79430999999989,"lon":49.13018299999997},"is_stub":false},"description":"<p>Продолжатель традиций и новатор в одном лице. «Белые комнаты» Селиха Сайдашева помогут осмыслить творчество композитора с разных сторон.</p>\n","categories":["exhibition"],"age_restriction":null,"price":"","is_free":false,"images":[{"image":"https://kudago.com/media/images/event/91/e0/91e04f76e23540c6b57e65f396c984e8.jpg","thumbnails":{"640x384":"https://kudago.com/media/thumbs/640x384/images/event/91/e0/91e04f76e23540c6b57e65f396c984e8.jpg","144x96":"https://kudago.com/media/thumbs/144x96/images/event/91/e0/91e04f76e23540c6b57e65f396c984e8.jpg"},"source":{"name":"saydash.tatmuseum.ru","link":"http://saydash.tatmuseum.ru/muzejj-predlagaet-ehkspozicii/#!"}}],"favorites_count":6,"comments_count":0,"short_title":"жизнь и творчество Селиха Сайдашева. Белые комнаты"},{"id":58095,"dates":[{"start":-62135433000,"end":253370754000}],"title":"выставка «Древняя история Татарстана»","slug":"drevnyaya-istoriya-tatarstana","place":{"id":4702,"title":"Национальный музей Республики Татарстан","slug":"nacionalnyj-muzej-respubliki-tatarstan","address":"ул. Кремлевская, д. 2","phone":"+7 843 292-89-84","subway":"Кремлевская","location":"kzn","site_url":"https://kudago.com/kzn/place/nacionalnyj-muzej-respubliki-tatarstan/","is_closed":false,"coords":{"lat":55.79559999999997,"lon":49.11011500000001},"is_stub":false},"description":"<p>Историческая выставка, посвященная жизни населяющего Татарстан народа в древности. В экспозиции представлены предметы, найденные во время археологических раскопок, рассказывающие о повседневном быте и занятиях простых людей.</p>\n","categories":["exhibition"],"age_restriction":0,"price":"","is_free":false,"images":[{"image":"https://kudago.com/media/images/event/ea/d5/ead5eb447c5956ac6bc8744d6cfe2d76.jpg","thumbnails":{"640x384":"https://kudago.com/media/thumbs/640x384/images/event/ea/d5/ead5eb447c5956ac6bc8744d6cfe2d76.jpg","144x96":"https://kudago.com/media/thumbs/144x96/images/event/ea/d5/ead5eb447c5956ac6bc8744d6cfe2d76.jpg"},"source":{"name":"tatmuseum.ru","link":"http://tatmuseum.ru/old_history/"}},{"image":"https://kudago.com/media/images/event/e0/3f/e03f9f6db51a6628a58ee5d37ffe647d.jpg","thumbnails":{"640x384":"https://kudago.com/media/thumbs/640x384/images/event/e0/3f/e03f9f6db51a6628a58ee5d37ffe647d.jpg","144x96":"https://kudago.com/media/thumbs/144x96/images/event/e0/3f/e03f9f6db51a6628a58ee5d37ffe647d.jpg"},"source":{"name":"tatmuseum.ru","link":"http://tatmuseum.ru/old_history/"}},{"image":"https://kudago.com/media/images/event/4c/20/4c20d8860e9681f6ca066d1823b3105c.jpg","thumbnails":{"640x384":"https://kudago.com/media/thumbs/640x384/images/event/4c/20/4c20d8860e9681f6ca066d1823b3105c.jpg","144x96":"https://kudago.com/media/thumbs/144x96/images/event/4c/20/4c20d8860e9681f6ca066d1823b3105c.jpg"},"source":{"name":"tatmuseum.ru","link":"http://tatmuseum.ru/old_history/"}}],"favorites_count":13,"comments_count":0,"short_title":"древняя история Татарстана"}]}