{"count":10,"next":"https://kudago.com/public-api/v1.4/events/?actual_since=1551572406.916&expand=place%2Cimages&fields=id%2Ctitle%2Cslug%2Cprice%2Ccategories%2Cimages%2Cis_free%2Cshort_title%2Cdates%2Cdescription%2Cfavorites_count%2Ccomments_count%2Cage_restriction%2Cplace&location=krd&page=2&page_size=5","previous":null,"results":[{"id":96156,"dates":[{"start":-62135433000,"end":253370754000}],"title":"вечеринки быстрых знакомств Speed Dating 1+1","slug":"vecherinki-bystryh-znakomstv-speed-dating-11","place":null,"description":"<p>Вы заняты делом, успешны, но одиноки? Вам не хватает времени на поиск второй половинки? Посетите вечеринку быстрых свиданий в Краснодаре, где можно познакомиться с интересными людьми.</p>\n","categories":["speed-dating"],"age_restriction":"21+","price":"от 500 рублей","is_free":false,"images":[{"image":"https://kudago.com/media/images/event/66/48/664807682361e041793a1bc28e9584ac.jpg","thumbnails":{"640x384":"https://kudago.com/media/thumbs/640x384/images/event/66/48/664807682361e041793a1bc28e9584ac.jpg","144x96":"https://kudago.com/media/thumbs/144x96/images/event/66/48/664807682361e041793a1bc28e9584ac.jpg"},"source":{"name":"","link":""}},{"image":"https://kudago.com/media/images/event/42/a6/42a6825699182d69b82c4512be4bafb0.jpg","thumbnails":{"640x384":"https://kudago.com/media/thumbs/640x384/images/event/42/a6/42a6825699182d69b82c4512be4bafb0.jpg","144x96":"https://kudago.com/media/thumbs/144x96/images/event/42/a6/42a6825699182d69b82c4512be4bafb0.jpg"},"source":{"name":"","link":""}},{"image":"https://kudago.com/media/images/event/ff/e8/ffe8ccc5bc1751dc3f96568c9102bd17.jpg","thumbnails":{"640x384":"https://kudago.com/media/thumbs/640x384/images/event/ff/e8/ffe8ccc5bc1751dc3f96568c9102bd17.jpg","144x96":"https://kudago.com/media/thumbs/144x96/images/event/ff/e8/ffe8ccc5bc1751dc3f96568c9102bd17.jpg"},"source":{"name":"","link":""}}],"favorites_count":28,"comments_count":14,"short_title":"Speed Dating 1+1"},{"id":87645,"dates":[{"start":-62135433000,"end":253370754000}],"title":"вечер игр в sgt. Peppers Bar","slug":"vecher-igr-v-sgt-peppers-bar","place":{"id":19142,"title":"sgt. Peppers Bar","slug":"sgt-peppers-bar","address":"ул. Чапаева, д. 94.","phone":"+7 861 944-13-99","subway":"","location":"krd","site_url":"https://kudago.com/krd/place/sgt-peppers-bar/","is_closed":false,"coords":{"lat":45.02931099999997,"lon":38.97476499999999},"is_stub":false},"description":"<p>Бесплатный вечер настольных игр, веселья и дружеской болтовни в маленьком уютном рок-баре.</p>\n","categories":["games"],"age_restriction":"6+","price":"","is_free":true,"images":[{"image":"https://kudago.com/media/images/event/ba/4f/ba4fb0fe0cd74011a850d19c7af54295.jpg","thumbnails":{"640x384":"https://kudago.com/media/thumbs/640x384/images/event/ba/4f/ba4fb0fe0cd74011a850d19c7af54295.jpg","144x96":"https://kudago.com/media/thumbs/144x96/images/event/ba/4f/ba4fb0fe0cd74011a850d19c7af54295.jpg"},"source":{"name":"https://vk.com/albums-55744872","link":"https://pp.vk.me/c322421/v322421401/1ff9/aPZc-WHKlck.jpg"}},{"image":"https://kudago.com/media/images/event/f6/fc/f6fccfce6b02e6487feaa415892eb25b.jpg","thumbnails":{"640x384":"https://kudago.com/media/thumbs/640x384/images/event/f6/fc/f6fccfce6b02e6487feaa415892eb25b.jpg","144x96":"https://kudago.com/media/thumbs/144x96/images/event/f6/fc/f6fccfce6b02e6487feaa415892eb25b.jpg"},"source":{"name":"https://vk.com/albums-55744872","link":"https://pp.vk.me/c314919/v314919512/1553/kw3vIIhfunI.jpg"}},{"image":"https://kudago.com/media/images/event/93/87/9387a853fbef3294a8f7fa099063297f.jpg","thumbnails":{"640x384":"https://kudago.com/media/thumbs/640x384/images/event/93/87/9387a853fbef3294a8f7fa099063297f.jpg","144x96":"https://kudago.com/media/thumbs/144x96/images/event/93/87/9387a853fbef3294a8f7fa099063297f.jpg"},"source":{"name":"https://vk.com/albums-55744872","link":"https://pp.vk.me/c320319/v320319512/505c/mCPjf5-vEC4.jpg"}},{"image":"https://kudago.com/media/images/event/54/20/54207825c159c821759f44a02805593a.jpg","thumbnails":{"640x384":"https://kudago.com/media/thumbs/640x384/images/event/54/20/54207825c159c821759f44a02805593a.jpg","144x96":"https://kudago.com/media/thumbs/144x96/images/event/54/20/54207825c159c821759f44a02805593a.jpg"},"source":{"name":"https://vk.com/albums-55744872","link":"https://pp.vk.me/c312321/v312321512/3d55/Sd0pNa-B2po.jpg"}}],"favorites_count":44,"comments_count":3,"short_title":"вечер игр"},{"id":83021,"dates":[{"start":-62135433000,"end":253370754000}],"title":"выставка «Истина-Доброта-Терпение»","slug":"vystavka-istina-dobrota-terpenie","place":{"id":21001,"title":"Выставочный зал","slug":"vystavochnyj-zal","address":"ул. Атарбекова, д.1.","phone":"+7 988 243-77-66","subway":"","location":"krd","site_url":"https://kudago.com/krd/place/vystavochnyj-zal/","is_closed":false,"coords":{"lat":45.059886,"lon":38.944447},"is_stub":true},"description":"<p>Каждый из нас рано или поздно задумывается над тем, ради чего живёт. Выставка являет собой историю развития человеческой души, её ошибок, поисков и терзаний на пути к истиной Красоте.</p>\n","categories":["exhibition","permanent-exhibitions"],"age_restriction":0,"price":"","is_free":true,"images":[{"image":"https://kudago.com/media/images/event/0a/3a/0a3a47bc7320675d733d591a922cbbd7.jpg","thumbnails":{"640x384":"https://kudago.com/media/thumbs/640x384/images/event/0a/3a/0a3a47bc7320675d733d591a922cbbd7.jpg","144x96":"https://kudago.com/media/thumbs/144x96/images/event/0a/3a/0a3a47bc7320675d733d591a922cbbd7.jpg"},"source":{"name":"http://zhenshanrenart.com/","link":""}},{"image":"https://kudago.com/media/images/event/ee/69/ee6912554f79e449a8ad57b16f1ae0f8.jpg","thumbnails":{"640x384":"https://kudago.com/media/thumbs/640x384/images/event/ee/69/ee6912554f79e449a8ad57b16f1ae0f8.jpg","144x96":"https://kudago.com/media/thumbs/144x96/images/event/ee/69/ee6912554f79e449a8ad57b16f1ae0f8.jpg"},"source":{"name":"http://zhenshanrenart.com/","link":""}}],"favorites_count":33,"comments_count":6,"short_title":"Истина-Доброта-Терпение"},{"id":89514,"dates":[{"start":-62135433000,"end":253370754000}],"title":"мастер-класс в Williams Et Oliver","slug":"master-klass-v-williams-et-oliver","place":{"id":22660,"title":"магазин  Williams&Oliver","slug":"magazin-williamsoliver","address":"ул. Володи Головатого, д.311.","phone":"+7 861 201-93-90","subway":"","location":"krd","site_url":"https://kudago.com/krd/place/magazin-williamsoliver/","is_closed":false,"coords":{"lat":45.039929,"lon":38.972178},"is_stub":true},"description":"<p>Если вы любите время от времени радовать свою семью чем-нибудь эдаким к обеду или ужину, то этот мастер-класс в магазине домашней утвари вам подойдёт.</p>\n","categories":["education"],"age_restriction":null,"price":"уточняется","is_free":false,"images":[{"image":"https://kudago.com/media/images/event/f2/6b/f26b6084a7d88f5c16ffb250bc233622.jpg","thumbnails":{"640x384":"https://kudago.com/media/thumbs/640x384/images/event/f2/6b/f26b6084a7d88f5c16ffb250bc233622.jpg","144x96":"https://kudago.com/media/thumbs/144x96/images/event/f2/6b/f26b6084a7d88f5c16ffb250bc233622.jpg"},"source":{"name":"www.facebook.com","link":"https://www.facebook.com/WilliamsOliver/photos_stream?ref=page_internal"}},{"image":"https://kudago.com/media/images/event/97/c0/97c0f390b19b407bd46cfbb6cc9eed65.jpg","thumbnails":{"640x384":"https://kudago.com/media/thumbs/640x384/images/event/97/c0/97c0f390b19b407bd46cfbb6cc9eed65.jpg","144x96":"https://kudago.com/media/thumbs/144x96/images/event/97/c0/97c0f390b19b407bd46cfbb6cc9eed65.jpg"},"source":{"name":"www.facebook.com","link":"https://www.facebook.com/WilliamsOliver/photos_stream?ref=page_internal"}},{"image":"https://kudago.com/media/images/event/1b/4e/1b4e10fa511b4ca8bee666ca3c1f47fb.jpg","thumbnails":{"640x384":"https://kudago.com/media/thumbs/640x384/images/event/1b/4e/1b4e10fa511b4ca8bee666ca3c1f47fb.jpg","144x96":"https://kudago.com/media/thumbs/144x96/images/event/1b/4e/1b4e10fa511b4ca8bee666ca3c1f47fb.jpg"},"source":{"name":"www.facebook.com","link":"https://www.facebook.com/WilliamsOliver/photos_stream?ref=page_internal"}}],"favorites_count":8,"comments_count":0,"short_title":"Williams Et Oliver"},{"id":149673,"dates":[{"start":-62135433000,"end":253370754000}],"title":"бизнес-клуб «Финансовая грамотность»","slug":"igra-biznes-klub-finansovaya-gramotnost","place":{"id":29458,"title":"бизнес-клуб «Финансовая грамотность»","slug":"klub-finansovaya-gramotnost","address":"ул. Дзержинского, д.100","phone":"+7 961 851-53-50","subway":"","location":"krd","site_url":"https://kudago.com/krd/place/klub-finansovaya-gramotnost/","is_closed":false,"coords":{"lat":45.102209,"lon":38.983847},"is_stub":true},"description":"<p>Научиться вести прибыльный бизнес, инвестировать в различные проекты, зарабатывать на акциях и получать высокий доход, не выходя из дома? Такое возможно благодаря участию в играх «Денежный поток» и «Корпорация».</p>\n","categories":["education","games"],"age_restriction":"18+","price":"150 рублей за 1 час","is_free":false,"images":[{"image":"https://kudago.com/media/images/event/42/fb/42fb11ad8984b5d3dc3d2ab57fc44d18.jpg","thumbnails":{"640x384":"https://kudago.com/media/thumbs/640x384/images/event/42/fb/42fb11ad8984b5d3dc3d2ab57fc44d18.jpg","144x96":"https://kudago.com/media/thumbs/144x96/images/event/42/fb/42fb11ad8984b5d3dc3d2ab57fc44d18.jpg"},"source":{"name":"shutterstock.com","link":"https://www.shutterstock.com/"}}],"favorites_count":7,"comments_count":3,"short_title":"бизнес-клуб «Финансовая грамотность»"}]}