{"count":74,"next":"https://kudago.com/public-api/v1.4/events/?actual_since=1551578196.749&expand=place%2Cimages&fields=id%2Ctitle%2Cslug%2Cprice%2Ccategories%2Cimages%2Cis_free%2Cshort_title%2Cdates%2Cdescription%2Cfavorites_count%2Ccomments_count%2Cage_restriction%2Cplace&is_free=false&location=kzn&page=4&page_size=12","previous":"https://kudago.com/public-api/v1.4/events/?actual_since=1551578196.749&expand=place%2Cimages&fields=id%2Ctitle%2Cslug%2Cprice%2Ccategories%2Cimages%2Cis_free%2Cshort_title%2Cdates%2Cdescription%2Cfavorites_count%2Ccomments_count%2Cage_restriction%2Cplace&is_free=false&location=kzn&page=2&page_size=12","results":[{"id":65265,"dates":[{"start":1440873000,"end":1440887400},{"start":1441479600,"end":1441486740},{"start":1442084400,"end":1442091540},{"start":1442689200,"end":1442700000},{"start":1443294000,"end":1443304800},{"start":1445108400,"end":1445119200},{"start":1445713200,"end":1445724000},{"start":1446318000,"end":1446318000},{"start":1446922800,"end":1446922800},{"start":1447527600,"end":1447527600},{"start":1448132400,"end":1448132400},{"start":1448737200,"end":1448737200},{"start":1449946800,"end":1449946800},{"start":1451156400,"end":1451156400},{"start":1452366000,"end":1452366000},{"start":1452970800,"end":1452970800},{"start":1453575600,"end":1453575600},{"start":1454180400,"end":1454180400},{"start":1454785200,"end":1454785200},{"start":1455994800,"end":1455994800},{"start":1457204400,"end":1457204400},{"start":1458414000,"end":1458414000},{"start":1459623600,"end":1459623600},{"start":1460228400,"end":1460228400},{"start":1460833200,"end":1460833200},{"start":1462042800,"end":1462042800},{"start":-62135433000,"end":253370754000}],"title":"salsa-Party в Циферблате","slug":"salsa-party-v-ciferblate","place":{"id":8927,"title":"свободное пространство «Циферблат» на улице Щапова","slug":"svobodnoe-prostranstvo-ciferblat-na-ulice-shapova","address":"ул. Щапова, д. 47","phone":"+7 843 245-21-99","subway":"Площадь Габдуллы Тукая","location":"kzn","site_url":"https://kudago.com/kzn/place/svobodnoe-prostranstvo-ciferblat-na-ulice-shapova/","is_closed":false,"coords":{"lat":55.78875483750547,"lon":49.11555042567775},"is_stub":false},"description":"<p>Лучший способ завершить день — отправиться на знойную латино-вечеринку.</p>\n","categories":["party","dance-trainings"],"age_restriction":"16+","price":"первые 2 часа –  2 рубля в минуту, далее – 1 рубль в минуту","is_free":false,"images":[{"image":"https://kudago.com/media/images/event/cf/8a/cf8aa90554ac6a83d03f894669f814f1.jpg","thumbnails":{"640x384":"https://kudago.com/media/thumbs/640x384/images/event/cf/8a/cf8aa90554ac6a83d03f894669f814f1.jpg","144x96":"https://kudago.com/media/thumbs/144x96/images/event/cf/8a/cf8aa90554ac6a83d03f894669f814f1.jpg"},"source":{"name":"svadbuzz.ru","link":"http://www.svadbuzz.ru/comment/256878"}},{"image":"https://kudago.com/media/images/event/ab/f2/abf28a33a7f57be25d7e175dfc0c6831.jpg","thumbnails":{"640x384":"https://kudago.com/media/thumbs/640x384/images/event/ab/f2/abf28a33a7f57be25d7e175dfc0c6831.jpg","144x96":"https://kudago.com/media/thumbs/144x96/images/event/ab/f2/abf28a33a7f57be25d7e175dfc0c6831.jpg"},"source":{"name":"salsa-union.ru","link":"http://salsa-union.ru/2016/03/02/kak-tantsevat-nepravilno/"}},{"image":"https://kudago.com/media/images/event/ad/16/ad16a2b8736b8d1d051981904266e9bf.jpg","thumbnails":{"640x384":"https://kudago.com/media/thumbs/640x384/images/event/ad/16/ad16a2b8736b8d1d051981904266e9bf.jpg","144x96":"https://kudago.com/media/thumbs/144x96/images/event/ad/16/ad16a2b8736b8d1d051981904266e9bf.jpg"},"source":{"name":"dancefire.info","link":"http://www.dancefire.info/learn-a-faster-way-of-dancing-salsa/"}}],"favorites_count":10,"comments_count":0,"short_title":"Salsa-Party"},{"id":156414,"dates":[{"start":-62135433000,"end":253370754000}],"title":"игроночь в Мастерской братьев Васильевых","slug":"igra-igronoch-v-masterskoj-bratev-vasilevyih","place":{"id":8542,"title":"мастерская братьев Васильевых","slug":"masterskaya-bratev-vasilevyh","address":"ул. Зинина, д. 1","phone":"+7 843 225-44-99","subway":"","location":"kzn","site_url":"https://kudago.com/kzn/place/masterskaya-bratev-vasilevyh/","is_closed":false,"coords":{"lat":55.791663,"lon":49.156899},"is_stub":false},"description":"<p>Настольные игры и крутое кино до самого утра.</p>\n","categories":["games","night"],"age_restriction":"18+","price":"от 200 до 300 рублей","is_free":false,"images":[{"image":"https://kudago.com/media/images/event/5f/19/5f1992192c737f2862b35546cd4ab21a.jpg","thumbnails":{"640x384":"https://kudago.com/media/thumbs/640x384/images/event/5f/19/5f1992192c737f2862b35546cd4ab21a.jpg","144x96":"https://kudago.com/media/thumbs/144x96/images/event/5f/19/5f1992192c737f2862b35546cd4ab21a.jpg"},"source":{"name":"deseretnews.com","link":"http://www.deseretnews.com/article/865578386/Board-games-can-offer-many-benefits-for-families.html?pg=all"}},{"image":"https://kudago.com/media/images/event/74/e8/74e8e29c5666125f88e5bb6616ace739.jpg","thumbnails":{"640x384":"https://kudago.com/media/thumbs/640x384/images/event/74/e8/74e8e29c5666125f88e5bb6616ace739.jpg","144x96":"https://kudago.com/media/thumbs/144x96/images/event/74/e8/74e8e29c5666125f88e5bb6616ace739.jpg"},"source":{"name":"kamennoe-lug.ua.vplus.net","link":"http://kamennoe-lug.ua.vplus.net/ads/add/toys/"}},{"image":"https://kudago.com/media/images/event/c3/6f/c36f0a37e4f3cfb4d4dc8c0923969f4e.jpg","thumbnails":{"640x384":"https://kudago.com/media/thumbs/640x384/images/event/c3/6f/c36f0a37e4f3cfb4d4dc8c0923969f4e.jpg","144x96":"https://kudago.com/media/thumbs/144x96/images/event/c3/6f/c36f0a37e4f3cfb4d4dc8c0923969f4e.jpg"},"source":{"name":"velozd.ru","link":"http://velozd.ru/event.php?id=4"}}],"favorites_count":5,"comments_count":0,"short_title":"Игроночь в Мастерской братьев Васильевых"},{"id":156342,"dates":[{"start":-62135433000,"end":253370754000}],"title":"игротека в Мастерской братьев Васильевых","slug":"igra-igroteka-v-masterskoj-bratev-vasilevyih","place":{"id":8542,"title":"мастерская братьев Васильевых","slug":"masterskaya-bratev-vasilevyh","address":"ул. Зинина, д. 1","phone":"+7 843 225-44-99","subway":"","location":"kzn","site_url":"https://kudago.com/kzn/place/masterskaya-bratev-vasilevyh/","is_closed":false,"coords":{"lat":55.791663,"lon":49.156899},"is_stub":false},"description":"<p>Настолки, печеньки и тёплая компания — лучший способ настроиться на выходные.</p>\n","categories":["games"],"age_restriction":"12+","price":"100 рублей","is_free":false,"images":[{"image":"https://kudago.com/media/images/event/42/6e/426ea9d8c936ae2c693f7bc17669a112.jpg","thumbnails":{"640x384":"https://kudago.com/media/thumbs/640x384/images/event/42/6e/426ea9d8c936ae2c693f7bc17669a112.jpg","144x96":"https://kudago.com/media/thumbs/144x96/images/event/42/6e/426ea9d8c936ae2c693f7bc17669a112.jpg"},"source":{"name":"lovecity3d.com","link":"http://www.lovecity3d.com/reg/30/?trq=rekl_139&admitad_uid=0981959c98da93f1bd07bf7eca0a766b&publisher_id=121005"}},{"image":"https://kudago.com/media/images/event/ea/92/ea92d45c828117f94d71a8a34643e13a.jpg","thumbnails":{"640x384":"https://kudago.com/media/thumbs/640x384/images/event/ea/92/ea92d45c828117f94d71a8a34643e13a.jpg","144x96":"https://kudago.com/media/thumbs/144x96/images/event/ea/92/ea92d45c828117f94d71a8a34643e13a.jpg"},"source":{"name":"qwzxdqt.3d9dfcasino.xyz","link":"http://qwzxdqt.3d9dfcasino.xyz/atlantic-city-casino-borgata/gambling-board-games2016-04-21.php"}},{"image":"https://kudago.com/media/images/event/86/60/86605201585c894a0c176f07397829bf.jpg","thumbnails":{"640x384":"https://kudago.com/media/thumbs/640x384/images/event/86/60/86605201585c894a0c176f07397829bf.jpg","144x96":"https://kudago.com/media/thumbs/144x96/images/event/86/60/86605201585c894a0c176f07397829bf.jpg"},"source":{"name":"миамир.рф","link":"http://миамир.рф/obrazovanie/10987"}}],"favorites_count":2,"comments_count":0,"short_title":"Игротека в Мастерской братьев Васильевых"},{"id":63980,"dates":[{"start":-62135433000,"end":253370754000}],"title":"выставка «Классическое и современное искусство России XVIII-XX веков»","slug":"vystavka-klassicheskoe-i-sovremennoe-iskusstvo-kzn","place":{"id":4698,"title":"Музей изобразительных искусств Республики Татарстан","slug":"muzej-izobrazitelnyh-iskusstv","address":"ул. К.Маркса, 64","phone":"+7 843 236-69-31","subway":"","location":"kzn","site_url":"https://kudago.com/kzn/place/muzej-izobrazitelnyh-iskusstv/","is_closed":false,"coords":{"lat":55.7946839999999,"lon":49.13417199999999},"is_stub":false},"description":"<p>Выставка произведений графики различных эпох, входящих в богатую коллекцию музея изобразительных искусств Татарстана. В экспозиции представлены образцы иконографии старой Казани, а также произведения отечественных и европейских художников XVI-XIX столетий.</p>\n","categories":["exhibition","permanent-exhibitions"],"age_restriction":"12+","price":"от 50 до 300 рублей","is_free":false,"images":[{"image":"https://kudago.com/media/images/event/04/4d/044d33ff1c973d572765646fa9267f65.jpg","thumbnails":{"640x384":"https://kudago.com/media/thumbs/640x384/images/event/04/4d/044d33ff1c973d572765646fa9267f65.jpg","144x96":"https://kudago.com/media/thumbs/144x96/images/event/04/4d/044d33ff1c973d572765646fa9267f65.jpg"},"source":{"name":"g2.izo-museum.ru","link":"http://g2.izo-museum.ru/v/kollekciya/jivopis_kak-by-kollekciya_20120422/"}},{"image":"https://kudago.com/media/images/event/9e/bd/9ebd59547dbda7f837e0971b4bbd152f.jpg","thumbnails":{"640x384":"https://kudago.com/media/thumbs/640x384/images/event/9e/bd/9ebd59547dbda7f837e0971b4bbd152f.jpg","144x96":"https://kudago.com/media/thumbs/144x96/images/event/9e/bd/9ebd59547dbda7f837e0971b4bbd152f.jpg"},"source":{"name":"g2.izo-museum.ru","link":"http://g2.izo-museum.ru/v/kollekciya/jivopis_kak-by-kollekciya_20120422/"}},{"image":"https://kudago.com/media/images/event/8e/8f/8e8f3b9f811f6d25e32343c7b01b6596.jpg","thumbnails":{"640x384":"https://kudago.com/media/thumbs/640x384/images/event/8e/8f/8e8f3b9f811f6d25e32343c7b01b6596.jpg","144x96":"https://kudago.com/media/thumbs/144x96/images/event/8e/8f/8e8f3b9f811f6d25e32343c7b01b6596.jpg"},"source":{"name":"g2.izo-museum.ru/","link":"http://g2.izo-museum.ru/v/kollekciya/jivopis_kak-by-kollekciya_20120422/"}}],"favorites_count":14,"comments_count":0,"short_title":"Классическое и современное искусство России XVIII-XX веков"},{"id":63979,"dates":[{"start":-62135433000,"end":253370754000}],"title":"выставка «Как я устроен»","slug":"vystavka-kak-ya-ustroen","place":{"id":4695,"title":"музей кафедры нормальной анатомии Казанского государственного медицинского университета","slug":"muzej-normalnoj-anatomii-universiteta-kazani","address":"ул. Университетская, д. 13","phone":"+7 843 253-60-26","subway":"Площадь Габдуллы Тукая","location":"kzn","site_url":"https://kudago.com/kzn/place/muzej-normalnoj-anatomii-universiteta-kazani/","is_closed":false,"coords":{"lat":55.78916299999999,"lon":49.12150599999998},"is_stub":false},"description":"<p>Экскурсия на естественно-научную выставку, участники которой познакомятся с внутренним строением человеческого организма, физиологическими функциями его органов. В экспозиции представлены препараты мышц и костей, некоторых внутренних органов, кровеносных сосудов. Эти препараты были подготовлены выдающимися отечественными анатомами.</p>\n","categories":["exhibition","permanent-exhibitions"],"age_restriction":"16+","price":"от 50 до 150 рублей","is_free":false,"images":[{"image":"https://kudago.com/media/images/event/fe/40/fe408881f58a088cb0495b673594f8a0.jpg","thumbnails":{"640x384":"https://kudago.com/media/thumbs/640x384/images/event/fe/40/fe408881f58a088cb0495b673594f8a0.jpg","144x96":"https://kudago.com/media/thumbs/144x96/images/event/fe/40/fe408881f58a088cb0495b673594f8a0.jpg"},"source":{"name":"museum.ru","link":"http://www.museum.ru/M3117images"}},{"image":"https://kudago.com/media/images/event/67/8e/678eb3bae9af1e96424dfcebe201a68e.jpg","thumbnails":{"640x384":"https://kudago.com/media/thumbs/640x384/images/event/67/8e/678eb3bae9af1e96424dfcebe201a68e.jpg","144x96":"https://kudago.com/media/thumbs/144x96/images/event/67/8e/678eb3bae9af1e96424dfcebe201a68e.jpg"},"source":{"name":"museum.ru","link":"http://www.museum.ru/M3117images"}},{"image":"https://kudago.com/media/images/event/18/80/1880bc212f3401038a55bf285e1ff269.jpg","thumbnails":{"640x384":"https://kudago.com/media/thumbs/640x384/images/event/18/80/1880bc212f3401038a55bf285e1ff269.jpg","144x96":"https://kudago.com/media/thumbs/144x96/images/event/18/80/1880bc212f3401038a55bf285e1ff269.jpg"},"source":{"name":"museum.ru","link":"http://www.museum.ru/M3117images"}}],"favorites_count":9,"comments_count":1,"short_title":"Как я устроен"},{"id":63957,"dates":[{"start":-62135433000,"end":253370754000}],"title":"выставка «Женская красота в советском Союзе»","slug":"vystavka-zhenskaya-krasota-v-sovetskom-soyuze","place":{"id":4697,"title":"музей социалистического быта Казани","slug":"muzej-socialisticheskogo-byta-kazani","address":"ул. Университетская, д. 6","phone":"+7 843 292-59-47","subway":"Площадь Габдуллы Тукая","location":"kzn","site_url":"https://kudago.com/kzn/place/muzej-socialisticheskogo-byta-kazani/","is_closed":false,"coords":{"lat":55.78643999999989,"lon":49.119206},"is_stub":false},"description":"<p>Посетители этой необычной выставки познакомятся с предметами, популярными у прекрасной половины населения СССР. Здесь представлены сшитые дома платья, самодельные бигуди и изготовленная из паяльника расческа для укладки волос, а также знаменитые духи, продающаяся в рядовых магазинах косметика и другие необходимые любой красотке вещи.</p>\n","categories":["exhibition"],"age_restriction":"6+","price":"от 150 до 200 рублей","is_free":false,"images":[{"image":"https://kudago.com/media/images/event/9d/ef/9def4221d24b48f049c059376c98d3c4.jpg","thumbnails":{"640x384":"https://kudago.com/media/thumbs/640x384/images/event/9d/ef/9def4221d24b48f049c059376c98d3c4.jpg","144x96":"https://kudago.com/media/thumbs/144x96/images/event/9d/ef/9def4221d24b48f049c059376c98d3c4.jpg"},"source":{"name":"vk.com/muzeisb","link":"http://vk.com/album-24596006_154060409"}},{"image":"https://kudago.com/media/images/event/79/94/799459a26ef246324d62611be5476540.jpg","thumbnails":{"640x384":"https://kudago.com/media/thumbs/640x384/images/event/79/94/799459a26ef246324d62611be5476540.jpg","144x96":"https://kudago.com/media/thumbs/144x96/images/event/79/94/799459a26ef246324d62611be5476540.jpg"},"source":{"name":"vk.com/muzeisb","link":"http://vk.com/album-24596006_154060409"}},{"image":"https://kudago.com/media/images/event/73/8b/738bf083f0d8280ab247dffb8cb9ca76.jpg","thumbnails":{"640x384":"https://kudago.com/media/thumbs/640x384/images/event/73/8b/738bf083f0d8280ab247dffb8cb9ca76.jpg","144x96":"https://kudago.com/media/thumbs/144x96/images/event/73/8b/738bf083f0d8280ab247dffb8cb9ca76.jpg"},"source":{"name":"vk.com/muzeisb","link":"http://vk.com/album-24596006_154060409"}}],"favorites_count":9,"comments_count":0,"short_title":"Женская красота в советском Союзе"},{"id":63961,"dates":[{"start":-62135433000,"end":253370754000}],"title":"выставка «Западноевропейская живопись»","slug":"vystavka-zapadnoevropejskaya-zhivopis","place":{"id":4698,"title":"Музей изобразительных искусств Республики Татарстан","slug":"muzej-izobrazitelnyh-iskusstv","address":"ул. К.Маркса, 64","phone":"+7 843 236-69-31","subway":"","location":"kzn","site_url":"https://kudago.com/kzn/place/muzej-izobrazitelnyh-iskusstv/","is_closed":false,"coords":{"lat":55.7946839999999,"lon":49.13417199999999},"is_stub":false},"description":"<p>В Музее изобразительных искусств ежедневно проходит выставка картин известных западноевропейских художников конца XIV – первой половины XX столетий. Экспозиция основывается на коллекции живописи, принадлежавшей А.Ф. Лихачёву.</p>\n","categories":["exhibition","permanent-exhibitions"],"age_restriction":"6+","price":"от 50 до 300 рублей","is_free":false,"images":[{"image":"https://kudago.com/media/images/event/56/dd/56dde07af6259cc8d499cd2d78273eeb.jpg","thumbnails":{"640x384":"https://kudago.com/media/thumbs/640x384/images/event/56/dd/56dde07af6259cc8d499cd2d78273eeb.jpg","144x96":"https://kudago.com/media/thumbs/144x96/images/event/56/dd/56dde07af6259cc8d499cd2d78273eeb.jpg"},"source":{"name":"0-360.ru","link":"http://0-360.ru/images/statya/ac1pvw.jpg"}},{"image":"https://kudago.com/media/images/event/05/ac/05acb392a29e730e1a1a0b2bce793509.jpg","thumbnails":{"640x384":"https://kudago.com/media/thumbs/640x384/images/event/05/ac/05acb392a29e730e1a1a0b2bce793509.jpg","144x96":"https://kudago.com/media/thumbs/144x96/images/event/05/ac/05acb392a29e730e1a1a0b2bce793509.jpg"},"source":{"name":"g2.izo-museum.ru","link":"http://g2.izo-museum.ru/v/kollekciya/jivopis_kak-by-kollekciya_20120422/zapadnaya-jivopis_zhivopis_20120422/zh-187_zapadnaya-zhivopis_20120422.jpg.html"}},{"image":"https://kudago.com/media/images/event/b0/0c/b00cf59de07ee14913f60eac564bea4f.jpg","thumbnails":{"640x384":"https://kudago.com/media/thumbs/640x384/images/event/b0/0c/b00cf59de07ee14913f60eac564bea4f.jpg","144x96":"https://kudago.com/media/thumbs/144x96/images/event/b0/0c/b00cf59de07ee14913f60eac564bea4f.jpg"},"source":{"name":"g2.izo-museum.ru","link":"http://g2.izo-museum.ru/v/kollekciya/jivopis_kak-by-kollekciya_20120422/zapadnaya-jivopis_zhivopis_20120422/zh-187_zapadnaya-zhivopis_20120422.jpg.html"}}],"favorites_count":7,"comments_count":0,"short_title":"Западноевропейская живопись"},{"id":63309,"dates":[{"start":-62135433000,"end":253370754000}],"title":"научное шоу «Тайны нашей планеты»","slug":"nauchnoe-shou-tajny-nashej-planety","place":{"id":8150,"title":"Дом занимательной науки и техники","slug":"dom-zanimatelnoj-nauki-i-tehniki","address":"ул. Тукая, д. 91","phone":"+7 843 250-00-30","subway":"Площадь Габдуллы Тукая","location":"kzn","site_url":"https://kudago.com/kzn/place/dom-zanimatelnoj-nauki-i-tehniki/","is_closed":false,"coords":{"lat":55.77437499999991,"lon":49.11997899999997},"is_stub":false},"description":"<p>Кометы, астероиды, метеоритные дожди... Как Земля защищается сама и защищает нас от их вредного воздействия? Тайны раскрываются на научном шоу.</p>\n","categories":["kids","education","show"],"age_restriction":"6+","price":"до 200 рублей","is_free":false,"images":[{"image":"https://kudago.com/media/images/event/1d/1c/1d1c2511e5e23eff4788dc3438a5ca45.jpg","thumbnails":{"640x384":"https://kudago.com/media/thumbs/640x384/images/event/1d/1c/1d1c2511e5e23eff4788dc3438a5ca45.jpg","144x96":"https://kudago.com/media/thumbs/144x96/images/event/1d/1c/1d1c2511e5e23eff4788dc3438a5ca45.jpg"},"source":{"name":"science-house.ru","link":"http://www.science-house.ru/exposure/nauchnye-shou/tayny-nashey-planety/"}},{"image":"https://kudago.com/media/images/event/7e/e9/7ee93095c3d6378f6453b8d80433fe0e.jpg","thumbnails":{"640x384":"https://kudago.com/media/thumbs/640x384/images/event/7e/e9/7ee93095c3d6378f6453b8d80433fe0e.jpg","144x96":"https://kudago.com/media/thumbs/144x96/images/event/7e/e9/7ee93095c3d6378f6453b8d80433fe0e.jpg"},"source":{"name":"science-house.ru","link":"http://www.science-house.ru/exposure/nauchnye-shou/tayny-nashey-planety/"}},{"image":"https://kudago.com/media/images/event/e3/33/e3335d0a7a63d70bc7f172eb59e27a25.jpg","thumbnails":{"640x384":"https://kudago.com/media/thumbs/640x384/images/event/e3/33/e3335d0a7a63d70bc7f172eb59e27a25.jpg","144x96":"https://kudago.com/media/thumbs/144x96/images/event/e3/33/e3335d0a7a63d70bc7f172eb59e27a25.jpg"},"source":{"name":"science-house.ru","link":"http://www.science-house.ru/exposure/nauchnye-shou/tayny-nashey-planety/"}},{"image":"https://kudago.com/media/images/event/31/f0/31f0e8377a2b9ae6029dcdb1441df1bb.jpg","thumbnails":{"640x384":"https://kudago.com/media/thumbs/640x384/images/event/31/f0/31f0e8377a2b9ae6029dcdb1441df1bb.jpg","144x96":"https://kudago.com/media/thumbs/144x96/images/event/31/f0/31f0e8377a2b9ae6029dcdb1441df1bb.jpg"},"source":{"name":"science-house.ru","link":"http://www.science-house.ru/exposure/nauchnye-shou/tayny-nashey-planety/"}},{"image":"https://kudago.com/media/images/event/b5/d1/b5d1756cdf6d9a67e90dff51a4f51b01.jpg","thumbnails":{"640x384":"https://kudago.com/media/thumbs/640x384/images/event/b5/d1/b5d1756cdf6d9a67e90dff51a4f51b01.jpg","144x96":"https://kudago.com/media/thumbs/144x96/images/event/b5/d1/b5d1756cdf6d9a67e90dff51a4f51b01.jpg"},"source":{"name":"science-house.ru","link":"http://www.science-house.ru/exposure/nauchnye-shou/tayny-nashey-planety/"}},{"image":"https://kudago.com/media/images/event/56/86/5686ce6b823d8dba5f33b3f158746d75.jpg","thumbnails":{"640x384":"https://kudago.com/media/thumbs/640x384/images/event/56/86/5686ce6b823d8dba5f33b3f158746d75.jpg","144x96":"https://kudago.com/media/thumbs/144x96/images/event/56/86/5686ce6b823d8dba5f33b3f158746d75.jpg"},"source":{"name":"science-house.ru","link":"http://www.science-house.ru/exposure/nauchnye-shou/tayny-nashey-planety/"}}],"favorites_count":6,"comments_count":0,"short_title":"Тайны нашей планеты"},{"id":64003,"dates":[{"start":-62135433000,"end":253370754000}],"title":"выставка «Человек XXI века»","slug":"vystavka-chelovek-xxi-veka","place":{"id":4695,"title":"музей кафедры нормальной анатомии Казанского государственного медицинского университета","slug":"muzej-normalnoj-anatomii-universiteta-kazani","address":"ул. Университетская, д. 13","phone":"+7 843 253-60-26","subway":"Площадь Габдуллы Тукая","location":"kzn","site_url":"https://kudago.com/kzn/place/muzej-normalnoj-anatomii-universiteta-kazani/","is_closed":false,"coords":{"lat":55.78916299999999,"lon":49.12150599999998},"is_stub":false},"description":"<p>Участники этой экскурсии познакомятся с достижениями человека в области медицины и физиологии. На выставке представлены протезы суставов и кровеносных сосудов, искусственные сердечные клапаны, силиконовые имплантаты и другие изобретения в этой сфере. Здесь можно увидеть современные рентгеновские снимки, фотографии срезов внутренних органов и прочие результаты современных методов исследования.</p>\n","categories":["exhibition","permanent-exhibitions"],"age_restriction":"12+","price":"от 50 до 150 рублей","is_free":false,"images":[{"image":"https://kudago.com/media/images/event/cc/cf/cccf9244efe401e87cebb479463b4777.jpg","thumbnails":{"640x384":"https://kudago.com/media/thumbs/640x384/images/event/cc/cf/cccf9244efe401e87cebb479463b4777.jpg","144x96":"https://kudago.com/media/thumbs/144x96/images/event/cc/cf/cccf9244efe401e87cebb479463b4777.jpg"},"source":{"name":"m.prokazan.ru","link":"http://m.prokazan.ru/news/view/50940"}},{"image":"https://kudago.com/media/images/event/1e/ab/1eabf6cee5445c322f5e20bb137e2589.jpg","thumbnails":{"640x384":"https://kudago.com/media/thumbs/640x384/images/event/1e/ab/1eabf6cee5445c322f5e20bb137e2589.jpg","144x96":"https://kudago.com/media/thumbs/144x96/images/event/1e/ab/1eabf6cee5445c322f5e20bb137e2589.jpg"},"source":{"name":"m.prokazan.ru","link":"http://m.prokazan.ru/news/view/50940"}},{"image":"https://kudago.com/media/images/event/0e/d5/0ed5119f0f9681eb51f9c7c3f1d74763.jpg","thumbnails":{"640x384":"https://kudago.com/media/thumbs/640x384/images/event/0e/d5/0ed5119f0f9681eb51f9c7c3f1d74763.jpg","144x96":"https://kudago.com/media/thumbs/144x96/images/event/0e/d5/0ed5119f0f9681eb51f9c7c3f1d74763.jpg"},"source":{"name":"m.prokazan.ru","link":"http://m.prokazan.ru/news/view/50940"}}],"favorites_count":8,"comments_count":0,"short_title":"Человек XXI века"},{"id":61005,"dates":[{"start":-62135433000,"end":253370754000}],"title":"выставка «Вечный Египет»","slug":"vystavka-vechnyj-egipet","place":{"id":4702,"title":"Национальный музей Республики Татарстан","slug":"nacionalnyj-muzej-respubliki-tatarstan","address":"ул. Кремлевская, д. 2","phone":"+7 843 292-89-84","subway":"Кремлевская","location":"kzn","site_url":"https://kudago.com/kzn/place/nacionalnyj-muzej-respubliki-tatarstan/","is_closed":false,"coords":{"lat":55.79559999999997,"lon":49.11011500000001},"is_stub":false},"description":"<p>Выставка, в которой соединятся древние сокровища Египта и технологии 21 века.</p>\n","categories":["exhibition","permanent-exhibitions"],"age_restriction":"18+","price":"от 25 до 50 рублей","is_free":false,"images":[{"image":"https://kudago.com/media/images/event/29/6e/296e403b76c60327959d4bd727b63376.jpg","thumbnails":{"640x384":"https://kudago.com/media/thumbs/640x384/images/event/29/6e/296e403b76c60327959d4bd727b63376.jpg","144x96":"https://kudago.com/media/thumbs/144x96/images/event/29/6e/296e403b76c60327959d4bd727b63376.jpg"},"source":{"name":"museum.ru","link":"http://www.museum.ru/alb/image.asp?41574"}}],"favorites_count":7,"comments_count":0,"short_title":"Вечный Египет"},{"id":63977,"dates":[{"start":-62135433000,"end":253370754000}],"title":"выставка «Итоги всех веков. Эпоха Историзма в России»","slug":"vystavka-itogi-vseh-vekov-epoha-istorizma-v-rossii","place":{"id":4634,"title":"музей-заповедник «Казанский Кремль»","slug":"muzej-zapovednik-kazanskij-kreml","address":"Кремль","phone":"+7 843 567-80-01","subway":"Кремлевская","location":"kzn","site_url":"https://kudago.com/kzn/place/muzej-zapovednik-kazanskij-kreml/","is_closed":false,"coords":{"lat":55.7977017548241,"lon":49.10383097622552},"is_stub":false},"description":"<p>Выставка произведений изобразительного и декоративно-прикладного искусства, созданных в разные эпохи. Предметы экспозиции наглядно демонстрируют стили, популярные в тот или иной период. Посетители выставки увидят удивительные вазы, часы, поделки из стекла, фарфора, камня и металлов.</p>\n","categories":["exhibition"],"age_restriction":"6+","price":"от 50 до 150 рублей","is_free":false,"images":[{"image":"https://kudago.com/media/images/event/2c/e4/2ce4b8b8ff1d7c90a3983226ce810d19.jpg","thumbnails":{"640x384":"https://kudago.com/media/thumbs/640x384/images/event/2c/e4/2ce4b8b8ff1d7c90a3983226ce810d19.jpg","144x96":"https://kudago.com/media/thumbs/144x96/images/event/2c/e4/2ce4b8b8ff1d7c90a3983226ce810d19.jpg"},"source":{"name":"museum.ru","link":"http://www.museum.ru/N55890"}},{"image":"https://kudago.com/media/images/event/ba/62/ba6265ca0408e4174662b319f8b2a79b.jpg","thumbnails":{"640x384":"https://kudago.com/media/thumbs/640x384/images/event/ba/62/ba6265ca0408e4174662b319f8b2a79b.jpg","144x96":"https://kudago.com/media/thumbs/144x96/images/event/ba/62/ba6265ca0408e4174662b319f8b2a79b.jpg"},"source":{"name":"museum.ru","link":"http://www.museum.ru/N55890"}}],"favorites_count":14,"comments_count":0,"short_title":""},{"id":103496,"dates":[{"start":1449090000,"end":253370754000}],"title":"выставка мишек Тедди","slug":"vystavka-mishek-teddi","place":{"id":8014,"title":"ресторанно-развлекательный комплекс «Туган авылым»","slug":"restoranno-razvlekatelnyj-kompleks-tugan-avylym","address":"ул. Туфана Миннуллина, д. 14/56","phone":"+7 843 277-25-00","subway":"Суконная Слобода","location":"kzn","site_url":"https://kudago.com/kzn/place/restoranno-razvlekatelnyj-kompleks-tugan-avylym/","is_closed":false,"coords":{"lat":55.779236,"lon":49.13598699999999},"is_stub":false},"description":"<p>Коллекция авторских игрушек знаменитой серии порадует казанцев ещё и тем, что станет первой экспозицией нового международного музея «Мишкин дом».</p>\n","categories":["exhibition","permanent-exhibitions"],"age_restriction":null,"price":"от 50 до 100 рублей","is_free":false,"images":[{"image":"https://kudago.com/media/images/event/88/3f/883f86d36757d8b1c3f13d4c372f9baa.jpg","thumbnails":{"640x384":"https://kudago.com/media/thumbs/640x384/images/event/88/3f/883f86d36757d8b1c3f13d4c372f9baa.jpg","144x96":"https://kudago.com/media/thumbs/144x96/images/event/88/3f/883f86d36757d8b1c3f13d4c372f9baa.jpg"},"source":{"name":"blog-fiesta","link":"http://www.blog-fiesta.com/msk/events/vystavka-kollektsionnye-mishki-teddi-21745dbb-b959-49d5-b9e6-502d061967c6/"}},{"image":"https://kudago.com/media/images/event/04/9a/049a5f7027a0da48a1ec6dfa9ea69b0b.jpg","thumbnails":{"640x384":"https://kudago.com/media/thumbs/640x384/images/event/04/9a/049a5f7027a0da48a1ec6dfa9ea69b0b.jpg","144x96":"https://kudago.com/media/thumbs/144x96/images/event/04/9a/049a5f7027a0da48a1ec6dfa9ea69b0b.jpg"},"source":{"name":"ati-times","link":"http://ati-times.tatar-inform.ru/news/culture/29385154/"}},{"image":"https://kudago.com/media/images/event/58/9d/589d7e48f7b192a144aabc42fe40f59d.jpg","thumbnails":{"640x384":"https://kudago.com/media/thumbs/640x384/images/event/58/9d/589d7e48f7b192a144aabc42fe40f59d.jpg","144x96":"https://kudago.com/media/thumbs/144x96/images/event/58/9d/589d7e48f7b192a144aabc42fe40f59d.jpg"},"source":{"name":"kingcoupon","link":"http://kingcoupon.ru/offer/945"}}],"favorites_count":8,"comments_count":0,"short_title":"Тедди"}]}