{"count":15,"next":"https://kudago.com/public-api/v1.4/events/?actual_since=1551577151.154&expand=place%2Cimages&fields=id%2Ctitle%2Cslug%2Cprice%2Ccategories%2Cimages%2Cis_free%2Cshort_title%2Cdates%2Cdescription%2Cfavorites_count%2Ccomments_count%2Cage_restriction%2Cplace&is_free=false&location=krasnoyarsk&page=2&page_size=12","previous":null,"results":[{"id":162269,"dates":[{"start":1504198800,"end":253370754000}],"title":"выставка «Кунсткамера, или Всё о двухголовых»","slug":"vyistavka-kunstkamera-ili-vsyo-o-dvuhgolovyih","place":{"id":15243,"title":"Красноярский краевой краеведческий музей","slug":"krasnoyarskij-kraevoj-kraevedcheskij-muzej","address":"ул. Дубровинского, д.84","phone":"+7 391 227-05-80, +7 391 227-92-04","subway":"","location":"krasnoyarsk","site_url":"https://kudago.com/krasnoyarsk/place/krasnoyarskij-kraevoj-kraevedcheskij-muzej/","is_closed":false,"coords":{"lat":56.00739450865459,"lon":92.87279068136647},"is_stub":false},"description":"<p>В Красноярске появилась своя кунсткамера, где собраны диковинные экспонаты с анатомическими изъянами — по подобию первого в России естественнонаучного музея в Петербурге.</p>\n","categories":["exhibition"],"age_restriction":"12+","price":"от 70 до 150 рублей","is_free":false,"images":[{"image":"https://kudago.com/media/images/event/5b/41/5b4131a5eaad1f1d52ed8f170681b239.jpg","thumbnails":{"640x384":"https://kudago.com/media/thumbs/640x384/images/event/5b/41/5b4131a5eaad1f1d52ed8f170681b239.jpg","144x96":"https://kudago.com/media/thumbs/144x96/images/event/5b/41/5b4131a5eaad1f1d52ed8f170681b239.jpg"},"source":{"name":"my.krskstate.ru","link":"http://my.krskstate.ru/docs/muzeums/krasnoyarskiy-kraevoy-kraevedcheskiy-muzey/"}}],"favorites_count":2,"comments_count":0,"short_title":"Кунсткамера, или Всё о двухголовых"},{"id":96035,"dates":[{"start":-62135433000,"end":253370754000}],"title":"выставка «Русское классическое искусство ХVIII — начала ХХ веков»","slug":"vystavka-russkoe-klassicheskoe-iskusstvo","place":{"id":28336,"title":"красноярский художественный музей имени В.И. Сурикова. Отдел русского искусства XVIII-нач.XX вв.","slug":"krasnoyarskij-hudozhestvennyj-muzej-rusisk","address":"ул. Парижской коммуны, д.20","phone":"+7 391 212-12-32","subway":"","location":"krasnoyarsk","site_url":"https://kudago.com/krasnoyarsk/place/krasnoyarskij-hudozhestvennyj-muzej-rusisk/","is_closed":false,"coords":{"lat":56.01126700000015,"lon":92.8816300000003},"is_stub":false},"description":"<p>На постоянной выставке представлена большая коллекция русской иконописи, парадные и камерные портреты XVIII века, романтические пейзажи и натюрморты XIX века, работы художников-передвижников — Маковского, Шишкина, Репина, Крамского, а также полотна других мастеров живописи, таких как Левитан, Айвазовский и Бенуа.</p>\n","categories":["exhibition"],"age_restriction":"6+","price":"от 50 до 100 рублей","is_free":false,"images":[{"image":"https://kudago.com/media/images/event/22/dc/22dc9d20daf0233722b0ef3f063b1f74.jpg","thumbnails":{"640x384":"https://kudago.com/media/thumbs/640x384/images/event/22/dc/22dc9d20daf0233722b0ef3f063b1f74.jpg","144x96":"https://kudago.com/media/thumbs/144x96/images/event/22/dc/22dc9d20daf0233722b0ef3f063b1f74.jpg"},"source":{"name":"afisha.sibnovosti.ru","link":"http://afisha.sibnovosti.ru/events/russkoe-klassicheskoe-iskusstvo"}},{"image":"https://kudago.com/media/images/event/86/36/8636d1e6dac7b2b5698e65d1c9a6d943.jpg","thumbnails":{"640x384":"https://kudago.com/media/thumbs/640x384/images/event/86/36/8636d1e6dac7b2b5698e65d1c9a6d943.jpg","144x96":"https://kudago.com/media/thumbs/144x96/images/event/86/36/8636d1e6dac7b2b5698e65d1c9a6d943.jpg"},"source":{"name":"2do2go.ru","link":"http://www.2do2go.ru/krsk/events/18872/vystavka-russkoe-klassicheskoe-iskusstvo"}},{"image":"https://kudago.com/media/images/event/5d/0c/5d0c70b7ea6e9e5dd667bbf2ac5921ee.jpg","thumbnails":{"640x384":"https://kudago.com/media/thumbs/640x384/images/event/5d/0c/5d0c70b7ea6e9e5dd667bbf2ac5921ee.jpg","144x96":"https://kudago.com/media/thumbs/144x96/images/event/5d/0c/5d0c70b7ea6e9e5dd667bbf2ac5921ee.jpg"},"source":{"name":"surikov-museum.ru","link":"http://www.surikov-museum.ru/vystavki"}}],"favorites_count":1,"comments_count":0,"short_title":"Русское классическое искусство ХVIII — начала ХХ веков"},{"id":65940,"dates":[{"start":-62135433000,"end":253370754000}],"title":"искусство XX-XXI веков","slug":"iskusstvo-xx-xxi-vekov","place":{"id":15411,"title":"красноярский художественный музей имени В.И. Сурикова. Отдел искусства XX-XXI вв.","slug":"krasnoyarskij-hudozhestvennyj-muzej-imeni-vi-surik","address":"просп. Мира, д. 12","phone":"+7 391 227-25-58","subway":"","location":"krasnoyarsk","site_url":"https://kudago.com/krasnoyarsk/place/krasnoyarskij-hudozhestvennyj-muzej-imeni-vi-surik/","is_closed":false,"coords":{"lat":56.0133653956949,"lon":92.89060054959234},"is_stub":false},"description":"","categories":["exhibition"],"age_restriction":null,"price":"от 50 до 100 рублей","is_free":false,"images":[{"image":"https://kudago.com/media/images/event/9d/78/9d787ae4fe63c45960d75d1e48b1df93.JPG","thumbnails":{"640x384":"https://kudago.com/media/thumbs/640x384/images/event/9d/78/9d787ae4fe63c45960d75d1e48b1df93.JPG","144x96":"https://kudago.com/media/thumbs/144x96/images/event/9d/78/9d787ae4fe63c45960d75d1e48b1df93.JPG"},"source":{"name":"2do2go","link":"http://www.2do2go.ru/bel/events/17021/postoyannaya-ekspoziciya-otechestvennoe-iskusstvo-xx--xxi-vekov"}},{"image":"https://kudago.com/media/images/event/1e/e5/1ee5dfe598168e1244da89c7ee82d3bc.JPG","thumbnails":{"640x384":"https://kudago.com/media/thumbs/640x384/images/event/1e/e5/1ee5dfe598168e1244da89c7ee82d3bc.JPG","144x96":"https://kudago.com/media/thumbs/144x96/images/event/1e/e5/1ee5dfe598168e1244da89c7ee82d3bc.JPG"},"source":{"name":"2do2go","link":"http://www.2do2go.ru/bel/events/17021/postoyannaya-ekspoziciya-otechestvennoe-iskusstvo-xx--xxi-vekov"}},{"image":"https://kudago.com/media/images/event/78/82/788200002d584c0855ffdc5430003336.jpg","thumbnails":{"640x384":"https://kudago.com/media/thumbs/640x384/images/event/78/82/788200002d584c0855ffdc5430003336.jpg","144x96":"https://kudago.com/media/thumbs/144x96/images/event/78/82/788200002d584c0855ffdc5430003336.jpg"},"source":{"name":"tanais.info","link":"http://www.tanais.info/art/pic/benois3.html"}}],"favorites_count":2,"comments_count":0,"short_title":"искусство XX-XXI веков"},{"id":69519,"dates":[{"start":-62135433000,"end":253370754000}],"title":"выставка «Магия вечного... Искусство народов Сибири»","slug":"vystavka-magiya-vechnogo","place":{"id":28338,"title":"красноярский художественный музей имени В.И. Сурикова. Отдел декоративно-прикладного искусства","slug":"krasnoyarskij-hudozhestvennyj-muzej-dekor","address":"просп. им. газеты «Красноярский рабочий», д.68","phone":"+7 391 212-12-32","subway":"","location":"krasnoyarsk","site_url":"https://kudago.com/krasnoyarsk/place/krasnoyarskij-hudozhestvennyj-muzej-dekor/","is_closed":false,"coords":{"lat":56.011545,"lon":92.96717},"is_stub":false},"description":"","categories":["exhibition"],"age_restriction":null,"price":"от 50 до 100 рублей","is_free":false,"images":[{"image":"https://kudago.com/media/images/event/c8/6e/c86ee150c5ed9230813963629ff7220e.jpg","thumbnails":{"640x384":"https://kudago.com/media/thumbs/640x384/images/event/c8/6e/c86ee150c5ed9230813963629ff7220e.jpg","144x96":"https://kudago.com/media/thumbs/144x96/images/event/c8/6e/c86ee150c5ed9230813963629ff7220e.jpg"},"source":{"name":"km.ru","link":"http://images.km.ru/kino/2009/02/xan/1.jpg"}}],"favorites_count":2,"comments_count":0,"short_title":"Магия вечного"},{"id":150679,"dates":[{"start":1491930000,"end":1493571600},{"start":1493571600,"end":1496250000},{"start":1496250000,"end":253370754000}],"title":"выставка «Астероидная опасность. Метеоритный дождь в Красноярске»","slug":"vystavka-asteroidnaya-opasnost-meteoritnyj-dozhd-v-krasnoyarske","place":{"id":15243,"title":"Красноярский краевой краеведческий музей","slug":"krasnoyarskij-kraevoj-kraevedcheskij-muzej","address":"ул. Дубровинского, д.84","phone":"+7 391 227-05-80, +7 391 227-92-04","subway":"","location":"krasnoyarsk","site_url":"https://kudago.com/krasnoyarsk/place/krasnoyarskij-kraevoj-kraevedcheskij-muzej/","is_closed":false,"coords":{"lat":56.00739450865459,"lon":92.87279068136647},"is_stub":false},"description":"<p>Идея этой выставки родилась во время международной экспедиции к месту падения метеорита «Палласово железо». Специалисты в области метеоритики из Москвы, Барнаула, Красноярска и Копенгагена пришли к выводу, что в пору возросшего интереса к теме космоса истории о каменных космических пришельцах придутся как нельзя кстати.</p>\n","categories":["exhibition"],"age_restriction":"12+","price":"от 70 до 150 рублей","is_free":false,"images":[{"image":"https://kudago.com/media/images/event/e8/57/e857862cd780e8da3c47c1a133ddee30.jpg","thumbnails":{"640x384":"https://kudago.com/media/thumbs/640x384/images/event/e8/57/e857862cd780e8da3c47c1a133ddee30.jpg","144x96":"https://kudago.com/media/thumbs/144x96/images/event/e8/57/e857862cd780e8da3c47c1a133ddee30.jpg"},"source":{"name":"kkkm.ru","link":"http://www.kkkm.ru/posetitelyam/vystavki/asteroidnaya-opasnost-meteoritnyj-dozhd-v-krasnoyarske"}},{"image":"https://kudago.com/media/images/event/5b/e8/5be8d66dd81049fc7a9e433e195393c4.jpg","thumbnails":{"640x384":"https://kudago.com/media/thumbs/640x384/images/event/5b/e8/5be8d66dd81049fc7a9e433e195393c4.jpg","144x96":"https://kudago.com/media/thumbs/144x96/images/event/5b/e8/5be8d66dd81049fc7a9e433e195393c4.jpg"},"source":{"name":"kkkm.ru","link":"http://www.kkkm.ru/posetitelyam/vystavki/asteroidnaya-opasnost-meteoritnyj-dozhd-v-krasnoyarske"}},{"image":"https://kudago.com/media/images/event/4d/02/4d02d3505c3a73e7ac4605712c21273a.jpg","thumbnails":{"640x384":"https://kudago.com/media/thumbs/640x384/images/event/4d/02/4d02d3505c3a73e7ac4605712c21273a.jpg","144x96":"https://kudago.com/media/thumbs/144x96/images/event/4d/02/4d02d3505c3a73e7ac4605712c21273a.jpg"},"source":{"name":"kkkm.ru","link":"http://www.kkkm.ru/posetitelyam/vystavki/asteroidnaya-opasnost-meteoritnyj-dozhd-v-krasnoyarske"}}],"favorites_count":0,"comments_count":0,"short_title":"Астероидная опасность. Метеоритный дождь в Красноярске"},{"id":151921,"dates":[{"start":1493744400,"end":253370754000}],"title":"выставка «Искусство XX века»","slug":"vyistavka-iskusstvo-xx-veka-2017","place":{"id":15411,"title":"красноярский художественный музей имени В.И. Сурикова. Отдел искусства XX-XXI вв.","slug":"krasnoyarskij-hudozhestvennyj-muzej-imeni-vi-surik","address":"просп. Мира, д. 12","phone":"+7 391 227-25-58","subway":"","location":"krasnoyarsk","site_url":"https://kudago.com/krasnoyarsk/place/krasnoyarskij-hudozhestvennyj-muzej-imeni-vi-surik/","is_closed":false,"coords":{"lat":56.0133653956949,"lon":92.89060054959234},"is_stub":false},"description":"<p>Поклонников русского авангарда ждёт встреча с шедеврами Кандинского и Родченко, а тех, кто давно мечтал разобраться в хитросплетениях художественной мысли прошлого столетия — прекрасная возможность проследить развитие искусства XX в хронологической перспективе.</p>\n","categories":["exhibition"],"age_restriction":"6+","price":"от 80 до 150 рублей","is_free":false,"images":[{"image":"https://kudago.com/media/images/event/85/1e/851e56287f0fe570366771d6a54c4699.jpg","thumbnails":{"640x384":"https://kudago.com/media/thumbs/640x384/images/event/85/1e/851e56287f0fe570366771d6a54c4699.jpg","144x96":"https://kudago.com/media/thumbs/144x96/images/event/85/1e/851e56287f0fe570366771d6a54c4699.jpg"},"source":{"name":"2do2go.ru","link":"https://www.2do2go.ru/places/33460/khudozhestvennyi-muzei-im-v-i-surikova-otdel-iskusstva-xx-xxi-vekov"}},{"image":"https://kudago.com/media/images/event/45/b2/45b278453f0beb3fdd7edb4be8d0b2a4.jpg","thumbnails":{"640x384":"https://kudago.com/media/thumbs/640x384/images/event/45/b2/45b278453f0beb3fdd7edb4be8d0b2a4.jpg","144x96":"https://kudago.com/media/thumbs/144x96/images/event/45/b2/45b278453f0beb3fdd7edb4be8d0b2a4.jpg"},"source":{"name":"2do2go.ru","link":"https://www.2do2go.ru/places/33460/khudozhestvennyi-muzei-im-v-i-surikova-otdel-iskusstva-xx-xxi-vekov"}},{"image":"https://kudago.com/media/images/event/a7/26/a7269cfb68a19c3c5693e235f90369bb.jpg","thumbnails":{"640x384":"https://kudago.com/media/thumbs/640x384/images/event/a7/26/a7269cfb68a19c3c5693e235f90369bb.jpg","144x96":"https://kudago.com/media/thumbs/144x96/images/event/a7/26/a7269cfb68a19c3c5693e235f90369bb.jpg"},"source":{"name":"surikov-museum.ru","link":"http://www.surikov-museum.ru/"}}],"favorites_count":0,"comments_count":0,"short_title":"Искусство XX века"},{"id":152117,"dates":[{"start":1493139600,"end":253370754000}],"title":"выставка «Раскопки Красноярского острога»","slug":"vyistavka-raskopki-krasnoyarskogo-ostroga","place":{"id":15243,"title":"Красноярский краевой краеведческий музей","slug":"krasnoyarskij-kraevoj-kraevedcheskij-muzej","address":"ул. Дубровинского, д.84","phone":"+7 391 227-05-80, +7 391 227-92-04","subway":"","location":"krasnoyarsk","site_url":"https://kudago.com/krasnoyarsk/place/krasnoyarskij-kraevoj-kraevedcheskij-muzej/","is_closed":false,"coords":{"lat":56.00739450865459,"lon":92.87279068136647},"is_stub":false},"description":"<p>Постоянная экспозиция Красноярского краеведческого музея пополнилась новыми материалами из археологических раскопок разных лет, проведённых на месте Красноярского острога.</p>\n","categories":["exhibition"],"age_restriction":"6+","price":"от 70 до 150 рублей","is_free":false,"images":[{"image":"https://kudago.com/media/images/event/3a/fe/3afe2dd4e3d7482373cbfed394b8ac75.jpg","thumbnails":{"640x384":"https://kudago.com/media/thumbs/640x384/images/event/3a/fe/3afe2dd4e3d7482373cbfed394b8ac75.jpg","144x96":"https://kudago.com/media/thumbs/144x96/images/event/3a/fe/3afe2dd4e3d7482373cbfed394b8ac75.jpg"},"source":{"name":"kkkm.ru","link":"http://www.kkkm.ru/posetitelyam/vystavki/raskopki-krasnoyarskogo-ostroga"}},{"image":"https://kudago.com/media/images/event/8d/2d/8d2dad1250ad6d7495cc5a9d1d73413a.jpg","thumbnails":{"640x384":"https://kudago.com/media/thumbs/640x384/images/event/8d/2d/8d2dad1250ad6d7495cc5a9d1d73413a.jpg","144x96":"https://kudago.com/media/thumbs/144x96/images/event/8d/2d/8d2dad1250ad6d7495cc5a9d1d73413a.jpg"},"source":{"name":"kkkm.ru","link":"http://www.kkkm.ru/posetitelyam/vystavki/raskopki-krasnoyarskogo-ostroga"}},{"image":"https://kudago.com/media/images/event/12/71/12716733a29e99fc18f5b090f3674e2c.jpg","thumbnails":{"640x384":"https://kudago.com/media/thumbs/640x384/images/event/12/71/12716733a29e99fc18f5b090f3674e2c.jpg","144x96":"https://kudago.com/media/thumbs/144x96/images/event/12/71/12716733a29e99fc18f5b090f3674e2c.jpg"},"source":{"name":"kkkm.ru","link":"http://www.kkkm.ru/posetitelyam/vystavki/raskopki-krasnoyarskogo-ostroga"}}],"favorites_count":0,"comments_count":0,"short_title":"Раскопки Красноярского острога"},{"id":143840,"dates":[{"start":1484154000,"end":1485450000},{"start":1485450000,"end":1492275600},{"start":1492275600,"end":1493571600},{"start":1493571600,"end":1496250000},{"start":1496250000,"end":253370754000}],"title":"выставка «Свет мой, зеркальце, скажи»","slug":"vystavka-svet-moj-zerkalce-skazhi","place":{"id":27323,"title":"Музей-усадьба Г.В. Юдина","slug":"muzej-usadba-gv-yudina","address":"ул. Мелькомбинатская, д. 2/1","phone":"","subway":"","location":"krasnoyarsk","site_url":"https://kudago.com/krasnoyarsk/place/muzej-usadba-gv-yudina/","is_closed":false,"coords":{"lat":55.996017,"lon":92.808833},"is_stub":true},"description":"<p>Посетители выставки смогут увидеть отреставрированные зеркала, в которых любовались своим отражением девушки и юноши второй половины XIX и начала XX веков.</p>\n","categories":["exhibition"],"age_restriction":"12+","price":"от 50 до 100 рублей","is_free":false,"images":[{"image":"https://kudago.com/media/images/event/6f/d4/6fd47fda79cd8f069c0aa31a5b24ea8b.jpg","thumbnails":{"640x384":"https://kudago.com/media/thumbs/640x384/images/event/6f/d4/6fd47fda79cd8f069c0aa31a5b24ea8b.jpg","144x96":"https://kudago.com/media/thumbs/144x96/images/event/6f/d4/6fd47fda79cd8f069c0aa31a5b24ea8b.jpg"},"source":{"name":"kkkm.ru","link":"http://www.kkkm.ru/posetitelyam/vystavki/svet-moj-zerkalce-skazhi"}},{"image":"https://kudago.com/media/images/event/cf/0f/cf0fbd0027275158f2b6f5ee01224e88.jpg","thumbnails":{"640x384":"https://kudago.com/media/thumbs/640x384/images/event/cf/0f/cf0fbd0027275158f2b6f5ee01224e88.jpg","144x96":"https://kudago.com/media/thumbs/144x96/images/event/cf/0f/cf0fbd0027275158f2b6f5ee01224e88.jpg"},"source":{"name":"kkkm.ru","link":"http://www.kkkm.ru/posetitelyam/vystavki/svet-moj-zerkalce-skazhi"}},{"image":"https://kudago.com/media/images/event/0f/25/0f253bf30c5eccd1987e0dfa463b3660.jpg","thumbnails":{"640x384":"https://kudago.com/media/thumbs/640x384/images/event/0f/25/0f253bf30c5eccd1987e0dfa463b3660.jpg","144x96":"https://kudago.com/media/thumbs/144x96/images/event/0f/25/0f253bf30c5eccd1987e0dfa463b3660.jpg"},"source":{"name":"kkkm.ru","link":"http://www.kkkm.ru/posetitelyam/vystavki/svet-moj-zerkalce-skazhi"}},{"image":"https://kudago.com/media/images/event/40/3e/403e77112167b8b278352d576346a794.jpg","thumbnails":{"640x384":"https://kudago.com/media/thumbs/640x384/images/event/40/3e/403e77112167b8b278352d576346a794.jpg","144x96":"https://kudago.com/media/thumbs/144x96/images/event/40/3e/403e77112167b8b278352d576346a794.jpg"},"source":{"name":"kkkm.ru","link":"http://www.kkkm.ru/posetitelyam/vystavki/svet-moj-zerkalce-skazhi"}},{"image":"https://kudago.com/media/images/event/15/c9/15c9818c758f47d8285c9ff49c863e15.jpg","thumbnails":{"640x384":"https://kudago.com/media/thumbs/640x384/images/event/15/c9/15c9818c758f47d8285c9ff49c863e15.jpg","144x96":"https://kudago.com/media/thumbs/144x96/images/event/15/c9/15c9818c758f47d8285c9ff49c863e15.jpg"},"source":{"name":"kkkm.ru","link":"http://www.kkkm.ru/posetitelyam/vystavki/svet-moj-zerkalce-skazhi"}}],"favorites_count":1,"comments_count":0,"short_title":"Свет мой, зеркальце, скажи"},{"id":165003,"dates":[{"start":1510246800,"end":253370754000}],"title":"выставка «Здесь не край земли, а её начало»","slug":"vyistavka-zdes-ne-kraj-zemli-a-eyo-nachalo","place":{"id":15243,"title":"Красноярский краевой краеведческий музей","slug":"krasnoyarskij-kraevoj-kraevedcheskij-muzej","address":"ул. Дубровинского, д.84","phone":"+7 391 227-05-80, +7 391 227-92-04","subway":"","location":"krasnoyarsk","site_url":"https://kudago.com/krasnoyarsk/place/krasnoyarskij-kraevoj-kraevedcheskij-muzej/","is_closed":false,"coords":{"lat":56.00739450865459,"lon":92.87279068136647},"is_stub":false},"description":"<p>Выставка, посвящённая северным территориям Красноярского края, в фотоальбомах, журналах и книгах рассказывает о выдающихся людях, связавших свою судьбу с Таймыром — археологе Хлобыстине, директоре лесозавода Дудинского порта Одинцове, об эксперименте по восстановлению исчезнувшего вида — овцебыка, о природных богатствах заповедной территории.</p>\n","categories":["exhibition"],"age_restriction":"6+","price":"от 70 до 150 рублей","is_free":false,"images":[{"image":"https://kudago.com/media/images/event/2a/d9/2ad923ab918a6ad658a018c294d4eb92.jpg","thumbnails":{"640x384":"https://kudago.com/media/thumbs/640x384/images/event/2a/d9/2ad923ab918a6ad658a018c294d4eb92.jpg","144x96":"https://kudago.com/media/thumbs/144x96/images/event/2a/d9/2ad923ab918a6ad658a018c294d4eb92.jpg"},"source":{"name":"komanda-k.ru","link":"http://komanda-k.ru/%D0%BE%D1%82%D1%87%D0%B5%D1%82-%D0%BE-%D0%BF%D0%BE%D1%85%D0%BE%D0%B4%D0%B5/%D0%BF%D0%BE%D0%BB%D1%83%D0%BE%D1%81%D1%82%D1%80%D0%BE%D0%B2-%D1%82%D0%B0%D0%B9%D0%BC%D1%8B%D1%80"}}],"favorites_count":0,"comments_count":0,"short_title":"Здесь не край земли, а её начало"},{"id":148546,"dates":[{"start":1488992400,"end":1490893200},{"start":1490893200,"end":1492275600},{"start":1492189200,"end":1493571600},{"start":1493571600,"end":1496250000},{"start":1496250000,"end":253370754000}],"title":"выставка «Уроки революции»","slug":"vystavka-uroki-revolyucii","place":{"id":14994,"title":"музей-пароход «Св. Николай»","slug":"muzej-parohod-sv-nikolaj","address":"ул. Дубровинского, Стрелка","phone":"","subway":"","location":"krasnoyarsk","site_url":"https://kudago.com/krasnoyarsk/place/muzej-parohod-sv-nikolaj/","is_closed":false,"coords":{"lat":56.01062396585416,"lon":92.89500031762496},"is_stub":false},"description":"<p>В год 100-летия Революции пароход-музей «Св. Николай» примерил на себя образ крейсера «Аврора», так что правый борт парохода стал и вовсе походить на борт его революционного собрата, а на носу корабля появился макет орудия, возвестившего о наступлении новых времён 25 октября 1917 года.</p>\n","categories":["exhibition"],"age_restriction":"12+","price":"от 50 до 70 рублей","is_free":false,"images":[{"image":"https://kudago.com/media/images/event/a7/85/a78586f771c39cec406e0e094bf185d9.jpg","thumbnails":{"640x384":"https://kudago.com/media/thumbs/640x384/images/event/a7/85/a78586f771c39cec406e0e094bf185d9.jpg","144x96":"https://kudago.com/media/thumbs/144x96/images/event/a7/85/a78586f771c39cec406e0e094bf185d9.jpg"},"source":{"name":"kkkm.ru","link":"http://www.kkkm.ru/posetitelyam/vystavki/uroki-revolyucii-diskussionnyj-vystavochnyj-proekt-na-parohode-muzee-sv-nikolaj"}},{"image":"https://kudago.com/media/images/event/ef/81/ef8187f87917b5f72195a4dcf5cf102b.jpg","thumbnails":{"640x384":"https://kudago.com/media/thumbs/640x384/images/event/ef/81/ef8187f87917b5f72195a4dcf5cf102b.jpg","144x96":"https://kudago.com/media/thumbs/144x96/images/event/ef/81/ef8187f87917b5f72195a4dcf5cf102b.jpg"},"source":{"name":"kkkm.ru","link":"http://www.kkkm.ru/posetitelyam/vystavki/uroki-revolyucii-diskussionnyj-vystavochnyj-proekt-na-parohode-muzee-sv-nikolaj"}},{"image":"https://kudago.com/media/images/event/5a/29/5a291f299fb9bde1d2cb3adfc26e9e8c.jpg","thumbnails":{"640x384":"https://kudago.com/media/thumbs/640x384/images/event/5a/29/5a291f299fb9bde1d2cb3adfc26e9e8c.jpg","144x96":"https://kudago.com/media/thumbs/144x96/images/event/5a/29/5a291f299fb9bde1d2cb3adfc26e9e8c.jpg"},"source":{"name":"kkkm.ru","link":"http://www.kkkm.ru/posetitelyam/vystavki/uroki-revolyucii-diskussionnyj-vystavochnyj-proekt-na-parohode-muzee-sv-nikolaj"}}],"favorites_count":2,"comments_count":0,"short_title":"Уроки революции"},{"id":72673,"dates":[{"start":-62135446260,"end":253370739600}],"title":"акция «Найди частного репетитора, тренера или психолога по самой выгодной цене!»","slug":"akciya-najdi-chastnogo-repetitora-trenera-7","place":null,"description":"<p>Международный сервис-портал Upstudy.ru — сайт, позволяющий связаться напрямую ученикам и преподавателям. Каждый, у кого есть желание учить, может заполнить анкету и абсолютно бесплатно разместить на сайте информацию о себе и о своем профессиональном уровне, а потенциальные ученики могут легко и быстро найти педагога для индивидуальных занятий.</p>\n","categories":["stock"],"age_restriction":0,"price":"","is_free":false,"images":[{"image":"https://kudago.com/media/images/event/2b/38/2b3864a69d5453d5b19a6a540b7d2481.jpg","thumbnails":{"640x384":"https://kudago.com/media/thumbs/640x384/images/event/2b/38/2b3864a69d5453d5b19a6a540b7d2481.jpg","144x96":"https://kudago.com/media/thumbs/144x96/images/event/2b/38/2b3864a69d5453d5b19a6a540b7d2481.jpg"},"source":{"name":"","link":""}},{"image":"https://kudago.com/media/images/event/d1/4f/d14fb702ef0324cc568f4e7d31bff55c.jpg","thumbnails":{"640x384":"https://kudago.com/media/thumbs/640x384/images/event/d1/4f/d14fb702ef0324cc568f4e7d31bff55c.jpg","144x96":"https://kudago.com/media/thumbs/144x96/images/event/d1/4f/d14fb702ef0324cc568f4e7d31bff55c.jpg"},"source":{"name":"","link":""}},{"image":"https://kudago.com/media/images/event/85/44/854482a96b7fd1fc44973bda3d3f761e.jpg","thumbnails":{"640x384":"https://kudago.com/media/thumbs/640x384/images/event/85/44/854482a96b7fd1fc44973bda3d3f761e.jpg","144x96":"https://kudago.com/media/thumbs/144x96/images/event/85/44/854482a96b7fd1fc44973bda3d3f761e.jpg"},"source":{"name":"","link":""}},{"image":"https://kudago.com/media/images/event/0f/47/0f47d1892f67a65a671494bdcd6570a1.jpg","thumbnails":{"640x384":"https://kudago.com/media/thumbs/640x384/images/event/0f/47/0f47d1892f67a65a671494bdcd6570a1.jpg","144x96":"https://kudago.com/media/thumbs/144x96/images/event/0f/47/0f47d1892f67a65a671494bdcd6570a1.jpg"},"source":{"name":"","link":""}}],"favorites_count":0,"comments_count":0,"short_title":"Найди частного репетитора, тренера или психолога по самой выгодной цене"},{"id":116581,"dates":[{"start":1456419600,"end":253370754000}],"title":"выставка «Дивен сундук памятью о временах, о людях»","slug":"vystavka-diven-sunduk-pamyatyu-o-vremenah-o-lyudya","place":{"id":14994,"title":"музей-пароход «Св. Николай»","slug":"muzej-parohod-sv-nikolaj","address":"ул. Дубровинского, Стрелка","phone":"","subway":"","location":"krasnoyarsk","site_url":"https://kudago.com/krasnoyarsk/place/muzej-parohod-sv-nikolaj/","is_closed":false,"coords":{"lat":56.01062396585416,"lon":92.89500031762496},"is_stub":false},"description":"<p>Отреставрированная коллекция сундуков, которые верой и правдой служили именитым красноярцам и простым горожанам несколько веков назад.</p>\n","categories":["exhibition"],"age_restriction":0,"price":"от 50 до 70 рублей","is_free":false,"images":[{"image":"https://kudago.com/media/images/event/ad/20/ad2015b28566fd60553afd9d06b9e191.jpg","thumbnails":{"640x384":"https://kudago.com/media/thumbs/640x384/images/event/ad/20/ad2015b28566fd60553afd9d06b9e191.jpg","144x96":"https://kudago.com/media/thumbs/144x96/images/event/ad/20/ad2015b28566fd60553afd9d06b9e191.jpg"},"source":{"name":"kkkm.ru","link":"http://www.kkkm.ru/guests/vistavki/37.html"}},{"image":"https://kudago.com/media/images/event/a7/74/a7749d860720d1920536ac4c8e5d0ad1.jpg","thumbnails":{"640x384":"https://kudago.com/media/thumbs/640x384/images/event/a7/74/a7749d860720d1920536ac4c8e5d0ad1.jpg","144x96":"https://kudago.com/media/thumbs/144x96/images/event/a7/74/a7749d860720d1920536ac4c8e5d0ad1.jpg"},"source":{"name":"sharypovo.today","link":"http://sharypovo.today/news/1763-zhiteley-kraya-priglashayut-izuchit-istoriyu-po-sundukam.html"}},{"image":"https://kudago.com/media/images/event/c8/63/c86358d1193f8e1e7847830094fc4e4b.jpg","thumbnails":{"640x384":"https://kudago.com/media/thumbs/640x384/images/event/c8/63/c86358d1193f8e1e7847830094fc4e4b.jpg","144x96":"https://kudago.com/media/thumbs/144x96/images/event/c8/63/c86358d1193f8e1e7847830094fc4e4b.jpg"},"source":{"name":"afisha.ngs24.ru","link":"http://afisha.ngs24.ru/event/947923/7/"}},{"image":"https://kudago.com/media/images/event/4f/56/4f56afade1c33e337f066706085c48f0.jpg","thumbnails":{"640x384":"https://kudago.com/media/thumbs/640x384/images/event/4f/56/4f56afade1c33e337f066706085c48f0.jpg","144x96":"https://kudago.com/media/thumbs/144x96/images/event/4f/56/4f56afade1c33e337f066706085c48f0.jpg"},"source":{"name":"afisha.ngs24.ru","link":"http://afisha.ngs24.ru/event/947923/7/"}}],"favorites_count":0,"comments_count":0,"short_title":"Дивен сундук памятью о временах, о людях"}]}