{"count":23,"next":"https://kudago.com/public-api/v1.4/events/?actual_since=1566734688.078&expand=place%2Cimages&fields=id%2Ctitle%2Cslug%2Cprice%2Ccategories%2Cimages%2Cis_free%2Cshort_title%2Cdates%2Cdescription%2Cfavorites_count%2Ccomments_count%2Cage_restriction%2Cplace&location=kev&page=2&page_size=5","previous":null,"results":[{"id":157229,"dates":[{"start":-62135433000,"end":253370754000}],"title":"выставка «Киев в миниатюре»","slug":"vyistavka-kiev-v-miniatyure","place":{"id":9393,"title":"Гидропарк","slug":"gidropark","address":"Труханов остров","phone":"+380 44 592 4610","subway":"Гидропарк","location":"kev","site_url":"https://kudago.com/kev/place/gidropark/","is_closed":false,"coords":{"lat":50.469846,"lon":30.539504},"is_stub":false},"description":"<p>Хотите увидеть весь Киев сразу, как на ладони? Для этого не обязательно смотреть на город с высоты, можно посмотреть на него в миниатюре.</p>\n","categories":["exhibition","permanent-exhibitions"],"age_restriction":0,"price":"10–25 грн","is_free":false,"images":[{"image":"https://kudago.com/media/images/event/08/ae/08ae9179438279e0cde7f9c9450c6df1.jpg","thumbnails":{"640x384":"https://kudago.com/media/thumbs/640x384/images/event/08/ae/08ae9179438279e0cde7f9c9450c6df1.jpg","144x96":"https://kudago.com/media/thumbs/144x96/images/event/08/ae/08ae9179438279e0cde7f9c9450c6df1.jpg"},"source":{"name":"smartclever.com.ua","link":"http://smartclever.com.ua/ru/landmark/140"}}],"favorites_count":18,"comments_count":0,"short_title":"Киев в миниатюре"},{"id":72687,"dates":[{"start":-62135433000,"end":253370754000}],"title":"выставка «Эдемский сад»","slug":"vystavka-edemskij-sad","place":{"id":4214,"title":"Центральный ботанический сад им. Гришко","slug":"centralnyj-botanicheskij-sad","address":"ул. Тимирязевская, д. 1","phone":"+380 44 285 4105","subway":"Выдубичи, Дружбы Народов","location":"kev","site_url":"https://kudago.com/kev/place/centralnyj-botanicheskij-sad/","is_closed":false,"coords":{"lat":50.41057899999985,"lon":30.55887099999999},"is_stub":false},"description":"<p>Экзотический уголок в центре Киева: бабочки, пальмы, крокодилы, черепахи, хамелеоны, попугаи, жабы, рыбы и другие обитатели тропиков.</p>\n","categories":["exhibition","permanent-exhibitions"],"age_restriction":"6+","price":"от 30 до 50 гривен","is_free":false,"images":[{"image":"https://kudago.com/media/images/event/70/58/7058a2bd46da9d816ad325b6741bc119.jpg","thumbnails":{"640x384":"https://kudago.com/media/thumbs/640x384/images/event/70/58/7058a2bd46da9d816ad325b6741bc119.jpg","144x96":"https://kudago.com/media/thumbs/144x96/images/event/70/58/7058a2bd46da9d816ad325b6741bc119.jpg"},"source":{"name":"tropicallife.org","link":"http://tropicallife.org/expo.htm"}},{"image":"https://kudago.com/media/images/event/35/cf/35cf1d19915fb085314fa377358a3d1b.jpg","thumbnails":{"640x384":"https://kudago.com/media/thumbs/640x384/images/event/35/cf/35cf1d19915fb085314fa377358a3d1b.jpg","144x96":"https://kudago.com/media/thumbs/144x96/images/event/35/cf/35cf1d19915fb085314fa377358a3d1b.jpg"},"source":{"name":"tropicallife.org","link":"http://tropicallife.org/expo.htm"}},{"image":"https://kudago.com/media/images/event/0c/c8/0cc8edd700451e8da071763ae62e380c.jpg","thumbnails":{"640x384":"https://kudago.com/media/thumbs/640x384/images/event/0c/c8/0cc8edd700451e8da071763ae62e380c.jpg","144x96":"https://kudago.com/media/thumbs/144x96/images/event/0c/c8/0cc8edd700451e8da071763ae62e380c.jpg"},"source":{"name":"tropicallife.org","link":"http://tropicallife.org/expo.htm"}},{"image":"https://kudago.com/media/images/event/db/08/db08f336cdc8504bce9e86104e33bddb.jpg","thumbnails":{"640x384":"https://kudago.com/media/thumbs/640x384/images/event/db/08/db08f336cdc8504bce9e86104e33bddb.jpg","144x96":"https://kudago.com/media/thumbs/144x96/images/event/db/08/db08f336cdc8504bce9e86104e33bddb.jpg"},"source":{"name":"tropicallife.org","link":"http://tropicallife.org/expo.htm"}},{"image":"https://kudago.com/media/images/event/f4/cc/f4ccb782b6ea32d7289541768b2a2d60.jpg","thumbnails":{"640x384":"https://kudago.com/media/thumbs/640x384/images/event/f4/cc/f4ccb782b6ea32d7289541768b2a2d60.jpg","144x96":"https://kudago.com/media/thumbs/144x96/images/event/f4/cc/f4ccb782b6ea32d7289541768b2a2d60.jpg"},"source":{"name":"tropicallife.org","link":"http://tropicallife.org/expo.htm"}},{"image":"https://kudago.com/media/images/event/2e/5a/2e5a3bb9a016f4fa4a28ec06a3e0b618.jpg","thumbnails":{"640x384":"https://kudago.com/media/thumbs/640x384/images/event/2e/5a/2e5a3bb9a016f4fa4a28ec06a3e0b618.jpg","144x96":"https://kudago.com/media/thumbs/144x96/images/event/2e/5a/2e5a3bb9a016f4fa4a28ec06a3e0b618.jpg"},"source":{"name":"tropicallife.org","link":"http://tropicallife.org/expo.htm"}},{"image":"https://kudago.com/media/images/event/ae/f4/aef402eb587095367510630fffa8169a.jpg","thumbnails":{"640x384":"https://kudago.com/media/thumbs/640x384/images/event/ae/f4/aef402eb587095367510630fffa8169a.jpg","144x96":"https://kudago.com/media/thumbs/144x96/images/event/ae/f4/aef402eb587095367510630fffa8169a.jpg"},"source":{"name":"tropicallife.org","link":"http://tropicallife.org/expo.htm"}},{"image":"https://kudago.com/media/images/event/fa/56/fa568b8ce8ad05a6b8e613274f749264.jpg","thumbnails":{"640x384":"https://kudago.com/media/thumbs/640x384/images/event/fa/56/fa568b8ce8ad05a6b8e613274f749264.jpg","144x96":"https://kudago.com/media/thumbs/144x96/images/event/fa/56/fa568b8ce8ad05a6b8e613274f749264.jpg"},"source":{"name":"tropicallife.org","link":"http://tropicallife.org/expo.htm"}},{"image":"https://kudago.com/media/images/event/04/e3/04e33f9a918613a72dafdab45a5f617f.jpg","thumbnails":{"640x384":"https://kudago.com/media/thumbs/640x384/images/event/04/e3/04e33f9a918613a72dafdab45a5f617f.jpg","144x96":"https://kudago.com/media/thumbs/144x96/images/event/04/e3/04e33f9a918613a72dafdab45a5f617f.jpg"},"source":{"name":"tropicallife.org","link":"http://tropicallife.org/expo.htm"}}],"favorites_count":41,"comments_count":2,"short_title":"Эдемский сад"},{"id":157204,"dates":[{"start":-62135433000,"end":253370754000}],"title":"выставка камня «Минералия»","slug":"vyistavka-mineraliya","place":{"id":26604,"title":"Выставка-музей «Минералия»","slug":"vystavka-muzej-mineraliya","address":"улица Киквидзе, дом 1а","phone":"","subway":"","location":"kev","site_url":"https://kudago.com/kev/place/vystavka-muzej-mineraliya/","is_closed":false,"coords":{"lat":50.417289,"lon":30.549843},"is_stub":true},"description":"<p>Тысяча прекрасных камней в одном месте – такое зрелище поразит и детей, и взрослых.</p>\n","categories":["exhibition","permanent-exhibitions"],"age_restriction":0,"price":"20–40 грн","is_free":false,"images":[{"image":"https://kudago.com/media/images/event/be/8c/be8c1d1da79e687cc77cf18c335a1d10.jpg","thumbnails":{"640x384":"https://kudago.com/media/thumbs/640x384/images/event/be/8c/be8c1d1da79e687cc77cf18c335a1d10.jpg","144x96":"https://kudago.com/media/thumbs/144x96/images/event/be/8c/be8c1d1da79e687cc77cf18c335a1d10.jpg"},"source":{"name":"pikabu.ru","link":"http://pikabu.ru/story/mineralyi_4811333"}}],"favorites_count":18,"comments_count":2,"short_title":"Минералия"},{"id":78704,"dates":[{"start":-62135433000,"end":253370754000}],"title":"спортивно-развлекательная программа «FunUp»","slug":"sportivno-razvlekatelnaya-programma-funup","place":{"id":3455,"title":"Хрещатик/Крещатик","slug":"hreshatikkreshatik","address":"ул. Крещатик","phone":"","subway":"Крещатик, Площадь Независимости","location":"kev","site_url":"https://kudago.com/kev/place/hreshatikkreshatik/","is_closed":false,"coords":{"lat":50.447556,"lon":30.522067},"is_stub":false},"description":"<p>Инновационный оздоровительный проект для киевлян и гостей города.</p>\n","categories":["sport"],"age_restriction":"12+","price":"","is_free":true,"images":[{"image":"https://kudago.com/media/images/event/16/ab/16ab9311818a396c40664bd8403c4523.jpg","thumbnails":{"640x384":"https://kudago.com/media/thumbs/640x384/images/event/16/ab/16ab9311818a396c40664bd8403c4523.jpg","144x96":"https://kudago.com/media/thumbs/144x96/images/event/16/ab/16ab9311818a396c40664bd8403c4523.jpg"},"source":{"name":"livejournal.com","link":"http://ineliliya.livejournal.com/2937.html"}},{"image":"https://kudago.com/media/images/event/48/b6/48b6735ca3f2aef2d4642beaa4132b42.jpg","thumbnails":{"640x384":"https://kudago.com/media/thumbs/640x384/images/event/48/b6/48b6735ca3f2aef2d4642beaa4132b42.jpg","144x96":"https://kudago.com/media/thumbs/144x96/images/event/48/b6/48b6735ca3f2aef2d4642beaa4132b42.jpg"},"source":{"name":"livejournal.com","link":"http://ineliliya.livejournal.com/2937.html"}},{"image":"https://kudago.com/media/images/event/9a/4a/9a4a135df21ed42710ec3bbcdc5dcae7.jpg","thumbnails":{"640x384":"https://kudago.com/media/thumbs/640x384/images/event/9a/4a/9a4a135df21ed42710ec3bbcdc5dcae7.jpg","144x96":"https://kudago.com/media/thumbs/144x96/images/event/9a/4a/9a4a135df21ed42710ec3bbcdc5dcae7.jpg"},"source":{"name":"livejournal.com","link":"http://ineliliya.livejournal.com/2937.html"}},{"image":"https://kudago.com/media/images/event/08/bd/08bdc6c2b3ad35b1174a40a4c5793194.jpg","thumbnails":{"640x384":"https://kudago.com/media/thumbs/640x384/images/event/08/bd/08bdc6c2b3ad35b1174a40a4c5793194.jpg","144x96":"https://kudago.com/media/thumbs/144x96/images/event/08/bd/08bdc6c2b3ad35b1174a40a4c5793194.jpg"},"source":{"name":"livejournal.com","link":"http://ineliliya.livejournal.com/2937.html"}},{"image":"https://kudago.com/media/images/event/07/64/0764b344176ad217d66fa66ee1b90223.jpg","thumbnails":{"640x384":"https://kudago.com/media/thumbs/640x384/images/event/07/64/0764b344176ad217d66fa66ee1b90223.jpg","144x96":"https://kudago.com/media/thumbs/144x96/images/event/07/64/0764b344176ad217d66fa66ee1b90223.jpg"},"source":{"name":"livejournal.com","link":"http://ineliliya.livejournal.com/2937.html"}},{"image":"https://kudago.com/media/images/event/93/97/93979c047e1963df8df0a57cd639b470.jpg","thumbnails":{"640x384":"https://kudago.com/media/thumbs/640x384/images/event/93/97/93979c047e1963df8df0a57cd639b470.jpg","144x96":"https://kudago.com/media/thumbs/144x96/images/event/93/97/93979c047e1963df8df0a57cd639b470.jpg"},"source":{"name":"livejournal.com","link":"http://ineliliya.livejournal.com/2937.html"}}],"favorites_count":26,"comments_count":0,"short_title":"FunUp"},{"id":157180,"dates":[{"start":-62135433000,"end":253370754000}],"title":"выставка «Зоопарк под микроскопом»","slug":"vyistavka-zoopark-pod-mikroskopom","place":{"id":2695,"title":"Киевский планетарий","slug":"kievskij-planetarij","address":"ул.Большая Васильковская (бывшая Красноармейская), 57/3","phone":"+380 44 287 7508","subway":"Олимпийская","location":"kev","site_url":"https://kudago.com/kev/place/kievskij-planetarij/","is_closed":false,"coords":{"lat":50.43420099999999,"lon":30.516498},"is_stub":false},"description":"<p>Каждый день, кроме понедельника, в Киевском планетарии показывают под микроскопом жизнь крошечных существ.</p>\n","categories":["exhibition"],"age_restriction":0,"price":"45 грн","is_free":false,"images":[{"image":"https://kudago.com/media/images/event/b4/59/b459f980a65de15f1bdcfb68ee5e3d64.jpg","thumbnails":{"640x384":"https://kudago.com/media/thumbs/640x384/images/event/b4/59/b459f980a65de15f1bdcfb68ee5e3d64.jpg","144x96":"https://kudago.com/media/thumbs/144x96/images/event/b4/59/b459f980a65de15f1bdcfb68ee5e3d64.jpg"},"source":{"name":"kupongid.ru","link":"http://www.kupongid.ru/deal/558378571/"}}],"favorites_count":25,"comments_count":1,"short_title":"Зоопарк под микроскопом"}]}