{"count":21,"next":"https://kudago.com/public-api/v1.4/events/?actual_since=1551577153.371&expand=place%2Cimages&fields=id%2Ctitle%2Cslug%2Cprice%2Ccategories%2Cimages%2Cis_free%2Cshort_title%2Cdates%2Cdescription%2Cfavorites_count%2Ccomments_count%2Cage_restriction%2Cplace&location=krasnoyarsk&page=2&page_size=5","previous":null,"results":[{"id":133406,"dates":[{"start":-62135433000,"end":253370754000}],"title":"клуб настольных игр «Империя»","slug":"klub-nastolnyh-igr-imperiya","place":{"id":15595,"title":"молодежный творческий бизнес-центр «Пилот»","slug":"molodezhnyj-tvorcheskij-biznes-centr-pilot","address":"ул. Аэровокзальная, д.10","phone":"","subway":"","location":"krasnoyarsk","site_url":"https://kudago.com/krasnoyarsk/place/molodezhnyj-tvorcheskij-biznes-centr-pilot/","is_closed":false,"coords":{"lat":56.03003760595462,"lon":92.90635584490947},"is_stub":false},"description":"","categories":["games"],"age_restriction":"16+","price":"","is_free":true,"images":[{"image":"https://kudago.com/media/images/event/4c/e9/4ce9ed6d033edcce3ab2996bb59ffa4e.jpg","thumbnails":{"640x384":"https://kudago.com/media/thumbs/640x384/images/event/4c/e9/4ce9ed6d033edcce3ab2996bb59ffa4e.jpg","144x96":"https://kudago.com/media/thumbs/144x96/images/event/4c/e9/4ce9ed6d033edcce3ab2996bb59ffa4e.jpg"},"source":{"name":"gorod-che.ru","link":"http://gorod-che.ru/new/2016/06/17/20807"}},{"image":"https://kudago.com/media/images/event/34/06/34066e3d17f234fab92dab5263163f5f.jpg","thumbnails":{"640x384":"https://kudago.com/media/thumbs/640x384/images/event/34/06/34066e3d17f234fab92dab5263163f5f.jpg","144x96":"https://kudago.com/media/thumbs/144x96/images/event/34/06/34066e3d17f234fab92dab5263163f5f.jpg"},"source":{"name":"taynic.com","link":"http://taynic.com/photo/nastolnye-igry-v-taym-kafe"}},{"image":"https://kudago.com/media/images/event/39/b1/39b1a7cc06a52096d1686988f6418d51.jpg","thumbnails":{"640x384":"https://kudago.com/media/thumbs/640x384/images/event/39/b1/39b1a7cc06a52096d1686988f6418d51.jpg","144x96":"https://kudago.com/media/thumbs/144x96/images/event/39/b1/39b1a7cc06a52096d1686988f6418d51.jpg"},"source":{"name":"http://www.m24.ru/articles/66459","link":"http://www.m24.ru/articles/66459"}}],"favorites_count":18,"comments_count":3,"short_title":"Империя"},{"id":162269,"dates":[{"start":1504198800,"end":253370754000}],"title":"выставка «Кунсткамера, или Всё о двухголовых»","slug":"vyistavka-kunstkamera-ili-vsyo-o-dvuhgolovyih","place":{"id":15243,"title":"Красноярский краевой краеведческий музей","slug":"krasnoyarskij-kraevoj-kraevedcheskij-muzej","address":"ул. Дубровинского, д.84","phone":"+7 391 227-05-80, +7 391 227-92-04","subway":"","location":"krasnoyarsk","site_url":"https://kudago.com/krasnoyarsk/place/krasnoyarskij-kraevoj-kraevedcheskij-muzej/","is_closed":false,"coords":{"lat":56.00739450865459,"lon":92.87279068136647},"is_stub":false},"description":"<p>В Красноярске появилась своя кунсткамера, где собраны диковинные экспонаты с анатомическими изъянами — по подобию первого в России естественнонаучного музея в Петербурге.</p>\n","categories":["exhibition"],"age_restriction":"12+","price":"от 70 до 150 рублей","is_free":false,"images":[{"image":"https://kudago.com/media/images/event/5b/41/5b4131a5eaad1f1d52ed8f170681b239.jpg","thumbnails":{"640x384":"https://kudago.com/media/thumbs/640x384/images/event/5b/41/5b4131a5eaad1f1d52ed8f170681b239.jpg","144x96":"https://kudago.com/media/thumbs/144x96/images/event/5b/41/5b4131a5eaad1f1d52ed8f170681b239.jpg"},"source":{"name":"my.krskstate.ru","link":"http://my.krskstate.ru/docs/muzeums/krasnoyarskiy-kraevoy-kraevedcheskiy-muzey/"}}],"favorites_count":2,"comments_count":0,"short_title":"Кунсткамера, или Всё о двухголовых"},{"id":125266,"dates":[{"start":1467439200,"end":1467439200},{"start":1468044000,"end":1468044000},{"start":1468648800,"end":1468648800},{"start":1469253600,"end":1469253600},{"start":1469858400,"end":1469858400},{"start":1470463200,"end":1470463200},{"start":1471068000,"end":1471068000},{"start":1471672800,"end":1471672800},{"start":1472277600,"end":1472277600},{"start":-62135433000,"end":253370754000}],"title":"развлекательная программа для детей  «В гостях у сказки»","slug":"razvlekatelnaya-programma-dlya-detej-v-gostyah-u-s","place":{"id":15027,"title":"Центральный парк культуры и отдыха им. М. Горького","slug":"centralnyj-park-kultury-i-otdyha-im-m-gorkogo","address":"ул. Карла Маркса, 151","phone":"","subway":"","location":"krasnoyarsk","site_url":"https://kudago.com/krasnoyarsk/place/centralnyj-park-kultury-i-otdyha-im-m-gorkogo/","is_closed":false,"coords":{"lat":56.00807531436333,"lon":92.85284041044649},"is_stub":false},"description":"","categories":["kids"],"age_restriction":0,"price":"","is_free":true,"images":[{"image":"https://kudago.com/media/images/event/81/65/816537611db4817852bb93dfc0bee7f2.jpg","thumbnails":{"640x384":"https://kudago.com/media/thumbs/640x384/images/event/81/65/816537611db4817852bb93dfc0bee7f2.jpg","144x96":"https://kudago.com/media/thumbs/144x96/images/event/81/65/816537611db4817852bb93dfc0bee7f2.jpg"},"source":{"name":"news.tut.by","link":"http://news.tut.by/society/423927.html"}}],"favorites_count":4,"comments_count":0,"short_title":"В гостях у сказки"},{"id":96035,"dates":[{"start":-62135433000,"end":253370754000}],"title":"выставка «Русское классическое искусство ХVIII — начала ХХ веков»","slug":"vystavka-russkoe-klassicheskoe-iskusstvo","place":{"id":28336,"title":"красноярский художественный музей имени В.И. Сурикова. Отдел русского искусства XVIII-нач.XX вв.","slug":"krasnoyarskij-hudozhestvennyj-muzej-rusisk","address":"ул. Парижской коммуны, д.20","phone":"+7 391 212-12-32","subway":"","location":"krasnoyarsk","site_url":"https://kudago.com/krasnoyarsk/place/krasnoyarskij-hudozhestvennyj-muzej-rusisk/","is_closed":false,"coords":{"lat":56.01126700000015,"lon":92.8816300000003},"is_stub":false},"description":"<p>На постоянной выставке представлена большая коллекция русской иконописи, парадные и камерные портреты XVIII века, романтические пейзажи и натюрморты XIX века, работы художников-передвижников — Маковского, Шишкина, Репина, Крамского, а также полотна других мастеров живописи, таких как Левитан, Айвазовский и Бенуа.</p>\n","categories":["exhibition"],"age_restriction":"6+","price":"от 50 до 100 рублей","is_free":false,"images":[{"image":"https://kudago.com/media/images/event/22/dc/22dc9d20daf0233722b0ef3f063b1f74.jpg","thumbnails":{"640x384":"https://kudago.com/media/thumbs/640x384/images/event/22/dc/22dc9d20daf0233722b0ef3f063b1f74.jpg","144x96":"https://kudago.com/media/thumbs/144x96/images/event/22/dc/22dc9d20daf0233722b0ef3f063b1f74.jpg"},"source":{"name":"afisha.sibnovosti.ru","link":"http://afisha.sibnovosti.ru/events/russkoe-klassicheskoe-iskusstvo"}},{"image":"https://kudago.com/media/images/event/86/36/8636d1e6dac7b2b5698e65d1c9a6d943.jpg","thumbnails":{"640x384":"https://kudago.com/media/thumbs/640x384/images/event/86/36/8636d1e6dac7b2b5698e65d1c9a6d943.jpg","144x96":"https://kudago.com/media/thumbs/144x96/images/event/86/36/8636d1e6dac7b2b5698e65d1c9a6d943.jpg"},"source":{"name":"2do2go.ru","link":"http://www.2do2go.ru/krsk/events/18872/vystavka-russkoe-klassicheskoe-iskusstvo"}},{"image":"https://kudago.com/media/images/event/5d/0c/5d0c70b7ea6e9e5dd667bbf2ac5921ee.jpg","thumbnails":{"640x384":"https://kudago.com/media/thumbs/640x384/images/event/5d/0c/5d0c70b7ea6e9e5dd667bbf2ac5921ee.jpg","144x96":"https://kudago.com/media/thumbs/144x96/images/event/5d/0c/5d0c70b7ea6e9e5dd667bbf2ac5921ee.jpg"},"source":{"name":"surikov-museum.ru","link":"http://www.surikov-museum.ru/vystavki"}}],"favorites_count":1,"comments_count":0,"short_title":"Русское классическое искусство ХVIII — начала ХХ веков"},{"id":133358,"dates":[{"start":-62135433000,"end":253370754000}],"title":"общая танцевальная подготовка","slug":"obshaya-tancevalnaya-podgotovka","place":{"id":15595,"title":"молодежный творческий бизнес-центр «Пилот»","slug":"molodezhnyj-tvorcheskij-biznes-centr-pilot","address":"ул. Аэровокзальная, д.10","phone":"","subway":"","location":"krasnoyarsk","site_url":"https://kudago.com/krasnoyarsk/place/molodezhnyj-tvorcheskij-biznes-centr-pilot/","is_closed":false,"coords":{"lat":56.03003760595462,"lon":92.90635584490947},"is_stub":false},"description":"","categories":["dance-trainings","education"],"age_restriction":"16+","price":"","is_free":true,"images":[{"image":"https://kudago.com/media/images/event/32/08/32087d43e87c6bbe0469fec3072b4c42.jpg","thumbnails":{"640x384":"https://kudago.com/media/thumbs/640x384/images/event/32/08/32087d43e87c6bbe0469fec3072b4c42.jpg","144x96":"https://kudago.com/media/thumbs/144x96/images/event/32/08/32087d43e87c6bbe0469fec3072b4c42.jpg"},"source":{"name":"library.caminito.ru","link":"http://library.caminito.ru/?page_id=691"}}],"favorites_count":11,"comments_count":0,"short_title":"Общая танцевальная подготовка"}]}