{"count":1789,"next":"https://kudago.com/public-api/v1.4/events/?actual_since=1567271051.067&expand=place%2Cimages&fields=id%2Ctitle%2Cslug%2Cprice%2Ccategories%2Cimages%2Cis_free%2Cshort_title%2Cdates%2Cdescription%2Cfavorites_count%2Ccomments_count%2Cage_restriction%2Cplace&location=msk&page=2&page_size=5","previous":null,"results":[{"id":173292,"dates":[{"start":1538031600,"end":1538074800},{"start":-62135433000,"end":1573930800}],"title":"рисование в виртуальной реальности","slug":"znaniya-risovanie-v-virtualnoj-realnosti","place":{"id":31682,"title":"бизнес-парк «Союз»","slug":"interesnoe-mesto-bp-soyuz","address":"Лужнецкая наб., д. 2/4, стр.19","phone":"","subway":"Воробьёвы горы, Ленинский проспект, Спортивная","location":"msk","site_url":"https://kudago.com/msk/place/interesnoe-mesto-bp-soyuz/","is_closed":false,"coords":{"lat":55.71421299999989,"lon":37.57232500000028},"is_stub":true},"description":"<p>В  современном искусстве набирает популярность такое направление, как VR-картина. Теперь москвичи и гости столицы могут попробовать себя в качестве художника и создать рисунок в виртуальной реальности. С помощью современных технологий вы сможете нарисовать объёмные предметы и даже целые миры. </p>","categories":["kids","games"],"age_restriction":"6+","price":"от 800 до 1600 рублей (по предварительной брони)","is_free":false,"images":[{"image":"https://kudago.com/media/images/event/46/a7/46a7bbd73cf3ab92cfbf91daf7486b40.jpg","thumbnails":{"640x384":"https://kudago.com/media/thumbs/640x384/images/event/46/a7/46a7bbd73cf3ab92cfbf91daf7486b40.jpg","144x96":"https://kudago.com/media/thumbs/144x96/images/event/46/a7/46a7bbd73cf3ab92cfbf91daf7486b40.jpg"},"source":{"name":"","link":""}},{"image":"https://kudago.com/media/images/event/72/99/72990e31d98a9a7d29b1d958f2930904.jpg","thumbnails":{"640x384":"https://kudago.com/media/thumbs/640x384/images/event/72/99/72990e31d98a9a7d29b1d958f2930904.jpg","144x96":"https://kudago.com/media/thumbs/144x96/images/event/72/99/72990e31d98a9a7d29b1d958f2930904.jpg"},"source":{"name":"","link":""}},{"image":"https://kudago.com/media/images/event/8b/30/8b305c8d80a02a1bfd67d2d6bb52ac3f.jpg","thumbnails":{"640x384":"https://kudago.com/media/thumbs/640x384/images/event/8b/30/8b305c8d80a02a1bfd67d2d6bb52ac3f.jpg","144x96":"https://kudago.com/media/thumbs/144x96/images/event/8b/30/8b305c8d80a02a1bfd67d2d6bb52ac3f.jpg"},"source":{"name":"","link":""}},{"image":"https://kudago.com/media/images/event/c4/76/c476d5d80edd35730945c1e8f65810fa.jpg","thumbnails":{"640x384":"https://kudago.com/media/thumbs/640x384/images/event/c4/76/c476d5d80edd35730945c1e8f65810fa.jpg","144x96":"https://kudago.com/media/thumbs/144x96/images/event/c4/76/c476d5d80edd35730945c1e8f65810fa.jpg"},"source":{"name":"","link":""}},{"image":"https://kudago.com/media/images/event/0a/0d/0a0ded1b92ea7a18df1b842681ad2b75.jpg","thumbnails":{"640x384":"https://kudago.com/media/thumbs/640x384/images/event/0a/0d/0a0ded1b92ea7a18df1b842681ad2b75.jpg","144x96":"https://kudago.com/media/thumbs/144x96/images/event/0a/0d/0a0ded1b92ea7a18df1b842681ad2b75.jpg"},"source":{"name":"","link":""}},{"image":"https://kudago.com/media/images/event/1c/cc/1ccc41ff1ad12d12ea72318c95ac8e7e.png","thumbnails":{"640x384":"https://kudago.com/media/thumbs/640x384/images/event/1c/cc/1ccc41ff1ad12d12ea72318c95ac8e7e.png","144x96":"https://kudago.com/media/thumbs/144x96/images/event/1c/cc/1ccc41ff1ad12d12ea72318c95ac8e7e.png"},"source":{"name":"","link":""}},{"image":"https://kudago.com/media/images/event/ce/15/ce15007e0f8e7f414838184dd57dc754.jpg","thumbnails":{"640x384":"https://kudago.com/media/thumbs/640x384/images/event/ce/15/ce15007e0f8e7f414838184dd57dc754.jpg","144x96":"https://kudago.com/media/thumbs/144x96/images/event/ce/15/ce15007e0f8e7f414838184dd57dc754.jpg"},"source":{"name":"","link":""}}],"favorites_count":535,"comments_count":5,"short_title":"Рисование в виртуальной реальности"},{"id":181532,"dates":[{"start":1566666000,"end":1566670200},{"start":1566752400,"end":1566756600},{"start":1567184400,"end":1567188600},{"start":1567270800,"end":1567275000},{"start":1567357200,"end":1567361400}],"title":"Международный фестиваль музыки барокко Barocco Nights","slug":"kontsert-barocco-nights","place":{"id":270,"title":"Аптекарский огород","slug":"hortus","address":"просп. Мира, д. 26, стр. 1","phone":"+7 495 680-67-65, +7 495 680-72-22","subway":"Проспект Мира","location":"msk","site_url":"https://kudago.com/msk/place/hortus/","is_closed":false,"coords":{"lat":55.77720599999994,"lon":37.636096},"is_stub":false},"description":"<p>Лето в «Аптекарском огороде» завершится большим фестивалем барочной музыки. Виртуозный вокал, старинные инструменты, увлекательно подобранные программы концертов, участие известных исполнителей — всё это приблизит эпоху бельканто и откроет музыку барокко с новой стороны. </p>","categories":["concert","festival"],"age_restriction":0,"price":"от 1200 до 7500 руб.","is_free":false,"images":[{"image":"https://kudago.com/media/images/event/b0/44/b0446bebc06fdc70239d4835fe98fe20.jpg","thumbnails":{"640x384":"https://kudago.com/media/thumbs/640x384/images/event/b0/44/b0446bebc06fdc70239d4835fe98fe20.jpg","144x96":"https://kudago.com/media/thumbs/144x96/images/event/b0/44/b0446bebc06fdc70239d4835fe98fe20.jpg"},"source":{"name":"","link":""}},{"image":"https://kudago.com/media/images/event/da/c9/dac93b2b54e7426296cef1bf71de0a97.jpg","thumbnails":{"640x384":"https://kudago.com/media/thumbs/640x384/images/event/da/c9/dac93b2b54e7426296cef1bf71de0a97.jpg","144x96":"https://kudago.com/media/thumbs/144x96/images/event/da/c9/dac93b2b54e7426296cef1bf71de0a97.jpg"},"source":{"name":"","link":""}},{"image":"https://kudago.com/media/images/event/c8/a1/c8a10c02eeb3abb551829b8637c05c08.jpg","thumbnails":{"640x384":"https://kudago.com/media/thumbs/640x384/images/event/c8/a1/c8a10c02eeb3abb551829b8637c05c08.jpg","144x96":"https://kudago.com/media/thumbs/144x96/images/event/c8/a1/c8a10c02eeb3abb551829b8637c05c08.jpg"},"source":{"name":"","link":""}},{"image":"https://kudago.com/media/images/event/cc/8c/cc8c45c83bfcc30cba62bac38b9d6a00.png","thumbnails":{"640x384":"https://kudago.com/media/thumbs/640x384/images/event/cc/8c/cc8c45c83bfcc30cba62bac38b9d6a00.png","144x96":"https://kudago.com/media/thumbs/144x96/images/event/cc/8c/cc8c45c83bfcc30cba62bac38b9d6a00.png"},"source":{"name":"","link":""}},{"image":"https://kudago.com/media/images/event/ea/3d/ea3db8e67907792113b5b0c893de832e.jpg","thumbnails":{"640x384":"https://kudago.com/media/thumbs/640x384/images/event/ea/3d/ea3db8e67907792113b5b0c893de832e.jpg","144x96":"https://kudago.com/media/thumbs/144x96/images/event/ea/3d/ea3db8e67907792113b5b0c893de832e.jpg"},"source":{"name":"","link":""}},{"image":"https://kudago.com/media/images/event/a1/5d/a15d4fae0b95181c6b1e54a44541d326.jpg","thumbnails":{"640x384":"https://kudago.com/media/thumbs/640x384/images/event/a1/5d/a15d4fae0b95181c6b1e54a44541d326.jpg","144x96":"https://kudago.com/media/thumbs/144x96/images/event/a1/5d/a15d4fae0b95181c6b1e54a44541d326.jpg"},"source":{"name":"","link":""}},{"image":"https://kudago.com/media/images/event/d3/c1/d3c189518373ed4c9725e55a2db4372b.jpg","thumbnails":{"640x384":"https://kudago.com/media/thumbs/640x384/images/event/d3/c1/d3c189518373ed4c9725e55a2db4372b.jpg","144x96":"https://kudago.com/media/thumbs/144x96/images/event/d3/c1/d3c189518373ed4c9725e55a2db4372b.jpg"},"source":{"name":"","link":""}},{"image":"https://kudago.com/media/images/event/07/4b/074b480ccfb41e8bb74b05ae291ecd7b.jpg","thumbnails":{"640x384":"https://kudago.com/media/thumbs/640x384/images/event/07/4b/074b480ccfb41e8bb74b05ae291ecd7b.jpg","144x96":"https://kudago.com/media/thumbs/144x96/images/event/07/4b/074b480ccfb41e8bb74b05ae291ecd7b.jpg"},"source":{"name":"","link":""}}],"favorites_count":3,"comments_count":0,"short_title":"Barocco Nights"},{"id":178370,"dates":[{"start":1560891600,"end":1569790800}],"title":"выставка произведений из коллекции Fondation Louis Vuitton","slug":"vyistavka-proizvedeniya-iz-kollektsii-fondation-louis-vuitton","place":{"id":10883,"title":"Галерея искусства стран Европы и Америки XIX–XX веков","slug":"galereya-iskusstva-stran-evropy-i-ameriki-xix-xx-v","address":"ул. Волхонка, д. 14","phone":"+7 495 697-15-46","subway":"Кропоткинская","location":"msk","site_url":"https://kudago.com/msk/place/galereya-iskusstva-stran-evropy-i-ameriki-xix-xx-v/","is_closed":false,"coords":{"lat":55.74658799999997,"lon":37.60517599999998},"is_stub":false},"description":"<p>На выставке представлена коллекция Fondation Louis Vuitton — произведения Ива Кляйна, Альберто Джакометти, Зигмара Польке и других известных художников.</p>","categories":["exhibition"],"age_restriction":0,"price":"от 0 до 500 рублей","is_free":false,"images":[{"image":"https://kudago.com/media/images/event/92/e1/92e12a52b98667fb67ddadb6972394e0.jpg","thumbnails":{"640x384":"https://kudago.com/media/thumbs/640x384/images/event/92/e1/92e12a52b98667fb67ddadb6972394e0.jpg","144x96":"https://kudago.com/media/thumbs/144x96/images/event/92/e1/92e12a52b98667fb67ddadb6972394e0.jpg"},"source":{"name":"pushkinmuseum.art","link":"https://pushkinmuseum.art/events/archive/2019/exhibitions/louisvuitton/index.php?lang=ru"}},{"image":"https://kudago.com/media/images/event/cb/be/cbbe12ac7649e85130c5f4d6620f706e.jpg","thumbnails":{"640x384":"https://kudago.com/media/thumbs/640x384/images/event/cb/be/cbbe12ac7649e85130c5f4d6620f706e.jpg","144x96":"https://kudago.com/media/thumbs/144x96/images/event/cb/be/cbbe12ac7649e85130c5f4d6620f706e.jpg"},"source":{"name":"pushkinmuseum.art","link":"https://pushkinmuseum.art/events/archive/2019/exhibitions/louisvuitton/index.php?lang=ru"}},{"image":"https://kudago.com/media/images/event/8f/d1/8fd16d828306d31055c217ab7bbeb5e9.jpeg","thumbnails":{"640x384":"https://kudago.com/media/thumbs/640x384/images/event/8f/d1/8fd16d828306d31055c217ab7bbeb5e9.jpeg","144x96":"https://kudago.com/media/thumbs/144x96/images/event/8f/d1/8fd16d828306d31055c217ab7bbeb5e9.jpeg"},"source":{"name":"pushkinmuseum.art","link":"https://pushkinmuseum.art/events/archive/2019/exhibitions/louisvuihttps://pushkinmuseum.art/events/archive/2019/exhibitions/louisvuitton/index.php?lang=rutton/index.php?lang=ru"}},{"image":"https://kudago.com/media/images/event/b1/d9/b1d9f72d303ea04378c30eeed10f655e.jpg","thumbnails":{"640x384":"https://kudago.com/media/thumbs/640x384/images/event/b1/d9/b1d9f72d303ea04378c30eeed10f655e.jpg","144x96":"https://kudago.com/media/thumbs/144x96/images/event/b1/d9/b1d9f72d303ea04378c30eeed10f655e.jpg"},"source":{"name":"pushkinmuseum.art","link":"https://pushkinmuseum.art/events/archive/2019/exhibitions/louisvuitton/index.php?lang=ru"}},{"image":"https://kudago.com/media/images/event/c7/2f/c72f40f3507b9b302d15693335707e80.jpg","thumbnails":{"640x384":"https://kudago.com/media/thumbs/640x384/images/event/c7/2f/c72f40f3507b9b302d15693335707e80.jpg","144x96":"https://kudago.com/media/thumbs/144x96/images/event/c7/2f/c72f40f3507b9b302d15693335707e80.jpg"},"source":{"name":"pushkinmuseum.art","link":"https://pushkinmuseum.art/events/archive/2019/exhibitions/louisvuitton/index.php?lang=ru"}},{"image":"https://kudago.com/media/images/event/24/31/24310dc16d2628c8f9be077849928bc2.jpg","thumbnails":{"640x384":"https://kudago.com/media/thumbs/640x384/images/event/24/31/24310dc16d2628c8f9be077849928bc2.jpg","144x96":"https://kudago.com/media/thumbs/144x96/images/event/24/31/24310dc16d2628c8f9be077849928bc2.jpg"},"source":{"name":"pushkinmuseum.art","link":"https://pushkinmuseum.art/events/archive/2019/exhibitions/louisvuitton/index.php?lang=ru"}},{"image":"https://kudago.com/media/images/event/5b/ee/5beeb28ac001851bb1dbb2fe90c5320e.jpg","thumbnails":{"640x384":"https://kudago.com/media/thumbs/640x384/images/event/5b/ee/5beeb28ac001851bb1dbb2fe90c5320e.jpg","144x96":"https://kudago.com/media/thumbs/144x96/images/event/5b/ee/5beeb28ac001851bb1dbb2fe90c5320e.jpg"},"source":{"name":"pushkinmuseum.art","link":"https://pushkinmuseum.art/events/archive/2019/exhibitions/louisvuitton/index.php?lang=ru"}},{"image":"https://kudago.com/media/images/event/41/bb/41bb2241e5bb9c996b0e6cf94ef3767d.jpg","thumbnails":{"640x384":"https://kudago.com/media/thumbs/640x384/images/event/41/bb/41bb2241e5bb9c996b0e6cf94ef3767d.jpg","144x96":"https://kudago.com/media/thumbs/144x96/images/event/41/bb/41bb2241e5bb9c996b0e6cf94ef3767d.jpg"},"source":{"name":"pushkinmuseum.art","link":"https://pushkinmuseum.art/events/archive/2019/exhibitions/louisvuitton/index.php?lang=ru"}}],"favorites_count":269,"comments_count":2,"short_title":"Произведения из коллекции Fondation Louis Vuitton"},{"id":178366,"dates":[{"start":1560891600,"end":1568581200}],"title":"выставка «Щукин. Биография коллекции»","slug":"vyistavka-v-kontse-prebyivaet-nachalo","place":{"id":130,"title":"Музей изобразительных искусств имени Пушкина","slug":"muzej-pushkina","address":"ул. Волхонка, д. 12","phone":"+7 495 697-95-78","subway":"Библиотека имени Ленина, Боровицкая, Кропоткинская","location":"msk","site_url":"https://kudago.com/msk/place/muzej-pushkina/","is_closed":false,"coords":{"lat":55.74727199999997,"lon":37.60528299999999},"is_stub":false},"description":"<p>Сергей Щукин — один из известнейших отечественных меценатов, собрание которого дало начало коллекциям французской модернистской живописи в ГМИИ и Эрмитаже. Большую часть произведений, в своё время приобретённых купцом, можно увидеть на выставке.</p>","categories":["exhibition"],"age_restriction":0,"price":"от 0 до 600 рублей","is_free":false,"images":[{"image":"https://kudago.com/media/images/event/fe/da/fedaf45214df50e767af3218b50e1f63.jpg","thumbnails":{"640x384":"https://kudago.com/media/thumbs/640x384/images/event/fe/da/fedaf45214df50e767af3218b50e1f63.jpg","144x96":"https://kudago.com/media/thumbs/144x96/images/event/fe/da/fedaf45214df50e767af3218b50e1f63.jpg"},"source":{"name":"ru.wikipedia.org","link":"https://ru.wikipedia.org/wiki/%D0%A9%D1%83%D0%BA%D0%B8%D0%BD,_%D0%A1%D0%B5%D1%80%D0%B3%D0%B5%D0%B9_%D0%98%D0%B2%D0%B0%D0%BD%D0%BE%D0%B2%D0%B8%D1%87"}},{"image":"https://kudago.com/media/images/event/2c/b9/2cb9df2f388fba3bf53ee151e1391b02.jpg","thumbnails":{"640x384":"https://kudago.com/media/thumbs/640x384/images/event/2c/b9/2cb9df2f388fba3bf53ee151e1391b02.jpg","144x96":"https://kudago.com/media/thumbs/144x96/images/event/2c/b9/2cb9df2f388fba3bf53ee151e1391b02.jpg"},"source":{"name":"pushkinmuseum.art","link":"https://pushkinmuseum.art/events/archive/2019/exhibitions/shchukin/index.php?lang=ru"}},{"image":"https://kudago.com/media/images/event/e2/18/e218ecd964c5735a3d30abe6d9d5a3d5.jpg","thumbnails":{"640x384":"https://kudago.com/media/thumbs/640x384/images/event/e2/18/e218ecd964c5735a3d30abe6d9d5a3d5.jpg","144x96":"https://kudago.com/media/thumbs/144x96/images/event/e2/18/e218ecd964c5735a3d30abe6d9d5a3d5.jpg"},"source":{"name":"pushkinmuseum.art","link":"https://pushkinmuseum.art/events/archive/2019/exhibitions/shchukin/index.php?lang=ru"}},{"image":"https://kudago.com/media/images/event/75/72/7572cd49b468e5d05be5c6496c8c49fc.jpg","thumbnails":{"640x384":"https://kudago.com/media/thumbs/640x384/images/event/75/72/7572cd49b468e5d05be5c6496c8c49fc.jpg","144x96":"https://kudago.com/media/thumbs/144x96/images/event/75/72/7572cd49b468e5d05be5c6496c8c49fc.jpg"},"source":{"name":"pushkinmuseum.art","link":"https://pushkinmuseum.art/events/archive/2019/exhibitions/shchukin/index.php?lang=ru"}},{"image":"https://kudago.com/media/images/event/c3/f4/c3f45f4263c1db1b6a1bc50694e3a720.jpg","thumbnails":{"640x384":"https://kudago.com/media/thumbs/640x384/images/event/c3/f4/c3f45f4263c1db1b6a1bc50694e3a720.jpg","144x96":"https://kudago.com/media/thumbs/144x96/images/event/c3/f4/c3f45f4263c1db1b6a1bc50694e3a720.jpg"},"source":{"name":"pushkinmuseum.art","link":"https://pushkinmuseum.art/events/archive/2019/exhibitions/shchukin/index.php?lang=ru"}},{"image":"https://kudago.com/media/images/event/7c/70/7c708765ac006d363ce27080403a60d9.jpg","thumbnails":{"640x384":"https://kudago.com/media/thumbs/640x384/images/event/7c/70/7c708765ac006d363ce27080403a60d9.jpg","144x96":"https://kudago.com/media/thumbs/144x96/images/event/7c/70/7c708765ac006d363ce27080403a60d9.jpg"},"source":{"name":"pushkinmuseum.art","link":"https://pushkinmuseum.art/events/archive/2019/exhibitions/shchukin/index.php?lang=ru"}},{"image":"https://kudago.com/media/images/event/93/0d/930dbd9652f4a7ea584139a0ba531cd2.jpg","thumbnails":{"640x384":"https://kudago.com/media/thumbs/640x384/images/event/93/0d/930dbd9652f4a7ea584139a0ba531cd2.jpg","144x96":"https://kudago.com/media/thumbs/144x96/images/event/93/0d/930dbd9652f4a7ea584139a0ba531cd2.jpg"},"source":{"name":"pushkinmuseum.art","link":"https://pushkinmuseum.art/events/archive/2019/exhibitions/shchukin/index.php?lang=ru"}},{"image":"https://kudago.com/media/images/event/5f/54/5f54940b7c863e91ec81cdd9d82ce553.jpg","thumbnails":{"640x384":"https://kudago.com/media/thumbs/640x384/images/event/5f/54/5f54940b7c863e91ec81cdd9d82ce553.jpg","144x96":"https://kudago.com/media/thumbs/144x96/images/event/5f/54/5f54940b7c863e91ec81cdd9d82ce553.jpg"},"source":{"name":"pushkinmuseum.art","link":"https://pushkinmuseum.art/events/archive/2019/exhibitions/shchukin/index.php?lang=ru"}},{"image":"https://kudago.com/media/images/event/0d/27/0d278e770b2f89aadd2db6d43c150316.jpg","thumbnails":{"640x384":"https://kudago.com/media/thumbs/640x384/images/event/0d/27/0d278e770b2f89aadd2db6d43c150316.jpg","144x96":"https://kudago.com/media/thumbs/144x96/images/event/0d/27/0d278e770b2f89aadd2db6d43c150316.jpg"},"source":{"name":"pushkinmuseum.art","link":"https://pushkinmuseum.art/events/archive/2019/exhibitions/shchukin/index.php?lang=ru"}}],"favorites_count":107,"comments_count":0,"short_title":"Щукин. Биография коллекции"},{"id":180975,"dates":[{"start":1567357200,"end":1567357200}],"title":"концерт группы «Комсомольск»","slug":"kontsert-komsomolsk-sentyabr-2019","place":{"id":359,"title":"клуб «16 Тонн»","slug":"klub-16-tonn","address":"ул. Пресненский Вал, д. 6, стр. 1","phone":"+7 499 253-53-00, +7 499 253-15-50","subway":"Улица 1905 года","location":"msk","site_url":"https://kudago.com/msk/place/klub-16-tonn/","is_closed":false,"coords":{"lat":55.764273,"lon":37.56441},"is_stub":false},"description":"<p>Дерзкий девичий инди-поп дуэт отпразднует начало учебного года свежей порцией злободневно-ироничных песен.</p>","categories":["concert"],"age_restriction":"16+","price":"от 800 до 2500 рублей","is_free":false,"images":[{"image":"https://kudago.com/media/images/event/dc/fc/dcfc6e4ecf95283da32530bc66fae5aa.jpg","thumbnails":{"640x384":"https://kudago.com/media/thumbs/640x384/images/event/dc/fc/dcfc6e4ecf95283da32530bc66fae5aa.jpg","144x96":"https://kudago.com/media/thumbs/144x96/images/event/dc/fc/dcfc6e4ecf95283da32530bc66fae5aa.jpg"},"source":{"name":"dark-scene.ru","link":"http://dark-scene.ru/band/komsomolsk.html"}}],"favorites_count":1,"comments_count":0,"short_title":"Комсомольск"}]}