{"count":20,"next":"https://kudago.com/public-api/v1.4/events/?actual_since=1551610019.756&expand=place%2Cimages&fields=id%2Ctitle%2Cslug%2Cprice%2Ccategories%2Cimages%2Cis_free%2Cshort_title%2Cdates%2Cdescription%2Cfavorites_count%2Ccomments_count%2Cage_restriction%2Cplace&is_free=false&location=kev&page=2&page_size=12","previous":null,"results":[{"id":157180,"dates":[{"start":-62135433000,"end":253370754000}],"title":"выставка «Зоопарк под микроскопом»","slug":"vyistavka-zoopark-pod-mikroskopom","place":{"id":2695,"title":"Киевский планетарий","slug":"kievskij-planetarij","address":"ул.Большая Васильковская (бывшая Красноармейская), 57/3","phone":"+380 44 287 7508","subway":"Олимпийская","location":"kev","site_url":"https://kudago.com/kev/place/kievskij-planetarij/","is_closed":false,"coords":{"lat":50.43420099999999,"lon":30.516498},"is_stub":false},"description":"<p>Каждый день, кроме понедельника, в Киевском планетарии показывают под микроскопом жизнь крошечных существ.</p>\n","categories":["exhibition"],"age_restriction":0,"price":"45 грн","is_free":false,"images":[{"image":"https://kudago.com/media/images/event/b4/59/b459f980a65de15f1bdcfb68ee5e3d64.jpg","thumbnails":{"640x384":"https://kudago.com/media/thumbs/640x384/images/event/b4/59/b459f980a65de15f1bdcfb68ee5e3d64.jpg","144x96":"https://kudago.com/media/thumbs/144x96/images/event/b4/59/b459f980a65de15f1bdcfb68ee5e3d64.jpg"},"source":{"name":"kupongid.ru","link":"http://www.kupongid.ru/deal/558378571/"}}],"favorites_count":20,"comments_count":1,"short_title":"Зоопарк под микроскопом"},{"id":72687,"dates":[{"start":-62135433000,"end":253370754000}],"title":"выставка «Эдемский сад»","slug":"vystavka-edemskij-sad","place":{"id":4214,"title":"Центральный ботанический сад им. Гришко","slug":"centralnyj-botanicheskij-sad","address":"ул. Тимирязевская, д. 1","phone":"+380 44 285 4105","subway":"Выдубичи, Дружбы Народов","location":"kev","site_url":"https://kudago.com/kev/place/centralnyj-botanicheskij-sad/","is_closed":false,"coords":{"lat":50.41057899999985,"lon":30.55887099999999},"is_stub":false},"description":"<p>Экзотический уголок в центре Киева: бабочки, пальмы, крокодилы, черепахи, хамелеоны, попугаи, жабы, рыбы и другие обитатели тропиков.</p>\n","categories":["exhibition","permanent-exhibitions"],"age_restriction":"6+","price":"от 30 до 50 гривен","is_free":false,"images":[{"image":"https://kudago.com/media/images/event/70/58/7058a2bd46da9d816ad325b6741bc119.jpg","thumbnails":{"640x384":"https://kudago.com/media/thumbs/640x384/images/event/70/58/7058a2bd46da9d816ad325b6741bc119.jpg","144x96":"https://kudago.com/media/thumbs/144x96/images/event/70/58/7058a2bd46da9d816ad325b6741bc119.jpg"},"source":{"name":"tropicallife.org","link":"http://tropicallife.org/expo.htm"}},{"image":"https://kudago.com/media/images/event/35/cf/35cf1d19915fb085314fa377358a3d1b.jpg","thumbnails":{"640x384":"https://kudago.com/media/thumbs/640x384/images/event/35/cf/35cf1d19915fb085314fa377358a3d1b.jpg","144x96":"https://kudago.com/media/thumbs/144x96/images/event/35/cf/35cf1d19915fb085314fa377358a3d1b.jpg"},"source":{"name":"tropicallife.org","link":"http://tropicallife.org/expo.htm"}},{"image":"https://kudago.com/media/images/event/0c/c8/0cc8edd700451e8da071763ae62e380c.jpg","thumbnails":{"640x384":"https://kudago.com/media/thumbs/640x384/images/event/0c/c8/0cc8edd700451e8da071763ae62e380c.jpg","144x96":"https://kudago.com/media/thumbs/144x96/images/event/0c/c8/0cc8edd700451e8da071763ae62e380c.jpg"},"source":{"name":"tropicallife.org","link":"http://tropicallife.org/expo.htm"}},{"image":"https://kudago.com/media/images/event/db/08/db08f336cdc8504bce9e86104e33bddb.jpg","thumbnails":{"640x384":"https://kudago.com/media/thumbs/640x384/images/event/db/08/db08f336cdc8504bce9e86104e33bddb.jpg","144x96":"https://kudago.com/media/thumbs/144x96/images/event/db/08/db08f336cdc8504bce9e86104e33bddb.jpg"},"source":{"name":"tropicallife.org","link":"http://tropicallife.org/expo.htm"}},{"image":"https://kudago.com/media/images/event/f4/cc/f4ccb782b6ea32d7289541768b2a2d60.jpg","thumbnails":{"640x384":"https://kudago.com/media/thumbs/640x384/images/event/f4/cc/f4ccb782b6ea32d7289541768b2a2d60.jpg","144x96":"https://kudago.com/media/thumbs/144x96/images/event/f4/cc/f4ccb782b6ea32d7289541768b2a2d60.jpg"},"source":{"name":"tropicallife.org","link":"http://tropicallife.org/expo.htm"}},{"image":"https://kudago.com/media/images/event/2e/5a/2e5a3bb9a016f4fa4a28ec06a3e0b618.jpg","thumbnails":{"640x384":"https://kudago.com/media/thumbs/640x384/images/event/2e/5a/2e5a3bb9a016f4fa4a28ec06a3e0b618.jpg","144x96":"https://kudago.com/media/thumbs/144x96/images/event/2e/5a/2e5a3bb9a016f4fa4a28ec06a3e0b618.jpg"},"source":{"name":"tropicallife.org","link":"http://tropicallife.org/expo.htm"}},{"image":"https://kudago.com/media/images/event/ae/f4/aef402eb587095367510630fffa8169a.jpg","thumbnails":{"640x384":"https://kudago.com/media/thumbs/640x384/images/event/ae/f4/aef402eb587095367510630fffa8169a.jpg","144x96":"https://kudago.com/media/thumbs/144x96/images/event/ae/f4/aef402eb587095367510630fffa8169a.jpg"},"source":{"name":"tropicallife.org","link":"http://tropicallife.org/expo.htm"}},{"image":"https://kudago.com/media/images/event/fa/56/fa568b8ce8ad05a6b8e613274f749264.jpg","thumbnails":{"640x384":"https://kudago.com/media/thumbs/640x384/images/event/fa/56/fa568b8ce8ad05a6b8e613274f749264.jpg","144x96":"https://kudago.com/media/thumbs/144x96/images/event/fa/56/fa568b8ce8ad05a6b8e613274f749264.jpg"},"source":{"name":"tropicallife.org","link":"http://tropicallife.org/expo.htm"}},{"image":"https://kudago.com/media/images/event/04/e3/04e33f9a918613a72dafdab45a5f617f.jpg","thumbnails":{"640x384":"https://kudago.com/media/thumbs/640x384/images/event/04/e3/04e33f9a918613a72dafdab45a5f617f.jpg","144x96":"https://kudago.com/media/thumbs/144x96/images/event/04/e3/04e33f9a918613a72dafdab45a5f617f.jpg"},"source":{"name":"tropicallife.org","link":"http://tropicallife.org/expo.htm"}}],"favorites_count":37,"comments_count":1,"short_title":"Эдемский сад"},{"id":157204,"dates":[{"start":-62135433000,"end":253370754000}],"title":"выставка камня «Минералия»","slug":"vyistavka-mineraliya","place":{"id":26604,"title":"Выставка-музей «Минералия»","slug":"vystavka-muzej-mineraliya","address":"улица Киквидзе, дом 1а","phone":"","subway":"","location":"kev","site_url":"https://kudago.com/kev/place/vystavka-muzej-mineraliya/","is_closed":false,"coords":{"lat":50.417289,"lon":30.549843},"is_stub":true},"description":"<p>Тысяча прекрасных камней в одном месте – такое зрелище поразит и детей, и взрослых.</p>\n","categories":["exhibition","permanent-exhibitions"],"age_restriction":0,"price":"20–40 грн","is_free":false,"images":[{"image":"https://kudago.com/media/images/event/be/8c/be8c1d1da79e687cc77cf18c335a1d10.jpg","thumbnails":{"640x384":"https://kudago.com/media/thumbs/640x384/images/event/be/8c/be8c1d1da79e687cc77cf18c335a1d10.jpg","144x96":"https://kudago.com/media/thumbs/144x96/images/event/be/8c/be8c1d1da79e687cc77cf18c335a1d10.jpg"},"source":{"name":"pikabu.ru","link":"http://pikabu.ru/story/mineralyi_4811333"}}],"favorites_count":16,"comments_count":2,"short_title":"Минералия"},{"id":72827,"dates":[{"start":-62135433000,"end":253370754000}],"title":"выставка аквариумных рыб и растений","slug":"vystavka-akvariumnih-ryb-i-rastenij","place":{"id":18847,"title":"Киевский городской Дом природы","slug":"kievskij-gorodskoj-dom-prirody","address":"ул. Рогнединская, д.3","phone":"+380 44 234 1068","subway":"Дворец Спорта","location":"kev","site_url":"https://kudago.com/kev/place/kievskij-gorodskoj-dom-prirody/","is_closed":false,"coords":{"lat":50.43982900000001,"lon":30.520406},"is_stub":true},"description":"<p>Уникальный 6-тонный аквариум, в котором находится более 100 видов растений, и множество аквариумов поменьше, где обитают дискусы, золотые рыбки, полиптерусы, стеклянные сомы, пираньи, пресноводные скаты и другие виды рыб. Выставку дополняют игуана Маша и шиншилла Анфиса.</p>\n","categories":["exhibition","permanent-exhibitions"],"age_restriction":"6+","price":"25 гривен, льготный — 15 гривен","is_free":false,"images":[{"image":"https://kudago.com/media/images/event/56/09/56098401ad8457db78a95b70042c0eb4.jpg","thumbnails":{"640x384":"https://kudago.com/media/thumbs/640x384/images/event/56/09/56098401ad8457db78a95b70042c0eb4.jpg","144x96":"https://kudago.com/media/thumbs/144x96/images/event/56/09/56098401ad8457db78a95b70042c0eb4.jpg"},"source":{"name":"dom-prirody.com.ua","link":"http://www.dom-prirody.com.ua/vistavki/diuci"}}],"favorites_count":16,"comments_count":0,"short_title":"аквариумные рыбы и растения"},{"id":157229,"dates":[{"start":-62135433000,"end":253370754000}],"title":"выставка «Киев в миниатюре»","slug":"vyistavka-kiev-v-miniatyure","place":{"id":9393,"title":"Гидропарк","slug":"gidropark","address":"Труханов остров","phone":"+380 44 592 4610","subway":"Гидропарк","location":"kev","site_url":"https://kudago.com/kev/place/gidropark/","is_closed":false,"coords":{"lat":50.469846,"lon":30.539504},"is_stub":false},"description":"<p>Хотите увидеть весь Киев сразу, как на ладони? Для этого не обязательно смотреть на город с высоты, можно посмотреть на него в миниатюре.</p>\n","categories":["exhibition","permanent-exhibitions"],"age_restriction":0,"price":"10–25 грн","is_free":false,"images":[{"image":"https://kudago.com/media/images/event/08/ae/08ae9179438279e0cde7f9c9450c6df1.jpg","thumbnails":{"640x384":"https://kudago.com/media/thumbs/640x384/images/event/08/ae/08ae9179438279e0cde7f9c9450c6df1.jpg","144x96":"https://kudago.com/media/thumbs/144x96/images/event/08/ae/08ae9179438279e0cde7f9c9450c6df1.jpg"},"source":{"name":"smartclever.com.ua","link":"http://smartclever.com.ua/ru/landmark/140"}}],"favorites_count":15,"comments_count":0,"short_title":"Киев в миниатюре"},{"id":77767,"dates":[{"start":-62135433000,"end":253370754000}],"title":"сальса-вечеринка с мастер-классом в Casa De Ritmo","slug":"salsa-vecherinka-s-master-klassom-v-casa-de-ritmo","place":{"id":19939,"title":"студия CasaDeRitmo","slug":"studiya-casaderitmo","address":"ул Ярославов Вал, д. 17-б","phone":"+380 97 081 7651","subway":"Золотые Ворота","location":"kev","site_url":"https://kudago.com/kev/place/studiya-casaderitmo/","is_closed":false,"coords":{"lat":50.450888,"lon":30.508943},"is_stub":true},"description":"<p>Долой диванное настроение, лень и сонливость. Сальса вырвет тебя из унылой повседневности!</p>\n","categories":["dance-trainings"],"age_restriction":"12+","price":"20 грн","is_free":false,"images":[{"image":"https://kudago.com/media/images/event/d0/f6/d0f6352e812b5358c7c2a75c9cbaffbd.jpg","thumbnails":{"640x384":"https://kudago.com/media/thumbs/640x384/images/event/d0/f6/d0f6352e812b5358c7c2a75c9cbaffbd.jpg","144x96":"https://kudago.com/media/thumbs/144x96/images/event/d0/f6/d0f6352e812b5358c7c2a75c9cbaffbd.jpg"},"source":{"name":"vk.com","link":""}},{"image":"https://kudago.com/media/images/event/35/e2/35e21408ff008ec597e4ddd444ecf468.jpg","thumbnails":{"640x384":"https://kudago.com/media/thumbs/640x384/images/event/35/e2/35e21408ff008ec597e4ddd444ecf468.jpg","144x96":"https://kudago.com/media/thumbs/144x96/images/event/35/e2/35e21408ff008ec597e4ddd444ecf468.jpg"},"source":{"name":"vk.com","link":""}},{"image":"https://kudago.com/media/images/event/9a/0e/9a0e6ebd8ce9d38a1af7be19f2909b18.jpg","thumbnails":{"640x384":"https://kudago.com/media/thumbs/640x384/images/event/9a/0e/9a0e6ebd8ce9d38a1af7be19f2909b18.jpg","144x96":"https://kudago.com/media/thumbs/144x96/images/event/9a/0e/9a0e6ebd8ce9d38a1af7be19f2909b18.jpg"},"source":{"name":"vk.com","link":""}}],"favorites_count":32,"comments_count":5,"short_title":"сальса-вечеринка"},{"id":79452,"dates":[{"start":-62135433000,"end":253370754000}],"title":"эксклюзивный хенд-крафт от украинских производителей","slug":"eksklyuzivnyj-hend-kraft-ot-ukrainskih-proizvodite","place":{"id":20294,"title":"ТЦ «Бессарабский квартал»","slug":"tc-bessarabskij-kvartal","address":"ул. Бассейная, д.4 (спуск в подземку возле «Мандарин-плаза»)","phone":"","subway":"","location":"kev","site_url":"https://kudago.com/kev/place/tc-bessarabskij-kvartal/","is_closed":false,"coords":{"lat":50.441148,"lon":30.521744},"is_stub":true},"description":"<p>Качественная одежда и аксессуары отечественного производства.</p>\n","categories":["fashion"],"age_restriction":null,"price":"","is_free":false,"images":[{"image":"https://kudago.com/media/images/event/cc/c0/ccc087d6ae11a3abb3884b30346676a0.jpg","thumbnails":{"640x384":"https://kudago.com/media/thumbs/640x384/images/event/cc/c0/ccc087d6ae11a3abb3884b30346676a0.jpg","144x96":"https://kudago.com/media/thumbs/144x96/images/event/cc/c0/ccc087d6ae11a3abb3884b30346676a0.jpg"},"source":{"name":"vk.com","link":"https://vk.com/albums-77015103"}},{"image":"https://kudago.com/media/images/event/e3/8a/e38a928195dbe4e4e7b1ad2fe16c2d94.jpg","thumbnails":{"640x384":"https://kudago.com/media/thumbs/640x384/images/event/e3/8a/e38a928195dbe4e4e7b1ad2fe16c2d94.jpg","144x96":"https://kudago.com/media/thumbs/144x96/images/event/e3/8a/e38a928195dbe4e4e7b1ad2fe16c2d94.jpg"},"source":{"name":"vk.com","link":"https://vk.com/albums-77015103"}},{"image":"https://kudago.com/media/images/event/14/5e/145e81ac7aa315be58f9617f7f364caf.jpg","thumbnails":{"640x384":"https://kudago.com/media/thumbs/640x384/images/event/14/5e/145e81ac7aa315be58f9617f7f364caf.jpg","144x96":"https://kudago.com/media/thumbs/144x96/images/event/14/5e/145e81ac7aa315be58f9617f7f364caf.jpg"},"source":{"name":"vk.com","link":"https://vk.com/feed?w=wall-32195333_6387483"}},{"image":"https://kudago.com/media/images/event/31/fe/31fe4719ad9fd3aa924ca90f66c6b6c6.jpg","thumbnails":{"640x384":"https://kudago.com/media/thumbs/640x384/images/event/31/fe/31fe4719ad9fd3aa924ca90f66c6b6c6.jpg","144x96":"https://kudago.com/media/thumbs/144x96/images/event/31/fe/31fe4719ad9fd3aa924ca90f66c6b6c6.jpg"},"source":{"name":"vk.com","link":"https://vk.com/feed?w=wall-32195333_6387483"}},{"image":"https://kudago.com/media/images/event/db/d3/dbd321ca13a27360d912cc54122a6566.jpg","thumbnails":{"640x384":"https://kudago.com/media/thumbs/640x384/images/event/db/d3/dbd321ca13a27360d912cc54122a6566.jpg","144x96":"https://kudago.com/media/thumbs/144x96/images/event/db/d3/dbd321ca13a27360d912cc54122a6566.jpg"},"source":{"name":"vk.com","link":"https://vk.com/albums-77015103"}},{"image":"https://kudago.com/media/images/event/be/0e/be0ea97865d35cbf86be2df522d1eb14.jpg","thumbnails":{"640x384":"https://kudago.com/media/thumbs/640x384/images/event/be/0e/be0ea97865d35cbf86be2df522d1eb14.jpg","144x96":"https://kudago.com/media/thumbs/144x96/images/event/be/0e/be0ea97865d35cbf86be2df522d1eb14.jpg"},"source":{"name":"vk.com","link":"https://vk.com/feed?w=wall-32195333_6387483"}}],"favorites_count":85,"comments_count":1,"short_title":"Хенд-крафт"},{"id":77982,"dates":[{"start":-62135433000,"end":253370754000}],"title":"постоянная экспозиция Музея миниатюры","slug":"postoyannaya-ekspoziciya-muzeya-miniatyury","place":{"id":9548,"title":"Музей миниатюры","slug":"muzej-miniatyury","address":"ул. Ивана Мазепы, д.21, корпус 5","phone":"+380 44 280 8137","subway":"Арсенальная","location":"kev","site_url":"https://kudago.com/kev/place/muzej-miniatyury/","is_closed":false,"coords":{"lat":50.43442499999999,"lon":30.55494599999999},"is_stub":false},"description":"<p>В музее, находящемся в одном из зданий Киево-Печерской Лавры, собраны работы мастера Николая Сядристого — уроженца Харькова, который прославился не только в Украине, но и за рубежом.</p>\n","categories":["exhibition","permanent-exhibitions"],"age_restriction":"6+","price":"от 25 до 50 гривен","is_free":false,"images":[{"image":"https://kudago.com/media/images/event/b6/9c/b69cd12c5b8620dc415a16d8f7667467.jpg","thumbnails":{"640x384":"https://kudago.com/media/thumbs/640x384/images/event/b6/9c/b69cd12c5b8620dc415a16d8f7667467.jpg","144x96":"https://kudago.com/media/thumbs/144x96/images/event/b6/9c/b69cd12c5b8620dc415a16d8f7667467.jpg"},"source":{"name":"travellife.com.ua","link":"http://travellife.com.ua/interesnoe/interesnye-mesta/samyie-neobyichnyie-muzei-kieva.html"}},{"image":"https://kudago.com/media/images/event/7a/81/7a81ef7de74305cd9ce0d11524461ab5.jpg","thumbnails":{"640x384":"https://kudago.com/media/thumbs/640x384/images/event/7a/81/7a81ef7de74305cd9ce0d11524461ab5.jpg","144x96":"https://kudago.com/media/thumbs/144x96/images/event/7a/81/7a81ef7de74305cd9ce0d11524461ab5.jpg"},"source":{"name":"nice-places.com","link":"http://www.nice-places.com/gallery/ukraine/drygie/444/"}},{"image":"https://kudago.com/media/images/event/56/17/56176adfc7c5798a46e8b2a638179e8d.jpg","thumbnails":{"640x384":"https://kudago.com/media/thumbs/640x384/images/event/56/17/56176adfc7c5798a46e8b2a638179e8d.jpg","144x96":"https://kudago.com/media/thumbs/144x96/images/event/56/17/56176adfc7c5798a46e8b2a638179e8d.jpg"},"source":{"name":"relax.com.ua","link":"http://relax.com.ua/where-to-go/museum/muzeum_mini/"}}],"favorites_count":37,"comments_count":2,"short_title":"Музей миниатюры"},{"id":73719,"dates":[{"start":1427389200,"end":1427403600},{"start":1427990400,"end":1428004800},{"start":1428595200,"end":1428609600},{"start":1429200000,"end":1429214400},{"start":1429804800,"end":1429819200},{"start":1430409600,"end":1430424000},{"start":1435248000,"end":1435262400},{"start":1435852800,"end":1435867200},{"start":1436457600,"end":1436472000},{"start":1437062400,"end":1437076800},{"start":1437667200,"end":1437681600},{"start":1438272000,"end":1438286400},{"start":-62135433000,"end":253370754000}],"title":"Freud Mafia House","slug":"freud-mafia-house","place":{"id":19324,"title":"Свободное пространство «Freud House»","slug":"svobodnoe-prostranstvo-freud-house","address":"ул. Константиновская, д.21","phone":"+380 44 462 5072, +380 93 715 5306","subway":"","location":"kev","site_url":"https://kudago.com/kev/place/svobodnoe-prostranstvo-freud-house/","is_closed":false,"coords":{"lat":50.467014,"lon":30.51134199999999},"is_stub":false},"description":"<p>Игра в «Мафию» по классическим правилам. Проверьте свою память, логику и актёрские способности! Для участия необходимо <a class=\"external-link\" href=\"https://docs.google.com/forms/d/1XXcil8HaFrCmXpXbpn6p8pn8YYtPlOSB0SdlyMQlUCk/viewform\" rel=\"nofollow\" target=\"_blank\">зарегистрироваться</a>.</p>\n","categories":["games"],"age_restriction":"18+","price":"оплата времени: первый и второй часы — 33 гривны, третий — 20 гривен, червёртый — 10 гривен","is_free":false,"images":[{"image":"https://kudago.com/media/images/event/87/1d/871d0706740b5f2662cd91b48c80971c.jpg","thumbnails":{"640x384":"https://kudago.com/media/thumbs/640x384/images/event/87/1d/871d0706740b5f2662cd91b48c80971c.jpg","144x96":"https://kudago.com/media/thumbs/144x96/images/event/87/1d/871d0706740b5f2662cd91b48c80971c.jpg"},"source":{"name":"freud-house.com.ua","link":"http://www.freud-house.com.ua/th_gallery/gallery/"}}],"favorites_count":62,"comments_count":0,"short_title":"Freud Mafia House"},{"id":74350,"dates":[{"start":1427260500,"end":1427264100},{"start":1427265000,"end":1427268600},{"start":1427433300,"end":1427436900},{"start":1427437800,"end":1427441400},{"start":1427688900,"end":1427692500},{"start":1427693400,"end":1427697000},{"start":1427861700,"end":1427865300},{"start":1427866200,"end":1427869800},{"start":1428034500,"end":1428038100},{"start":1428039000,"end":1428042600},{"start":1428293700,"end":1428297300},{"start":1428298200,"end":1428301800},{"start":1428466500,"end":1428470100},{"start":1428471000,"end":1428474600},{"start":1428639300,"end":1428642900},{"start":1428643800,"end":1428647400},{"start":1428898500,"end":1428902100},{"start":1428903000,"end":1428906600},{"start":1429071300,"end":1429074900},{"start":1429075800,"end":1429079400},{"start":1429244100,"end":1429247700},{"start":1429248600,"end":1429252200},{"start":1429503300,"end":1429506900},{"start":1429507800,"end":1429511400},{"start":1429676100,"end":1429679700},{"start":1429680600,"end":1429684200},{"start":1429848900,"end":1429852500},{"start":1429853400,"end":1429857000},{"start":1430108100,"end":1430111700},{"start":1430112600,"end":1430116200},{"start":1430280900,"end":1430284500},{"start":1430285400,"end":1430289000},{"start":1435292100,"end":1435295700},{"start":1435296600,"end":1435300200},{"start":1435551300,"end":1435554900},{"start":1435555800,"end":1435559400},{"start":1435724100,"end":1435727700},{"start":1435728600,"end":1435732200},{"start":1435896900,"end":1435900500},{"start":1435901400,"end":1435905000},{"start":1436156100,"end":1436159700},{"start":1436160600,"end":1436164200},{"start":1436328900,"end":1436332500},{"start":1436333400,"end":1436337000},{"start":1436501700,"end":1436505300},{"start":1436506200,"end":1436509800},{"start":1436760900,"end":1436764500},{"start":1436765400,"end":1436769000},{"start":1436933700,"end":1436937300},{"start":1436938200,"end":1436941800},{"start":1437106500,"end":1437110100},{"start":1437111000,"end":1437114600},{"start":1437365700,"end":1437369300},{"start":1437370200,"end":1437373800},{"start":1437538500,"end":1437542100},{"start":1437543000,"end":1437546600},{"start":1437711300,"end":1437714900},{"start":1437715800,"end":1437719400},{"start":1437970500,"end":1437974100},{"start":1437975000,"end":1437978600},{"start":1438143300,"end":1438146900},{"start":1438147800,"end":1438151400},{"start":1438316100,"end":1438319700},{"start":1438320600,"end":1438324200},{"start":-62135433000,"end":253370754000}],"title":"утренняя йога","slug":"utrennyaya-joga","place":{"id":19324,"title":"Свободное пространство «Freud House»","slug":"svobodnoe-prostranstvo-freud-house","address":"ул. Константиновская, д.21","phone":"+380 44 462 5072, +380 93 715 5306","subway":"","location":"kev","site_url":"https://kudago.com/kev/place/svobodnoe-prostranstvo-freud-house/","is_closed":false,"coords":{"lat":50.467014,"lon":30.51134199999999},"is_stub":false},"description":"<p>Разбудите в себе радость и положительный настрой, станьте красивыми и здоровыми, посещая утренние занятия йогой.</p>\n","categories":["yoga"],"age_restriction":null,"price":"одно занятие — 70 гривен","is_free":false,"images":[{"image":"https://kudago.com/media/images/event/38/29/3829e6c99528673310305088bb797379.jpg","thumbnails":{"640x384":"https://kudago.com/media/thumbs/640x384/images/event/38/29/3829e6c99528673310305088bb797379.jpg","144x96":"https://kudago.com/media/thumbs/144x96/images/event/38/29/3829e6c99528673310305088bb797379.jpg"},"source":{"name":"bodyboom.ru","link":"http://www.bodyboom.ru/gruoppovie-trenirovki/joga-v-permi"}}],"favorites_count":37,"comments_count":0,"short_title":"Йога"},{"id":77778,"dates":[{"start":-62135433000,"end":253370754000}],"title":"кулинарный мастер-класс для всей семьи","slug":"kulinarnyj-master-klass-dlya-vsej-semi","place":{"id":19942,"title":"Вагон-ресторан","slug":"vagon-restoran","address":"ул. Большая Васильковсая, д. 52","phone":"+380 44 287 0490","subway":"","location":"kev","site_url":"https://kudago.com/kev/place/vagon-restoran/","is_closed":false,"coords":{"lat":50.435343,"lon":30.515635},"is_stub":true},"description":"<p>Уроки высокой кухни от участницы популярного телешоу.</p>\n","categories":["education"],"age_restriction":0,"price":"100 гривен","is_free":false,"images":[{"image":"https://kudago.com/media/images/event/be/93/be936bc6c4668dc07483c935a29edcb3.jpg","thumbnails":{"640x384":"https://kudago.com/media/thumbs/640x384/images/event/be/93/be936bc6c4668dc07483c935a29edcb3.jpg","144x96":"https://kudago.com/media/thumbs/144x96/images/event/be/93/be936bc6c4668dc07483c935a29edcb3.jpg"},"source":{"name":"vk.com","link":""}},{"image":"https://kudago.com/media/images/event/32/f7/32f7c15b2b7d5eba1fdab5512e35691b.jpg","thumbnails":{"640x384":"https://kudago.com/media/thumbs/640x384/images/event/32/f7/32f7c15b2b7d5eba1fdab5512e35691b.jpg","144x96":"https://kudago.com/media/thumbs/144x96/images/event/32/f7/32f7c15b2b7d5eba1fdab5512e35691b.jpg"},"source":{"name":"vk.com","link":""}},{"image":"https://kudago.com/media/images/event/e8/af/e8afe64ff6025067a04b6bf84c4820ea.jpg","thumbnails":{"640x384":"https://kudago.com/media/thumbs/640x384/images/event/e8/af/e8afe64ff6025067a04b6bf84c4820ea.jpg","144x96":"https://kudago.com/media/thumbs/144x96/images/event/e8/af/e8afe64ff6025067a04b6bf84c4820ea.jpg"},"source":{"name":"vk.com","link":""}}],"favorites_count":7,"comments_count":2,"short_title":"кулинарный мастер-класс"},{"id":73294,"dates":[{"start":1427022000,"end":1427022000},{"start":1427623200,"end":1427623200},{"start":1428228000,"end":1428228000},{"start":1428832800,"end":1428832800},{"start":1429437600,"end":1429437600},{"start":1430042400,"end":1430042400},{"start":1430647200,"end":1430647200},{"start":1431252000,"end":1431252000},{"start":1431856800,"end":1431856800},{"start":1432461600,"end":1432461600},{"start":1433066400,"end":1433066400},{"start":1436090400,"end":1436090400},{"start":1436695200,"end":1436695200},{"start":1437300000,"end":1437300000},{"start":1437904800,"end":1437904800},{"start":-62135433000,"end":253370754000}],"title":"встречи разговорного клуба «Travel club Kiev»","slug":"vstrechi-razgovornogo-kluba-travel-club-kiev","place":{"id":18278,"title":"Некафе БеседниZza","slug":"nekafe-olimpijskaya-besednizza111","address":"пер. Т. Шевченко, д.7/1","phone":"+380 44 279 8800","subway":"Майдан Независимости","location":"kev","site_url":"https://kudago.com/kev/place/nekafe-olimpijskaya-besednizza111/","is_closed":false,"coords":{"lat":50.43353499999995,"lon":30.51530300000001},"is_stub":false},"description":"<p>По воскресеньям в БеседниZzе говорят по-английски: куда лучше поехать, что посмотреть, и как сделать путешествие максимально интересным. Присоединяйтесь!</p>\n","categories":["meeting","education"],"age_restriction":null,"price":"оплата времени в антикафе: первый час — 25 гривен, все последующие — 20 гривен","is_free":false,"images":[{"image":"https://kudago.com/media/images/event/1e/07/1e0740b017ac59dd99157e96cfdd9d50.jpg","thumbnails":{"640x384":"https://kudago.com/media/thumbs/640x384/images/event/1e/07/1e0740b017ac59dd99157e96cfdd9d50.jpg","144x96":"https://kudago.com/media/thumbs/144x96/images/event/1e/07/1e0740b017ac59dd99157e96cfdd9d50.jpg"},"source":{"name":"maidan.besednizza.com","link":"http://maidan.besednizza.com/%E2%9D%A4%E2%9D%A42203-vstrechi-razgovornogo-kluba-travel-club-kiev/"}}],"favorites_count":18,"comments_count":4,"short_title":"Travel club Kiev"}]}