{"count":35,"next":"https://kudago.com/public-api/v1.4/events/?actual_since=1567271076.936&expand=place%2Cimages&fields=id%2Ctitle%2Cslug%2Cprice%2Ccategories%2Cimages%2Cis_free%2Cshort_title%2Cdates%2Cdescription%2Cfavorites_count%2Ccomments_count%2Cage_restriction%2Cplace&location=nsk&page=2&page_size=5","previous":null,"results":[{"id":126014,"dates":[{"start":1467309600,"end":1475427600},{"start":1549944000,"end":1557669600},{"start":1562918400,"end":1570892400},{"start":-62135433000,"end":1535821200},{"start":-62135433000,"end":1548608400}],"title":"выставка «Шедевры импрессионизма. Том 1. Винсент Ван Гог. Легенды и реальность. Эдуард Мане. Истоки импрессионизма»","slug":"vystavka-shedevry-impressionizma-tom-1-vinsent-van","place":{"id":32250,"title":"Галерея мультимедийных выставок «Мольберт. Другие выставки»","slug":"galereya-molbert","address":"ул. Орджоникидзе, д. 27","phone":"","subway":"Площадь Ленина","location":"nsk","site_url":"https://kudago.com/nsk/place/galereya-molbert/","is_closed":false,"coords":{"lat":55.03136920000018,"lon":82.92307489999976},"is_stub":true},"description":"<p>Галерея «Мольберт. Другие выставки» принимает в своих стенах уникальную мультимедийную выставку, где будет представлено более 150 работ двух великих импрессионистов.</p>\n","categories":["exhibition","show"],"age_restriction":"12+","price":"300 рублей","is_free":false,"images":[{"image":"https://kudago.com/media/images/event/e0/c9/e0c9fa0b717775e4319439d694cf71fd.jpg","thumbnails":{"640x384":"https://kudago.com/media/thumbs/640x384/images/event/e0/c9/e0c9fa0b717775e4319439d694cf71fd.jpg","144x96":"https://kudago.com/media/thumbs/144x96/images/event/e0/c9/e0c9fa0b717775e4319439d694cf71fd.jpg"},"source":{"name":"","link":""}},{"image":"https://kudago.com/media/images/event/d9/19/d9197f80224d549877ec5fa494fb5f80.jpg","thumbnails":{"640x384":"https://kudago.com/media/thumbs/640x384/images/event/d9/19/d9197f80224d549877ec5fa494fb5f80.jpg","144x96":"https://kudago.com/media/thumbs/144x96/images/event/d9/19/d9197f80224d549877ec5fa494fb5f80.jpg"},"source":{"name":"","link":""}},{"image":"https://kudago.com/media/images/event/39/8f/398f24767b350ad41036cd677fcc2397.jpg","thumbnails":{"640x384":"https://kudago.com/media/thumbs/640x384/images/event/39/8f/398f24767b350ad41036cd677fcc2397.jpg","144x96":"https://kudago.com/media/thumbs/144x96/images/event/39/8f/398f24767b350ad41036cd677fcc2397.jpg"},"source":{"name":"","link":""}},{"image":"https://kudago.com/media/images/event/84/52/845285498ab060083d26f8ebfe59ad66.jpg","thumbnails":{"640x384":"https://kudago.com/media/thumbs/640x384/images/event/84/52/845285498ab060083d26f8ebfe59ad66.jpg","144x96":"https://kudago.com/media/thumbs/144x96/images/event/84/52/845285498ab060083d26f8ebfe59ad66.jpg"},"source":{"name":"","link":""}},{"image":"https://kudago.com/media/images/event/a3/0a/a30ae142f6a5fa9a367b4f1819eace5a.jpg","thumbnails":{"640x384":"https://kudago.com/media/thumbs/640x384/images/event/a3/0a/a30ae142f6a5fa9a367b4f1819eace5a.jpg","144x96":"https://kudago.com/media/thumbs/144x96/images/event/a3/0a/a30ae142f6a5fa9a367b4f1819eace5a.jpg"},"source":{"name":"","link":""}},{"image":"https://kudago.com/media/images/event/8a/82/8a8239f2972640f11bae819c641eb5df.jpg","thumbnails":{"640x384":"https://kudago.com/media/thumbs/640x384/images/event/8a/82/8a8239f2972640f11bae819c641eb5df.jpg","144x96":"https://kudago.com/media/thumbs/144x96/images/event/8a/82/8a8239f2972640f11bae819c641eb5df.jpg"},"source":{"name":"","link":""}},{"image":"https://kudago.com/media/images/event/cd/fe/cdfed768e4cdc6303410ac8281c879cf.jpg","thumbnails":{"640x384":"https://kudago.com/media/thumbs/640x384/images/event/cd/fe/cdfed768e4cdc6303410ac8281c879cf.jpg","144x96":"https://kudago.com/media/thumbs/144x96/images/event/cd/fe/cdfed768e4cdc6303410ac8281c879cf.jpg"},"source":{"name":"","link":""}},{"image":"https://kudago.com/media/images/event/11/83/1183aff7903f0508937e9e871caff93f.jpg","thumbnails":{"640x384":"https://kudago.com/media/thumbs/640x384/images/event/11/83/1183aff7903f0508937e9e871caff93f.jpg","144x96":"https://kudago.com/media/thumbs/144x96/images/event/11/83/1183aff7903f0508937e9e871caff93f.jpg"},"source":{"name":"","link":""}},{"image":"https://kudago.com/media/images/event/d9/3e/d93ecae00fa3eb97c8e12eef1e2fe0f8.jpg","thumbnails":{"640x384":"https://kudago.com/media/thumbs/640x384/images/event/d9/3e/d93ecae00fa3eb97c8e12eef1e2fe0f8.jpg","144x96":"https://kudago.com/media/thumbs/144x96/images/event/d9/3e/d93ecae00fa3eb97c8e12eef1e2fe0f8.jpg"},"source":{"name":"","link":""}},{"image":"https://kudago.com/media/images/event/c1/1a/c11a9c05fc67c2789f27832d5217c117.jpg","thumbnails":{"640x384":"https://kudago.com/media/thumbs/640x384/images/event/c1/1a/c11a9c05fc67c2789f27832d5217c117.jpg","144x96":"https://kudago.com/media/thumbs/144x96/images/event/c1/1a/c11a9c05fc67c2789f27832d5217c117.jpg"},"source":{"name":"","link":""}},{"image":"https://kudago.com/media/images/event/36/39/36392cb682ae2bfd9bb77e4e1cc31aa2.jpg","thumbnails":{"640x384":"https://kudago.com/media/thumbs/640x384/images/event/36/39/36392cb682ae2bfd9bb77e4e1cc31aa2.jpg","144x96":"https://kudago.com/media/thumbs/144x96/images/event/36/39/36392cb682ae2bfd9bb77e4e1cc31aa2.jpg"},"source":{"name":"","link":""}},{"image":"https://kudago.com/media/images/event/15/90/1590eef9de4d668447decdf5a65a61d1.jpg","thumbnails":{"640x384":"https://kudago.com/media/thumbs/640x384/images/event/15/90/1590eef9de4d668447decdf5a65a61d1.jpg","144x96":"https://kudago.com/media/thumbs/144x96/images/event/15/90/1590eef9de4d668447decdf5a65a61d1.jpg"},"source":{"name":"","link":""}}],"favorites_count":27,"comments_count":1,"short_title":"Шедевры импрессионизма. Том 1. Винсент Ван Гог"},{"id":181387,"dates":[{"start":1562950800,"end":1570986000}],"title":"выставка «Лувр при свечах»","slug":"vyistavka-luvr-pri-svechah","place":{"id":32250,"title":"Галерея мультимедийных выставок «Мольберт. Другие выставки»","slug":"galereya-molbert","address":"ул. Орджоникидзе, д. 27","phone":"","subway":"Площадь Ленина","location":"nsk","site_url":"https://kudago.com/nsk/place/galereya-molbert/","is_closed":false,"coords":{"lat":55.03136920000018,"lon":82.92307489999976},"is_stub":true},"description":"<p>Рафаэль Санти, Леонардо да Винчи, Тициан, Караваджо, Питер Пауль Рубенс — в новой новосибирской галерее показывают копии шедевров мировой живописи из коллекции Лувра. Поднесите свечу к той или иной картине, чтобы услышать увлекательный рассказ об истории её создания!</p>","categories":["exhibition","education"],"age_restriction":"12+","price":"от 250 до 300 рублей","is_free":false,"images":[{"image":"https://kudago.com/media/images/event/4e/49/4e49470b4b15983da3418e51be218ba6.jpg","thumbnails":{"640x384":"https://kudago.com/media/thumbs/640x384/images/event/4e/49/4e49470b4b15983da3418e51be218ba6.jpg","144x96":"https://kudago.com/media/thumbs/144x96/images/event/4e/49/4e49470b4b15983da3418e51be218ba6.jpg"},"source":{"name":"","link":""}},{"image":"https://kudago.com/media/images/event/e2/9f/e29fc28070afe5e3e2bc1af6658d991c.jpg","thumbnails":{"640x384":"https://kudago.com/media/thumbs/640x384/images/event/e2/9f/e29fc28070afe5e3e2bc1af6658d991c.jpg","144x96":"https://kudago.com/media/thumbs/144x96/images/event/e2/9f/e29fc28070afe5e3e2bc1af6658d991c.jpg"},"source":{"name":"","link":""}},{"image":"https://kudago.com/media/images/event/9d/5b/9d5bd545a60fe97ac3fcd5277d97bbd6.jpg","thumbnails":{"640x384":"https://kudago.com/media/thumbs/640x384/images/event/9d/5b/9d5bd545a60fe97ac3fcd5277d97bbd6.jpg","144x96":"https://kudago.com/media/thumbs/144x96/images/event/9d/5b/9d5bd545a60fe97ac3fcd5277d97bbd6.jpg"},"source":{"name":"","link":""}},{"image":"https://kudago.com/media/images/event/80/b8/80b8c548360237b007f00bb85dae22ea.jpg","thumbnails":{"640x384":"https://kudago.com/media/thumbs/640x384/images/event/80/b8/80b8c548360237b007f00bb85dae22ea.jpg","144x96":"https://kudago.com/media/thumbs/144x96/images/event/80/b8/80b8c548360237b007f00bb85dae22ea.jpg"},"source":{"name":"","link":""}},{"image":"https://kudago.com/media/images/event/7d/ad/7dad3449695189fc71da23040e1d3545.jpg","thumbnails":{"640x384":"https://kudago.com/media/thumbs/640x384/images/event/7d/ad/7dad3449695189fc71da23040e1d3545.jpg","144x96":"https://kudago.com/media/thumbs/144x96/images/event/7d/ad/7dad3449695189fc71da23040e1d3545.jpg"},"source":{"name":"","link":""}},{"image":"https://kudago.com/media/images/event/08/a5/08a5f2f43cc42b0e22cc9ee30ac18ad9.jpg","thumbnails":{"640x384":"https://kudago.com/media/thumbs/640x384/images/event/08/a5/08a5f2f43cc42b0e22cc9ee30ac18ad9.jpg","144x96":"https://kudago.com/media/thumbs/144x96/images/event/08/a5/08a5f2f43cc42b0e22cc9ee30ac18ad9.jpg"},"source":{"name":"","link":""}},{"image":"https://kudago.com/media/images/event/13/bb/13bb0bbd3969327f0c79888355272527.jpg","thumbnails":{"640x384":"https://kudago.com/media/thumbs/640x384/images/event/13/bb/13bb0bbd3969327f0c79888355272527.jpg","144x96":"https://kudago.com/media/thumbs/144x96/images/event/13/bb/13bb0bbd3969327f0c79888355272527.jpg"},"source":{"name":"","link":""}},{"image":"https://kudago.com/media/images/event/b7/b3/b7b3f8e92f6428df8221f14a67c9b51a.jpg","thumbnails":{"640x384":"https://kudago.com/media/thumbs/640x384/images/event/b7/b3/b7b3f8e92f6428df8221f14a67c9b51a.jpg","144x96":"https://kudago.com/media/thumbs/144x96/images/event/b7/b3/b7b3f8e92f6428df8221f14a67c9b51a.jpg"},"source":{"name":"","link":""}},{"image":"https://kudago.com/media/images/event/d9/43/d9435c23eb39a637899efd85ed54ed73.jpg","thumbnails":{"640x384":"https://kudago.com/media/thumbs/640x384/images/event/d9/43/d9435c23eb39a637899efd85ed54ed73.jpg","144x96":"https://kudago.com/media/thumbs/144x96/images/event/d9/43/d9435c23eb39a637899efd85ed54ed73.jpg"},"source":{"name":"","link":""}},{"image":"https://kudago.com/media/images/event/55/5b/555b08c57a951b562a3b70d9d8f406b7.jpg","thumbnails":{"640x384":"https://kudago.com/media/thumbs/640x384/images/event/55/5b/555b08c57a951b562a3b70d9d8f406b7.jpg","144x96":"https://kudago.com/media/thumbs/144x96/images/event/55/5b/555b08c57a951b562a3b70d9d8f406b7.jpg"},"source":{"name":"","link":""}},{"image":"https://kudago.com/media/images/event/c8/82/c8820f541abee4cd877c4abb7fda5723.jpg","thumbnails":{"640x384":"https://kudago.com/media/thumbs/640x384/images/event/c8/82/c8820f541abee4cd877c4abb7fda5723.jpg","144x96":"https://kudago.com/media/thumbs/144x96/images/event/c8/82/c8820f541abee4cd877c4abb7fda5723.jpg"},"source":{"name":"","link":""}},{"image":"https://kudago.com/media/images/event/c3/b9/c3b969706a31fd3ddf7ef79d4b457c0f.jpg","thumbnails":{"640x384":"https://kudago.com/media/thumbs/640x384/images/event/c3/b9/c3b969706a31fd3ddf7ef79d4b457c0f.jpg","144x96":"https://kudago.com/media/thumbs/144x96/images/event/c3/b9/c3b969706a31fd3ddf7ef79d4b457c0f.jpg"},"source":{"name":"","link":""}}],"favorites_count":0,"comments_count":0,"short_title":"Лувр при свечах"},{"id":132112,"dates":[{"start":1474038000,"end":1474038000},{"start":1474729200,"end":1474729200},{"start":-62135433000,"end":253370754000}],"title":"киноночь в антикафе Fun-Time","slug":"umnaya-kinonoch","place":{"id":18522,"title":"антикафе Fun-Time","slug":"antikafe-fontan","address":"ул. Державина, д. 1.","phone":"+7 913 208-69-98","subway":"","location":"nsk","site_url":"https://kudago.com/nsk/place/antikafe-fontan/","is_closed":false,"coords":{"lat":55.03838199999998,"lon":82.915291},"is_stub":false},"description":"<p>Всех, кому не спится по ночам, ждёт ночной кинопоказ лучших интеллектуальных фильмов, которые можно будет посмотреть в уютной и расслабленной атмосфере антикафе. Пуфы, пледы, чай и кофе с печеньем, настольные игры и классика мирового кинематографа помогут провести ночь с пользой для ума и с удовольствием для души.</p>\n","categories":["meeting","cinema"],"age_restriction":"18+","price":"300 рублей","is_free":false,"images":[{"image":"https://kudago.com/media/images/event/b4/18/b4184ed36ee3ffff7660a128c5f1757b.jpg","thumbnails":{"640x384":"https://kudago.com/media/thumbs/640x384/images/event/b4/18/b4184ed36ee3ffff7660a128c5f1757b.jpg","144x96":"https://kudago.com/media/thumbs/144x96/images/event/b4/18/b4184ed36ee3ffff7660a128c5f1757b.jpg"},"source":{"name":"taintedinocorporation.tumblr.com","link":"http://taintedinocorporation.tumblr.com/post/139464865833/%D0%BA%D0%B8%D0%BD%D0%BE-%D0%B4%D0%B5%D0%B2%D1%83%D1%88%D0%BA%D0%B0-1"}},{"image":"https://kudago.com/media/images/event/2e/d2/2ed219dad127b8bd83f7fa7878432105.jpg","thumbnails":{"640x384":"https://kudago.com/media/thumbs/640x384/images/event/2e/d2/2ed219dad127b8bd83f7fa7878432105.jpg","144x96":"https://kudago.com/media/thumbs/144x96/images/event/2e/d2/2ed219dad127b8bd83f7fa7878432105.jpg"},"source":{"name":"pix.co.ua","link":"http://pix.co.ua/wallpapers/260"}},{"image":"https://kudago.com/media/images/event/66/db/66db3a21139cd4ba0db1955486e36994.jpg","thumbnails":{"640x384":"https://kudago.com/media/thumbs/640x384/images/event/66/db/66db3a21139cd4ba0db1955486e36994.jpg","144x96":"https://kudago.com/media/thumbs/144x96/images/event/66/db/66db3a21139cd4ba0db1955486e36994.jpg"},"source":{"name":"kinozon.tv","link":"http://kinozon.tv/stop_kadry/500"}},{"image":"https://kudago.com/media/images/event/43/2a/432a1112a53a2a20f23cbd46f59cbaa7.jpg","thumbnails":{"640x384":"https://kudago.com/media/thumbs/640x384/images/event/43/2a/432a1112a53a2a20f23cbd46f59cbaa7.jpg","144x96":"https://kudago.com/media/thumbs/144x96/images/event/43/2a/432a1112a53a2a20f23cbd46f59cbaa7.jpg"},"source":{"name":"imdb.com","link":"http://www.imdb.com/anniversary/iconic-movie-quotes?pf_rd_m=A2FGELUUNOQJNL&pf_rd_p=2229689582&pf_rd_r=1SCEX8ZZM4G8GADV00VZ&pf_rd_s=center-1&pf_rd_t=15061&pf_rd_i=homepage&pf_rd_m=A2FGELUUNOQJNL&pf_rd_"}},{"image":"https://kudago.com/media/images/event/db/38/db3890732344f804c86dab682136c650.jpg","thumbnails":{"640x384":"https://kudago.com/media/thumbs/640x384/images/event/db/38/db3890732344f804c86dab682136c650.jpg","144x96":"https://kudago.com/media/thumbs/144x96/images/event/db/38/db3890732344f804c86dab682136c650.jpg"},"source":{"name":"dts21.ru","link":"http://dts21.ru/page/2ddf6-filqm-nachalo-s-leonardo-di-kaprio-skachatq-torrent/"}}],"favorites_count":34,"comments_count":1,"short_title":"Киноночь"},{"id":124718,"dates":[{"start":-62135443920,"end":253370743200}],"title":"беззвучная выставка-квест «Тишина»","slug":"neslyshimaya-vystavka-kvest-tishina","place":{"id":21003,"title":"площадка невизуального восприятия «Темнота»","slug":"ploshadka-nevizualnogo-vospriyatiya-temnota","address":"ул. Дмитрия Шамшурина, д. 20","phone":"+7 383 214-25-19","subway":"","location":"nsk","site_url":"https://kudago.com/nsk/place/ploshadka-nevizualnogo-vospriyatiya-temnota/","is_closed":false,"coords":{"lat":55.03874299999998,"lon":82.92034899999993},"is_stub":false},"description":"<p>Участникам проекта предстоит совершить путешествие в мир абсолютной тишины.</p>\n","categories":["exhibition","games"],"age_restriction":"12+","price":"от 0 до 300 рублей","is_free":false,"images":[{"image":"https://kudago.com/media/images/event/6b/0c/6b0c4a4d0c436b2ccbd2ec5b964fe543.PNG","thumbnails":{"640x384":"https://kudago.com/media/thumbs/640x384/images/event/6b/0c/6b0c4a4d0c436b2ccbd2ec5b964fe543.PNG","144x96":"https://kudago.com/media/thumbs/144x96/images/event/6b/0c/6b0c4a4d0c436b2ccbd2ec5b964fe543.PNG"},"source":{"name":"youthkiawaaz.com","link":"http://www.youthkiawaaz.com/2015/10/youth-speak-freedom-of-speech/"}},{"image":"https://kudago.com/media/images/event/86/42/8642dd8c5cf2d8ef75d202956353c64c.jpg","thumbnails":{"640x384":"https://kudago.com/media/thumbs/640x384/images/event/86/42/8642dd8c5cf2d8ef75d202956353c64c.jpg","144x96":"https://kudago.com/media/thumbs/144x96/images/event/86/42/8642dd8c5cf2d8ef75d202956353c64c.jpg"},"source":{"name":"alau.kz","link":"http://alau.kz/page/435/?filter_by=featured"}},{"image":"https://kudago.com/media/images/event/55/11/551107df018f0c172fec98ffd78e5df5.PNG","thumbnails":{"640x384":"https://kudago.com/media/thumbs/640x384/images/event/55/11/551107df018f0c172fec98ffd78e5df5.PNG","144x96":"https://kudago.com/media/thumbs/144x96/images/event/55/11/551107df018f0c172fec98ffd78e5df5.PNG"},"source":{"name":"holcad.org","link":"http://holcad.org/columns/the-power-of-silence/"}},{"image":"https://kudago.com/media/images/event/52/4a/524a2b637b035ed262ceebc59667da15.jpg","thumbnails":{"640x384":"https://kudago.com/media/thumbs/640x384/images/event/52/4a/524a2b637b035ed262ceebc59667da15.jpg","144x96":"https://kudago.com/media/thumbs/144x96/images/event/52/4a/524a2b637b035ed262ceebc59667da15.jpg"},"source":{"name":"217.12.203.235","link":"http://217.12.203.235/dievushka-zakryla-ushi.html"}}],"favorites_count":28,"comments_count":2,"short_title":"Тишина"},{"id":156883,"dates":[{"start":-62135433000,"end":253370754000}],"title":"кинопоказы в клубе «Кинцо»","slug":"kino-kinopokazyi-v-klube-kintso","place":{"id":30197,"title":"лофт-парк «Подземка»","slug":"art-prostranstvo-podzemka","address":"Красный Проспект, д. 161","phone":"","subway":"","location":"nsk","site_url":"https://kudago.com/nsk/place/art-prostranstvo-podzemka/","is_closed":false,"coords":{"lat":55.0617736999999,"lon":82.91135549999996},"is_stub":true},"description":"<p>Никаких голливудских блокбастеров и российских комедий — только умное и интересное кино для ценителей настоящего искусства.</p>\n","categories":["cinema","show"],"age_restriction":"16+","price":"","is_free":true,"images":[{"image":"https://kudago.com/media/images/event/cd/9b/cd9bdadd7dbbde3546c7d6270689e4ab.jpg","thumbnails":{"640x384":"https://kudago.com/media/thumbs/640x384/images/event/cd/9b/cd9bdadd7dbbde3546c7d6270689e4ab.jpg","144x96":"https://kudago.com/media/thumbs/144x96/images/event/cd/9b/cd9bdadd7dbbde3546c7d6270689e4ab.jpg"},"source":{"name":"vk.com","link":"https://vk.com/podzemkansk1"}},{"image":"https://kudago.com/media/images/event/45/3c/453cb44425bcc99bfe813f6f348dc90b.jpg","thumbnails":{"640x384":"https://kudago.com/media/thumbs/640x384/images/event/45/3c/453cb44425bcc99bfe813f6f348dc90b.jpg","144x96":"https://kudago.com/media/thumbs/144x96/images/event/45/3c/453cb44425bcc99bfe813f6f348dc90b.jpg"},"source":{"name":"vk.com","link":"https://vk.com/podzemkansk1"}},{"image":"https://kudago.com/media/images/event/c9/44/c944de141ecbf476d188f3c82f78b1da.jpg","thumbnails":{"640x384":"https://kudago.com/media/thumbs/640x384/images/event/c9/44/c944de141ecbf476d188f3c82f78b1da.jpg","144x96":"https://kudago.com/media/thumbs/144x96/images/event/c9/44/c944de141ecbf476d188f3c82f78b1da.jpg"},"source":{"name":"vk.com","link":"https://vk.com/podzemkansk1"}}],"favorites_count":23,"comments_count":3,"short_title":"Кинопоказы в клубе «Кинцо»"}]}