{"count":23,"next":"https://kudago.com/public-api/v1.4/events/?actual_since=1551574478.372&expand=place%2Cimages&fields=id%2Ctitle%2Cslug%2Cprice%2Ccategories%2Cimages%2Cis_free%2Cshort_title%2Cdates%2Cdescription%2Cfavorites_count%2Ccomments_count%2Cage_restriction%2Cplace&is_free=false&location=nnv&page=2&page_size=12","previous":null,"results":[{"id":131262,"dates":[{"start":-62135433000,"end":253370754000}],"title":"«Мафия» в «Циферблате»","slug":"mafiya-v-ciferblate","place":{"id":1320,"title":"Свободное пространство «Циферблат» в Нижнем Новгороде","slug":"svobodnoe-prostranstvo-ciferblat-v-nizhnem-novgoro","address":"ул. Ковалихинская, 4а","phone":"+7 920 073-05-63","subway":"Горьковская","location":"nnv","site_url":"https://kudago.com/nnv/place/svobodnoe-prostranstvo-ciferblat-v-nizhnem-novgoro/","is_closed":false,"coords":{"lat":56.32359199999999,"lon":44.011107},"is_stub":false},"description":"<p>Хитрость и проницательность, дерзкий блеф и коварные замыслы, запутанные интриги и холодный расчёт, логика, везение и необычные ситуации — всё это «Мафия», любимейшая салонная игра последних десятилетий и просто прекрасный повод собраться компанией, поиграть и от души повеселиться.</p>\n","categories":["games"],"age_restriction":"14+","price":"2 рубля в минуту","is_free":false,"images":[{"image":"https://kudago.com/media/images/event/e6/60/e66050e73a413c9a1a67ead0ae87eef8.jpg","thumbnails":{"640x384":"https://kudago.com/media/thumbs/640x384/images/event/e6/60/e66050e73a413c9a1a67ead0ae87eef8.jpg","144x96":"https://kudago.com/media/thumbs/144x96/images/event/e6/60/e66050e73a413c9a1a67ead0ae87eef8.jpg"},"source":{"name":"catalog-chess.ru","link":"http://catalog-chess.ru/index.php?route=information/news&news_id=4"}},{"image":"https://kudago.com/media/images/event/c3/f9/c3f95a0c8ec620f0201f16c09fdc24d0.jpg","thumbnails":{"640x384":"https://kudago.com/media/thumbs/640x384/images/event/c3/f9/c3f95a0c8ec620f0201f16c09fdc24d0.jpg","144x96":"https://kudago.com/media/thumbs/144x96/images/event/c3/f9/c3f95a0c8ec620f0201f16c09fdc24d0.jpg"},"source":{"name":"prokhv.ru","link":"http://prokhv.ru/articles/mafia/"}},{"image":"https://kudago.com/media/images/event/94/39/943966a28a0db35b7378c46abab5692b.jpg","thumbnails":{"640x384":"https://kudago.com/media/thumbs/640x384/images/event/94/39/943966a28a0db35b7378c46abab5692b.jpg","144x96":"https://kudago.com/media/thumbs/144x96/images/event/94/39/943966a28a0db35b7378c46abab5692b.jpg"},"source":{"name":"nibler.ru","link":"http://nibler.ru/pics/26312-mafiya.html"}}],"favorites_count":15,"comments_count":0,"short_title":"Мафия"},{"id":131229,"dates":[{"start":-62135433000,"end":253370754000}],"title":"английский разговорный клуб","slug":"anglijskij-razgovornyj-klub-nizhniynov","place":{"id":1320,"title":"Свободное пространство «Циферблат» в Нижнем Новгороде","slug":"svobodnoe-prostranstvo-ciferblat-v-nizhnem-novgoro","address":"ул. Ковалихинская, 4а","phone":"+7 920 073-05-63","subway":"Горьковская","location":"nnv","site_url":"https://kudago.com/nnv/place/svobodnoe-prostranstvo-ciferblat-v-nizhnem-novgoro/","is_closed":false,"coords":{"lat":56.32359199999999,"lon":44.011107},"is_stub":false},"description":"<p>На встречах разговорного клуба нижегородцы смогут подтянуть свой английский, поближе познакомиться с английской грамматикой, пообщаться с носителями языка и просто приятно провести время в компании единомышленников.</p>\n","categories":["education"],"age_restriction":"12+","price":"2 рубля в минуту","is_free":false,"images":[{"image":"https://kudago.com/media/images/event/2f/37/2f372db06481b136d169d22594daa26c.jpg","thumbnails":{"640x384":"https://kudago.com/media/thumbs/640x384/images/event/2f/37/2f372db06481b136d169d22594daa26c.jpg","144x96":"https://kudago.com/media/thumbs/144x96/images/event/2f/37/2f372db06481b136d169d22594daa26c.jpg"},"source":{"name":"vk.com","link":"https://vk.com/escnn"}},{"image":"https://kudago.com/media/images/event/52/5f/525ffd37ad528fd0b3954459fb6e63ef.jpg","thumbnails":{"640x384":"https://kudago.com/media/thumbs/640x384/images/event/52/5f/525ffd37ad528fd0b3954459fb6e63ef.jpg","144x96":"https://kudago.com/media/thumbs/144x96/images/event/52/5f/525ffd37ad528fd0b3954459fb6e63ef.jpg"},"source":{"name":"vk.com","link":"https://vk.com/escnn"}},{"image":"https://kudago.com/media/images/event/8c/69/8c690d22e02b174f8e2f296ccb848371.jpg","thumbnails":{"640x384":"https://kudago.com/media/thumbs/640x384/images/event/8c/69/8c690d22e02b174f8e2f296ccb848371.jpg","144x96":"https://kudago.com/media/thumbs/144x96/images/event/8c/69/8c690d22e02b174f8e2f296ccb848371.jpg"},"source":{"name":"vk.com","link":"https://vk.com/escnn"}},{"image":"https://kudago.com/media/images/event/97/db/97db579088170ef01a45512676d81e4f.jpg","thumbnails":{"640x384":"https://kudago.com/media/thumbs/640x384/images/event/97/db/97db579088170ef01a45512676d81e4f.jpg","144x96":"https://kudago.com/media/thumbs/144x96/images/event/97/db/97db579088170ef01a45512676d81e4f.jpg"},"source":{"name":"vk.com","link":"https://vk.com/escnn"}},{"image":"https://kudago.com/media/images/event/ac/69/ac69b4854e9eb513ca3a189acb9594b3.jpg","thumbnails":{"640x384":"https://kudago.com/media/thumbs/640x384/images/event/ac/69/ac69b4854e9eb513ca3a189acb9594b3.jpg","144x96":"https://kudago.com/media/thumbs/144x96/images/event/ac/69/ac69b4854e9eb513ca3a189acb9594b3.jpg"},"source":{"name":"vk.com","link":"https://vk.com/escnn"}},{"image":"https://kudago.com/media/images/event/e4/98/e4983e9a1e83d663e1b259b5a0d47142.jpg","thumbnails":{"640x384":"https://kudago.com/media/thumbs/640x384/images/event/e4/98/e4983e9a1e83d663e1b259b5a0d47142.jpg","144x96":"https://kudago.com/media/thumbs/144x96/images/event/e4/98/e4983e9a1e83d663e1b259b5a0d47142.jpg"},"source":{"name":"vk.com","link":"https://vk.com/escnn"}}],"favorites_count":2,"comments_count":0,"short_title":"Английский разговорный клуб"},{"id":70425,"dates":[{"start":-62135433000,"end":253370754000}],"title":"выставка «Особая кладовая»","slug":"vystavka-osobaya-kladovaya","place":{"id":4193,"title":"Усадьба Рукавишниковых","slug":"usadba-rukavishnikovyh","address":"Верхне-Волжская наб., д.7","phone":"+7 831 422-10-57, +7 831 422-10-90","subway":"Горьковская","location":"nnv","site_url":"https://kudago.com/nnv/place/usadba-rukavishnikovyh/","is_closed":false,"coords":{"lat":56.32930699999998,"lon":44.015985},"is_stub":false},"description":"","categories":["exhibition","permanent-exhibitions"],"age_restriction":"12+","price":"300 рублей, льготный — 150 рублей","is_free":false,"images":[{"image":"https://kudago.com/media/images/event/47/f7/47f71bfeb55bcdcadfbd4930653f04c3.jpg","thumbnails":{"640x384":"https://kudago.com/media/thumbs/640x384/images/event/47/f7/47f71bfeb55bcdcadfbd4930653f04c3.jpg","144x96":"https://kudago.com/media/thumbs/144x96/images/event/47/f7/47f71bfeb55bcdcadfbd4930653f04c3.jpg"},"source":{"name":"ngiamz.ru","link":"http://www.ngiamz.ru/filialy/usadba-rukavishnikovykh/usadba-ekspozitsii-i-vystavki/109-usadba-vystavka-osobaya-kladovaya.html"}},{"image":"https://kudago.com/media/images/event/7c/a1/7ca1e4d69e015b4711efa016dedece8d.jpg","thumbnails":{"640x384":"https://kudago.com/media/thumbs/640x384/images/event/7c/a1/7ca1e4d69e015b4711efa016dedece8d.jpg","144x96":"https://kudago.com/media/thumbs/144x96/images/event/7c/a1/7ca1e4d69e015b4711efa016dedece8d.jpg"},"source":{"name":"ngiamz.ru","link":"http://www.ngiamz.ru/filialy/usadba-rukavishnikovykh/usadba-ekspozitsii-i-vystavki/109-usadba-vystavka-osobaya-kladovaya.html"}},{"image":"https://kudago.com/media/images/event/7b/64/7b649dd9b1ed03421189592cf6fa690d.jpg","thumbnails":{"640x384":"https://kudago.com/media/thumbs/640x384/images/event/7b/64/7b649dd9b1ed03421189592cf6fa690d.jpg","144x96":"https://kudago.com/media/thumbs/144x96/images/event/7b/64/7b649dd9b1ed03421189592cf6fa690d.jpg"},"source":{"name":"ngiamz.ru","link":"http://www.ngiamz.ru/filialy/usadba-rukavishnikovykh/usadba-ekspozitsii-i-vystavki/109-usadba-vystavka-osobaya-kladovaya.html"}}],"favorites_count":15,"comments_count":0,"short_title":"Особая кладовая"},{"id":75799,"dates":[{"start":-62135433000,"end":253370754000}],"title":"экспозиция русского искусства XIV–XX вв.","slug":"ekspoziciya-russkogo-iskusstva-xivxx-vv","place":{"id":4147,"title":"Нижегородский государственный художественный музей","slug":"nizhegorodskij-hudozhestvennyj-muzey","address":"Кремль, корпус 3","phone":"+7 831 439-13-73","subway":"Горьковская","location":"nnv","site_url":"https://kudago.com/nnv/place/nizhegorodskij-hudozhestvennyj-muzey/","is_closed":false,"coords":{"lat":56.32947199999986,"lon":44.006391},"is_stub":false},"description":"<p>Живопись, скульптура, иконопись, графика и другие виды изобразительного искусства в представленные периоды развития национальной культуры: от древнерусских памятников до работ отечественных художников и современных мастеров.</p>\n","categories":["exhibition","permanent-exhibitions"],"age_restriction":null,"price":"от 70 до 120 рублей","is_free":false,"images":[{"image":"https://kudago.com/media/images/event/80/54/80541cb668b7f40b502cada498324c6b.jpg","thumbnails":{"640x384":"https://kudago.com/media/thumbs/640x384/images/event/80/54/80541cb668b7f40b502cada498324c6b.jpg","144x96":"https://kudago.com/media/thumbs/144x96/images/event/80/54/80541cb668b7f40b502cada498324c6b.jpg"},"source":{"name":"liveinternet.ru","link":"http://www.liveinternet.ru/journalshowcomments.php?jpostid=284052125&journalid=4922396&go=prev&categ=1"}}],"favorites_count":48,"comments_count":0,"short_title":"экспозиция русского искусства XIV–XX вв."},{"id":73167,"dates":[{"start":-62135433000,"end":253370754000}],"title":"выставка  «История и развитие ОАО ГАЗ»","slug":"vystavka-istoriya-i-razvitie-oao-gaz","place":{"id":19256,"title":"Музей истории Горьковского автозавода","slug":"muzej-istorii-oao-gaz","address":"пр. Ленина, д. 95.","phone":"+7 831 290-92-50","subway":"","location":"nnv","site_url":"https://kudago.com/nnv/place/muzej-istorii-oao-gaz/","is_closed":false,"coords":{"lat":56.25472699999997,"lon":43.89316699999998},"is_stub":false},"description":"","categories":["exhibition"],"age_restriction":null,"price":"от 50 до 100 рублей","is_free":false,"images":[{"image":"https://kudago.com/media/images/event/e5/82/e582f6e450ddc7ce722f0ce95c379feb.jpg","thumbnails":{"640x384":"https://kudago.com/media/thumbs/640x384/images/event/e5/82/e582f6e450ddc7ce722f0ce95c379feb.jpg","144x96":"https://kudago.com/media/thumbs/144x96/images/event/e5/82/e582f6e450ddc7ce722f0ce95c379feb.jpg"},"source":{"name":"drive","link":"https://www.drive2.ru/l/288230376152194601/"}}],"favorites_count":44,"comments_count":3,"short_title":"История и развитие ОАО ГАЗ"},{"id":73281,"dates":[{"start":-62135433000,"end":253370754000}],"title":"выставка «Царственно поставленный город»","slug":"vystavka-carstvenno-postavlennyj-gorod","place":{"id":4193,"title":"Усадьба Рукавишниковых","slug":"usadba-rukavishnikovyh","address":"Верхне-Волжская наб., д.7","phone":"+7 831 422-10-57, +7 831 422-10-90","subway":"Горьковская","location":"nnv","site_url":"https://kudago.com/nnv/place/usadba-rukavishnikovyh/","is_closed":false,"coords":{"lat":56.32930699999998,"lon":44.015985},"is_stub":false},"description":"","categories":["exhibition","permanent-exhibitions"],"age_restriction":null,"price":"уточняется","is_free":false,"images":[{"image":"https://kudago.com/media/images/event/c3/80/c380f1f1c8423439fcb0623e773970ee.jpg","thumbnails":{"640x384":"https://kudago.com/media/thumbs/640x384/images/event/c3/80/c380f1f1c8423439fcb0623e773970ee.jpg","144x96":"https://kudago.com/media/thumbs/144x96/images/event/c3/80/c380f1f1c8423439fcb0623e773970ee.jpg"},"source":{"name":"ngiamz","link":"http://www.ngiamz.ru/filialy/usadba-rukavishnikovykh.html"}}],"favorites_count":21,"comments_count":0,"short_title":"Царственно поставленный город"},{"id":77620,"dates":[{"start":-62135433000,"end":253370754000}],"title":"мастер-класс «Роспись по стеклу»","slug":"master-klass-rospis-po-steklu-nn","place":{"id":19879,"title":"хобби-студия «Теплый ветер»","slug":"hobbi-studiya-teplyj-veter","address":"ул. Большая Покровская, д. 47б.","phone":"+7 831 434-24-68","subway":"","location":"nnv","site_url":"https://kudago.com/nnv/place/hobbi-studiya-teplyj-veter/","is_closed":false,"coords":{"lat":56.31783199999997,"lon":43.99412},"is_stub":false},"description":"<p>Как превратить скучную посуду в произведение искусства, расскажут на мастер-класс в хобби-студии «Теплый ветер».</p>\n","categories":["education"],"age_restriction":null,"price":"750 рублей","is_free":false,"images":[{"image":"https://kudago.com/media/images/event/b2/b3/b2b35eec18610ba4d9170e13029e3a32.jpg","thumbnails":{"640x384":"https://kudago.com/media/thumbs/640x384/images/event/b2/b3/b2b35eec18610ba4d9170e13029e3a32.jpg","144x96":"https://kudago.com/media/thumbs/144x96/images/event/b2/b3/b2b35eec18610ba4d9170e13029e3a32.jpg"},"source":{"name":"","link":""}},{"image":"https://kudago.com/media/images/event/79/42/79429b33b75baa364b4746fc5c5298bb.jpg","thumbnails":{"640x384":"https://kudago.com/media/thumbs/640x384/images/event/79/42/79429b33b75baa364b4746fc5c5298bb.jpg","144x96":"https://kudago.com/media/thumbs/144x96/images/event/79/42/79429b33b75baa364b4746fc5c5298bb.jpg"},"source":{"name":"","link":""}},{"image":"https://kudago.com/media/images/event/d6/b5/d6b530a01823018ee0317bbc5266fe14.jpg","thumbnails":{"640x384":"https://kudago.com/media/thumbs/640x384/images/event/d6/b5/d6b530a01823018ee0317bbc5266fe14.jpg","144x96":"https://kudago.com/media/thumbs/144x96/images/event/d6/b5/d6b530a01823018ee0317bbc5266fe14.jpg"},"source":{"name":"festival-leonardo","link":"http://festival-leonardo.ru/moscow2011/71_itogi_festivalya/"}}],"favorites_count":17,"comments_count":0,"short_title":"Роспись по стеклу"},{"id":70427,"dates":[{"start":-62135433000,"end":253370754000}],"title":"выставка «Игрушечный музей»","slug":"vystavka-igrushechnyj-muzej","place":{"id":4803,"title":"Выставочный зал «Покровка, 8»","slug":"vystavochnyj-zal-pokrovka8","address":"ул. Большая Покровская, д. 8","phone":"+7 831 433-23-79","subway":"","location":"nnv","site_url":"https://kudago.com/nnv/place/vystavochnyj-zal-pokrovka8/","is_closed":false,"coords":{"lat":56.32432099999999,"lon":44.00311199999998},"is_stub":false},"description":"","categories":["kids"],"age_restriction":"6+","price":"70 рублей, льготный — 50 рублей","is_free":false,"images":[{"image":"https://kudago.com/media/images/event/3c/72/3c72b4ba12891859332f72d5e556abb2.jpg","thumbnails":{"640x384":"https://kudago.com/media/thumbs/640x384/images/event/3c/72/3c72b4ba12891859332f72d5e556abb2.jpg","144x96":"https://kudago.com/media/thumbs/144x96/images/event/3c/72/3c72b4ba12891859332f72d5e556abb2.jpg"},"source":{"name":"ngiamz.ru","link":"http://www.ngiamz.ru/filialy/vystavochnyj-zal-pokrovka-8/pokrovka8-ekspozitsii-i-vystavki.html?start=4"}}],"favorites_count":33,"comments_count":2,"short_title":"Игрушечный музей"},{"id":131370,"dates":[{"start":-62135433000,"end":253370754000}],"title":"сказочные субботы для детей и родителей","slug":"skazochnye-subboty-dlya-detej-i-roditelej","place":{"id":1320,"title":"Свободное пространство «Циферблат» в Нижнем Новгороде","slug":"svobodnoe-prostranstvo-ciferblat-v-nizhnem-novgoro","address":"ул. Ковалихинская, 4а","phone":"+7 920 073-05-63","subway":"Горьковская","location":"nnv","site_url":"https://kudago.com/nnv/place/svobodnoe-prostranstvo-ciferblat-v-nizhnem-novgoro/","is_closed":false,"coords":{"lat":56.32359199999999,"lon":44.011107},"is_stub":false},"description":"<p>Здесь читают сказки на русском и английском языках, мастерят своими руками разные интересности, играют, веселятся, общаются и узнают много нового о себе и окружающем нас мире.</p>\n","categories":["meeting","kids","education","games"],"age_restriction":0,"price":"2 рубля в минуту","is_free":false,"images":[{"image":"https://kudago.com/media/images/event/97/1e/971ec8b46ffe53ee2d8ce735a5e1e6b4.jpg","thumbnails":{"640x384":"https://kudago.com/media/thumbs/640x384/images/event/97/1e/971ec8b46ffe53ee2d8ce735a5e1e6b4.jpg","144x96":"https://kudago.com/media/thumbs/144x96/images/event/97/1e/971ec8b46ffe53ee2d8ce735a5e1e6b4.jpg"},"source":{"name":"vk.com","link":"https://vk.com/skazochnye_sybboty"}},{"image":"https://kudago.com/media/images/event/d4/fb/d4fbc6e7f19f02e75cf4e2181784d375.jpg","thumbnails":{"640x384":"https://kudago.com/media/thumbs/640x384/images/event/d4/fb/d4fbc6e7f19f02e75cf4e2181784d375.jpg","144x96":"https://kudago.com/media/thumbs/144x96/images/event/d4/fb/d4fbc6e7f19f02e75cf4e2181784d375.jpg"},"source":{"name":"vk.com","link":"https://vk.com/skazochnye_sybboty"}},{"image":"https://kudago.com/media/images/event/70/e6/70e68e5ed3c6b2e0f51fc1c6bf06d95b.jpg","thumbnails":{"640x384":"https://kudago.com/media/thumbs/640x384/images/event/70/e6/70e68e5ed3c6b2e0f51fc1c6bf06d95b.jpg","144x96":"https://kudago.com/media/thumbs/144x96/images/event/70/e6/70e68e5ed3c6b2e0f51fc1c6bf06d95b.jpg"},"source":{"name":"vk.com","link":"https://vk.com/skazochnye_sybboty"}},{"image":"https://kudago.com/media/images/event/79/08/790829fa8536f41b5932241cdaf670b0.jpg","thumbnails":{"640x384":"https://kudago.com/media/thumbs/640x384/images/event/79/08/790829fa8536f41b5932241cdaf670b0.jpg","144x96":"https://kudago.com/media/thumbs/144x96/images/event/79/08/790829fa8536f41b5932241cdaf670b0.jpg"},"source":{"name":"vk.com","link":"https://vk.com/skazochnye_sybboty"}},{"image":"https://kudago.com/media/images/event/d3/db/d3db87da4a42700172576d0c5e0f5560.jpg","thumbnails":{"640x384":"https://kudago.com/media/thumbs/640x384/images/event/d3/db/d3db87da4a42700172576d0c5e0f5560.jpg","144x96":"https://kudago.com/media/thumbs/144x96/images/event/d3/db/d3db87da4a42700172576d0c5e0f5560.jpg"},"source":{"name":"vk.com","link":"https://vk.com/skazochnye_sybboty"}},{"image":"https://kudago.com/media/images/event/32/5a/325aa5044111475fc0c221711ac45a6b.jpg","thumbnails":{"640x384":"https://kudago.com/media/thumbs/640x384/images/event/32/5a/325aa5044111475fc0c221711ac45a6b.jpg","144x96":"https://kudago.com/media/thumbs/144x96/images/event/32/5a/325aa5044111475fc0c221711ac45a6b.jpg"},"source":{"name":"vk.com","link":"https://vk.com/skazochnye_sybboty"}},{"image":"https://kudago.com/media/images/event/53/5b/535b38f4b8054067dbbcacc15e57c809.jpg","thumbnails":{"640x384":"https://kudago.com/media/thumbs/640x384/images/event/53/5b/535b38f4b8054067dbbcacc15e57c809.jpg","144x96":"https://kudago.com/media/thumbs/144x96/images/event/53/5b/535b38f4b8054067dbbcacc15e57c809.jpg"},"source":{"name":"vk.com","link":"https://vk.com/skazochnye_sybboty"}},{"image":"https://kudago.com/media/images/event/5b/2e/5b2e8e215dde7879f74975813fd03a60.jpg","thumbnails":{"640x384":"https://kudago.com/media/thumbs/640x384/images/event/5b/2e/5b2e8e215dde7879f74975813fd03a60.jpg","144x96":"https://kudago.com/media/thumbs/144x96/images/event/5b/2e/5b2e8e215dde7879f74975813fd03a60.jpg"},"source":{"name":"vk.com","link":"https://vk.com/skazochnye_sybboty"}},{"image":"https://kudago.com/media/images/event/7f/93/7f9390bfdc64ced5fb54f00fe2d8c1dd.jpg","thumbnails":{"640x384":"https://kudago.com/media/thumbs/640x384/images/event/7f/93/7f9390bfdc64ced5fb54f00fe2d8c1dd.jpg","144x96":"https://kudago.com/media/thumbs/144x96/images/event/7f/93/7f9390bfdc64ced5fb54f00fe2d8c1dd.jpg"},"source":{"name":"vk.com","link":"https://vk.com/skazochnye_sybboty"}}],"favorites_count":2,"comments_count":0,"short_title":"Сказочные субботы"},{"id":132194,"dates":[{"start":1474301400,"end":1474301400},{"start":1475511000,"end":1475511000},{"start":1476720600,"end":1476720600},{"start":1477930200,"end":1477930200},{"start":-62135433000,"end":253370754000}],"title":"ораторский клуб в «Циферблате»","slug":"oratorskij-klub-v-ciferblate","place":{"id":1320,"title":"Свободное пространство «Циферблат» в Нижнем Новгороде","slug":"svobodnoe-prostranstvo-ciferblat-v-nizhnem-novgoro","address":"ул. Ковалихинская, 4а","phone":"+7 920 073-05-63","subway":"Горьковская","location":"nnv","site_url":"https://kudago.com/nnv/place/svobodnoe-prostranstvo-ciferblat-v-nizhnem-novgoro/","is_closed":false,"coords":{"lat":56.32359199999999,"lon":44.011107},"is_stub":false},"description":"<p>Говорить красиво и убедительно не так сложно, главное — освоить простые приёмы и познакомиться с распространёнными техниками красноречия. Опытный бизнес-тренер научит нижегородцев использовать свой потенциал на все 100% и очаровывать абсолютно любую аудиторию.</p>\n","categories":["education"],"age_restriction":"16+","price":"2 рубля в минуту","is_free":false,"images":[{"image":"https://kudago.com/media/images/event/e0/84/e0841506c6b09d86419c22c19f30efdc.jpg","thumbnails":{"640x384":"https://kudago.com/media/thumbs/640x384/images/event/e0/84/e0841506c6b09d86419c22c19f30efdc.jpg","144x96":"https://kudago.com/media/thumbs/144x96/images/event/e0/84/e0841506c6b09d86419c22c19f30efdc.jpg"},"source":{"name":"3ton.club","link":"http://3ton.club/%D0%BA%D1%80%D1%83%D0%B6%D0%BA%D0%B8/%D0%BE%D1%80%D0%B0%D1%82%D0%BE%D1%80%D1%81%D0%BA%D0%BE%D0%B5-%D0%BC%D0%B0%D1%81%D1%82%D0%B5%D1%80%D1%81%D1%82%D0%B2%D0%BE/"}},{"image":"https://kudago.com/media/images/event/7c/e4/7ce4159499a72bf0ae785f9f51199490.jpg","thumbnails":{"640x384":"https://kudago.com/media/thumbs/640x384/images/event/7c/e4/7ce4159499a72bf0ae785f9f51199490.jpg","144x96":"https://kudago.com/media/thumbs/144x96/images/event/7c/e4/7ce4159499a72bf0ae785f9f51199490.jpg"},"source":{"name":"vk.com","link":"https://vk.com/event70986764"}},{"image":"https://kudago.com/media/images/event/b1/da/b1da5b41ba2a06ad13573fa7cff0ee3c.jpg","thumbnails":{"640x384":"https://kudago.com/media/thumbs/640x384/images/event/b1/da/b1da5b41ba2a06ad13573fa7cff0ee3c.jpg","144x96":"https://kudago.com/media/thumbs/144x96/images/event/b1/da/b1da5b41ba2a06ad13573fa7cff0ee3c.jpg"},"source":{"name":"vk.com","link":"https://vk.com/event70986764"}},{"image":"https://kudago.com/media/images/event/5b/15/5b15b197dca02e0c7e0a7ba4f04e2fd9.jpg","thumbnails":{"640x384":"https://kudago.com/media/thumbs/640x384/images/event/5b/15/5b15b197dca02e0c7e0a7ba4f04e2fd9.jpg","144x96":"https://kudago.com/media/thumbs/144x96/images/event/5b/15/5b15b197dca02e0c7e0a7ba4f04e2fd9.jpg"},"source":{"name":"vk.com","link":"https://vk.com/event70986764"}},{"image":"https://kudago.com/media/images/event/8b/3d/8b3d5f81ee05ef965831ee61a5755018.jpg","thumbnails":{"640x384":"https://kudago.com/media/thumbs/640x384/images/event/8b/3d/8b3d5f81ee05ef965831ee61a5755018.jpg","144x96":"https://kudago.com/media/thumbs/144x96/images/event/8b/3d/8b3d5f81ee05ef965831ee61a5755018.jpg"},"source":{"name":"vk.com","link":"https://vk.com/event70986764"}},{"image":"https://kudago.com/media/images/event/4d/b6/4db680b4664b567aab8238714fa74519.jpg","thumbnails":{"640x384":"https://kudago.com/media/thumbs/640x384/images/event/4d/b6/4db680b4664b567aab8238714fa74519.jpg","144x96":"https://kudago.com/media/thumbs/144x96/images/event/4d/b6/4db680b4664b567aab8238714fa74519.jpg"},"source":{"name":"vk.com","link":"https://vk.com/event70986764"}},{"image":"https://kudago.com/media/images/event/40/7f/407fbdc3a5e23a7375e7a0eb0a02f301.jpg","thumbnails":{"640x384":"https://kudago.com/media/thumbs/640x384/images/event/40/7f/407fbdc3a5e23a7375e7a0eb0a02f301.jpg","144x96":"https://kudago.com/media/thumbs/144x96/images/event/40/7f/407fbdc3a5e23a7375e7a0eb0a02f301.jpg"},"source":{"name":"vk.com","link":"https://vk.com/event70986764"}},{"image":"https://kudago.com/media/images/event/f5/1f/f51f431a03fd408239c5bf58bb6a3f95.jpg","thumbnails":{"640x384":"https://kudago.com/media/thumbs/640x384/images/event/f5/1f/f51f431a03fd408239c5bf58bb6a3f95.jpg","144x96":"https://kudago.com/media/thumbs/144x96/images/event/f5/1f/f51f431a03fd408239c5bf58bb6a3f95.jpg"},"source":{"name":"vk.com","link":"https://vk.com/event70986764"}}],"favorites_count":3,"comments_count":0,"short_title":"Ораторский клуб в «Циферблате»"},{"id":77496,"dates":[{"start":-62135433000,"end":253370754000}],"title":"мастер-класс по косоплетению","slug":"master-klass-po-kosopleteniyu","place":{"id":19874,"title":"арт-студия «Статус»","slug":"art-studiya-status","address":"ул. Большая Покровская, д. 25","phone":"+7 904 786-11-34","subway":"","location":"nnv","site_url":"https://kudago.com/nnv/place/art-studiya-status/","is_closed":false,"coords":{"lat":56.321286,"lon":43.999105},"is_stub":true},"description":"<p>Косы — одно из главных орудий женской привлекательности — требуют определенных навыков, которым, впрочем, легко научиться.</p>\n","categories":["education"],"age_restriction":null,"price":"от 1800 до 2200 рублей","is_free":false,"images":[{"image":"https://kudago.com/media/images/event/a9/76/a976c4da4f931cd052e282288fff9cae.jpg","thumbnails":{"640x384":"https://kudago.com/media/thumbs/640x384/images/event/a9/76/a976c4da4f931cd052e282288fff9cae.jpg","144x96":"https://kudago.com/media/thumbs/144x96/images/event/a9/76/a976c4da4f931cd052e282288fff9cae.jpg"},"source":{"name":"ВКонтакте","link":"https://vk.com/event48827716"}}],"favorites_count":3,"comments_count":0,"short_title":"Мастер-класс по косоплетению"},{"id":131191,"dates":[{"start":-62135433000,"end":253370754000}],"title":"разговорный клуб жестового языка","slug":"razgovornyj-klub-zhestovogo-yazyka-v-ciferblate","place":{"id":1320,"title":"Свободное пространство «Циферблат» в Нижнем Новгороде","slug":"svobodnoe-prostranstvo-ciferblat-v-nizhnem-novgoro","address":"ул. Ковалихинская, 4а","phone":"+7 920 073-05-63","subway":"Горьковская","location":"nnv","site_url":"https://kudago.com/nnv/place/svobodnoe-prostranstvo-ciferblat-v-nizhnem-novgoro/","is_closed":false,"coords":{"lat":56.32359199999999,"lon":44.011107},"is_stub":false},"description":"<p>Все желающие освоить русский жестовый язык приглашаются на еженедельные занятия. Гости научатся использовать и понимать жестовый язык, вести синхронный перевод и даже создавать жестовые стихи.</p>\n","categories":["education"],"age_restriction":"12+","price":"2 рубля в минуту","is_free":false,"images":[{"image":"https://kudago.com/media/images/event/6d/23/6d234ff0cb7fbb4bdee77b47e094840b.jpg","thumbnails":{"640x384":"https://kudago.com/media/thumbs/640x384/images/event/6d/23/6d234ff0cb7fbb4bdee77b47e094840b.jpg","144x96":"https://kudago.com/media/thumbs/144x96/images/event/6d/23/6d234ff0cb7fbb4bdee77b47e094840b.jpg"},"source":{"name":"vk.com","link":"https://vk.com/bl_speak"}},{"image":"https://kudago.com/media/images/event/c5/f8/c5f85bb64036608a8ee09b624d743349.jpg","thumbnails":{"640x384":"https://kudago.com/media/thumbs/640x384/images/event/c5/f8/c5f85bb64036608a8ee09b624d743349.jpg","144x96":"https://kudago.com/media/thumbs/144x96/images/event/c5/f8/c5f85bb64036608a8ee09b624d743349.jpg"},"source":{"name":"vk.com","link":"https://vk.com/bl_speak"}},{"image":"https://kudago.com/media/images/event/8e/3e/8e3e95dd777a9456f45fb1e8086df4ef.jpg","thumbnails":{"640x384":"https://kudago.com/media/thumbs/640x384/images/event/8e/3e/8e3e95dd777a9456f45fb1e8086df4ef.jpg","144x96":"https://kudago.com/media/thumbs/144x96/images/event/8e/3e/8e3e95dd777a9456f45fb1e8086df4ef.jpg"},"source":{"name":"vk.com","link":"https://vk.com/bl_speak"}},{"image":"https://kudago.com/media/images/event/67/f9/67f9f2492e381193f50f20b2b267ae51.jpg","thumbnails":{"640x384":"https://kudago.com/media/thumbs/640x384/images/event/67/f9/67f9f2492e381193f50f20b2b267ae51.jpg","144x96":"https://kudago.com/media/thumbs/144x96/images/event/67/f9/67f9f2492e381193f50f20b2b267ae51.jpg"},"source":{"name":"vk.com","link":"https://vk.com/bl_speak"}},{"image":"https://kudago.com/media/images/event/8a/0f/8a0f39a940bee35894f701c7ebaa005e.jpg","thumbnails":{"640x384":"https://kudago.com/media/thumbs/640x384/images/event/8a/0f/8a0f39a940bee35894f701c7ebaa005e.jpg","144x96":"https://kudago.com/media/thumbs/144x96/images/event/8a/0f/8a0f39a940bee35894f701c7ebaa005e.jpg"},"source":{"name":"vk.com","link":"https://vk.com/bl_speak"}},{"image":"https://kudago.com/media/images/event/b1/25/b125cd8bbbc678b431de18abb2df97e8.jpg","thumbnails":{"640x384":"https://kudago.com/media/thumbs/640x384/images/event/b1/25/b125cd8bbbc678b431de18abb2df97e8.jpg","144x96":"https://kudago.com/media/thumbs/144x96/images/event/b1/25/b125cd8bbbc678b431de18abb2df97e8.jpg"},"source":{"name":"vk.com","link":"https://vk.com/bl_speak"}},{"image":"https://kudago.com/media/images/event/20/2f/202f2a7144ff479aa95a4db298cc96e3.jpg","thumbnails":{"640x384":"https://kudago.com/media/thumbs/640x384/images/event/20/2f/202f2a7144ff479aa95a4db298cc96e3.jpg","144x96":"https://kudago.com/media/thumbs/144x96/images/event/20/2f/202f2a7144ff479aa95a4db298cc96e3.jpg"},"source":{"name":"vk.com","link":"https://vk.com/bl_speak"}},{"image":"https://kudago.com/media/images/event/39/4a/394aa16f476df4d5e30504e01e601089.jpg","thumbnails":{"640x384":"https://kudago.com/media/thumbs/640x384/images/event/39/4a/394aa16f476df4d5e30504e01e601089.jpg","144x96":"https://kudago.com/media/thumbs/144x96/images/event/39/4a/394aa16f476df4d5e30504e01e601089.jpg"},"source":{"name":"vk.com","link":"https://vk.com/bl_speak"}},{"image":"https://kudago.com/media/images/event/9f/51/9f5116a80de9f3d941f0fd4c48f38df0.jpg","thumbnails":{"640x384":"https://kudago.com/media/thumbs/640x384/images/event/9f/51/9f5116a80de9f3d941f0fd4c48f38df0.jpg","144x96":"https://kudago.com/media/thumbs/144x96/images/event/9f/51/9f5116a80de9f3d941f0fd4c48f38df0.jpg"},"source":{"name":"vk.com","link":"https://vk.com/bl_speak"}}],"favorites_count":1,"comments_count":0,"short_title":"Разговорный клуб жестового языка"}]}