{"count":23,"next":"https://kudago.com/public-api/v1.4/events/?actual_since=1551575961.4&expand=place%2Cimages&fields=id%2Ctitle%2Cslug%2Cprice%2Ccategories%2Cimages%2Cis_free%2Cshort_title%2Cdates%2Cdescription%2Cfavorites_count%2Ccomments_count%2Cage_restriction%2Cplace&location=nnv&page=2&page_size=5","previous":null,"results":[{"id":131262,"dates":[{"start":-62135433000,"end":253370754000}],"title":"«Мафия» в «Циферблате»","slug":"mafiya-v-ciferblate","place":{"id":1320,"title":"Свободное пространство «Циферблат» в Нижнем Новгороде","slug":"svobodnoe-prostranstvo-ciferblat-v-nizhnem-novgoro","address":"ул. Ковалихинская, 4а","phone":"+7 920 073-05-63","subway":"Горьковская","location":"nnv","site_url":"https://kudago.com/nnv/place/svobodnoe-prostranstvo-ciferblat-v-nizhnem-novgoro/","is_closed":false,"coords":{"lat":56.32359199999999,"lon":44.011107},"is_stub":false},"description":"<p>Хитрость и проницательность, дерзкий блеф и коварные замыслы, запутанные интриги и холодный расчёт, логика, везение и необычные ситуации — всё это «Мафия», любимейшая салонная игра последних десятилетий и просто прекрасный повод собраться компанией, поиграть и от души повеселиться.</p>\n","categories":["games"],"age_restriction":"14+","price":"2 рубля в минуту","is_free":false,"images":[{"image":"https://kudago.com/media/images/event/e6/60/e66050e73a413c9a1a67ead0ae87eef8.jpg","thumbnails":{"640x384":"https://kudago.com/media/thumbs/640x384/images/event/e6/60/e66050e73a413c9a1a67ead0ae87eef8.jpg","144x96":"https://kudago.com/media/thumbs/144x96/images/event/e6/60/e66050e73a413c9a1a67ead0ae87eef8.jpg"},"source":{"name":"catalog-chess.ru","link":"http://catalog-chess.ru/index.php?route=information/news&news_id=4"}},{"image":"https://kudago.com/media/images/event/c3/f9/c3f95a0c8ec620f0201f16c09fdc24d0.jpg","thumbnails":{"640x384":"https://kudago.com/media/thumbs/640x384/images/event/c3/f9/c3f95a0c8ec620f0201f16c09fdc24d0.jpg","144x96":"https://kudago.com/media/thumbs/144x96/images/event/c3/f9/c3f95a0c8ec620f0201f16c09fdc24d0.jpg"},"source":{"name":"prokhv.ru","link":"http://prokhv.ru/articles/mafia/"}},{"image":"https://kudago.com/media/images/event/94/39/943966a28a0db35b7378c46abab5692b.jpg","thumbnails":{"640x384":"https://kudago.com/media/thumbs/640x384/images/event/94/39/943966a28a0db35b7378c46abab5692b.jpg","144x96":"https://kudago.com/media/thumbs/144x96/images/event/94/39/943966a28a0db35b7378c46abab5692b.jpg"},"source":{"name":"nibler.ru","link":"http://nibler.ru/pics/26312-mafiya.html"}}],"favorites_count":15,"comments_count":0,"short_title":"Мафия"},{"id":131229,"dates":[{"start":-62135433000,"end":253370754000}],"title":"английский разговорный клуб","slug":"anglijskij-razgovornyj-klub-nizhniynov","place":{"id":1320,"title":"Свободное пространство «Циферблат» в Нижнем Новгороде","slug":"svobodnoe-prostranstvo-ciferblat-v-nizhnem-novgoro","address":"ул. Ковалихинская, 4а","phone":"+7 920 073-05-63","subway":"Горьковская","location":"nnv","site_url":"https://kudago.com/nnv/place/svobodnoe-prostranstvo-ciferblat-v-nizhnem-novgoro/","is_closed":false,"coords":{"lat":56.32359199999999,"lon":44.011107},"is_stub":false},"description":"<p>На встречах разговорного клуба нижегородцы смогут подтянуть свой английский, поближе познакомиться с английской грамматикой, пообщаться с носителями языка и просто приятно провести время в компании единомышленников.</p>\n","categories":["education"],"age_restriction":"12+","price":"2 рубля в минуту","is_free":false,"images":[{"image":"https://kudago.com/media/images/event/2f/37/2f372db06481b136d169d22594daa26c.jpg","thumbnails":{"640x384":"https://kudago.com/media/thumbs/640x384/images/event/2f/37/2f372db06481b136d169d22594daa26c.jpg","144x96":"https://kudago.com/media/thumbs/144x96/images/event/2f/37/2f372db06481b136d169d22594daa26c.jpg"},"source":{"name":"vk.com","link":"https://vk.com/escnn"}},{"image":"https://kudago.com/media/images/event/52/5f/525ffd37ad528fd0b3954459fb6e63ef.jpg","thumbnails":{"640x384":"https://kudago.com/media/thumbs/640x384/images/event/52/5f/525ffd37ad528fd0b3954459fb6e63ef.jpg","144x96":"https://kudago.com/media/thumbs/144x96/images/event/52/5f/525ffd37ad528fd0b3954459fb6e63ef.jpg"},"source":{"name":"vk.com","link":"https://vk.com/escnn"}},{"image":"https://kudago.com/media/images/event/8c/69/8c690d22e02b174f8e2f296ccb848371.jpg","thumbnails":{"640x384":"https://kudago.com/media/thumbs/640x384/images/event/8c/69/8c690d22e02b174f8e2f296ccb848371.jpg","144x96":"https://kudago.com/media/thumbs/144x96/images/event/8c/69/8c690d22e02b174f8e2f296ccb848371.jpg"},"source":{"name":"vk.com","link":"https://vk.com/escnn"}},{"image":"https://kudago.com/media/images/event/97/db/97db579088170ef01a45512676d81e4f.jpg","thumbnails":{"640x384":"https://kudago.com/media/thumbs/640x384/images/event/97/db/97db579088170ef01a45512676d81e4f.jpg","144x96":"https://kudago.com/media/thumbs/144x96/images/event/97/db/97db579088170ef01a45512676d81e4f.jpg"},"source":{"name":"vk.com","link":"https://vk.com/escnn"}},{"image":"https://kudago.com/media/images/event/ac/69/ac69b4854e9eb513ca3a189acb9594b3.jpg","thumbnails":{"640x384":"https://kudago.com/media/thumbs/640x384/images/event/ac/69/ac69b4854e9eb513ca3a189acb9594b3.jpg","144x96":"https://kudago.com/media/thumbs/144x96/images/event/ac/69/ac69b4854e9eb513ca3a189acb9594b3.jpg"},"source":{"name":"vk.com","link":"https://vk.com/escnn"}},{"image":"https://kudago.com/media/images/event/e4/98/e4983e9a1e83d663e1b259b5a0d47142.jpg","thumbnails":{"640x384":"https://kudago.com/media/thumbs/640x384/images/event/e4/98/e4983e9a1e83d663e1b259b5a0d47142.jpg","144x96":"https://kudago.com/media/thumbs/144x96/images/event/e4/98/e4983e9a1e83d663e1b259b5a0d47142.jpg"},"source":{"name":"vk.com","link":"https://vk.com/escnn"}}],"favorites_count":2,"comments_count":0,"short_title":"Английский разговорный клуб"},{"id":70425,"dates":[{"start":-62135433000,"end":253370754000}],"title":"выставка «Особая кладовая»","slug":"vystavka-osobaya-kladovaya","place":{"id":4193,"title":"Усадьба Рукавишниковых","slug":"usadba-rukavishnikovyh","address":"Верхне-Волжская наб., д.7","phone":"+7 831 422-10-57, +7 831 422-10-90","subway":"Горьковская","location":"nnv","site_url":"https://kudago.com/nnv/place/usadba-rukavishnikovyh/","is_closed":false,"coords":{"lat":56.32930699999998,"lon":44.015985},"is_stub":false},"description":"","categories":["exhibition","permanent-exhibitions"],"age_restriction":"12+","price":"300 рублей, льготный — 150 рублей","is_free":false,"images":[{"image":"https://kudago.com/media/images/event/47/f7/47f71bfeb55bcdcadfbd4930653f04c3.jpg","thumbnails":{"640x384":"https://kudago.com/media/thumbs/640x384/images/event/47/f7/47f71bfeb55bcdcadfbd4930653f04c3.jpg","144x96":"https://kudago.com/media/thumbs/144x96/images/event/47/f7/47f71bfeb55bcdcadfbd4930653f04c3.jpg"},"source":{"name":"ngiamz.ru","link":"http://www.ngiamz.ru/filialy/usadba-rukavishnikovykh/usadba-ekspozitsii-i-vystavki/109-usadba-vystavka-osobaya-kladovaya.html"}},{"image":"https://kudago.com/media/images/event/7c/a1/7ca1e4d69e015b4711efa016dedece8d.jpg","thumbnails":{"640x384":"https://kudago.com/media/thumbs/640x384/images/event/7c/a1/7ca1e4d69e015b4711efa016dedece8d.jpg","144x96":"https://kudago.com/media/thumbs/144x96/images/event/7c/a1/7ca1e4d69e015b4711efa016dedece8d.jpg"},"source":{"name":"ngiamz.ru","link":"http://www.ngiamz.ru/filialy/usadba-rukavishnikovykh/usadba-ekspozitsii-i-vystavki/109-usadba-vystavka-osobaya-kladovaya.html"}},{"image":"https://kudago.com/media/images/event/7b/64/7b649dd9b1ed03421189592cf6fa690d.jpg","thumbnails":{"640x384":"https://kudago.com/media/thumbs/640x384/images/event/7b/64/7b649dd9b1ed03421189592cf6fa690d.jpg","144x96":"https://kudago.com/media/thumbs/144x96/images/event/7b/64/7b649dd9b1ed03421189592cf6fa690d.jpg"},"source":{"name":"ngiamz.ru","link":"http://www.ngiamz.ru/filialy/usadba-rukavishnikovykh/usadba-ekspozitsii-i-vystavki/109-usadba-vystavka-osobaya-kladovaya.html"}}],"favorites_count":15,"comments_count":0,"short_title":"Особая кладовая"},{"id":75799,"dates":[{"start":-62135433000,"end":253370754000}],"title":"экспозиция русского искусства XIV–XX вв.","slug":"ekspoziciya-russkogo-iskusstva-xivxx-vv","place":{"id":4147,"title":"Нижегородский государственный художественный музей","slug":"nizhegorodskij-hudozhestvennyj-muzey","address":"Кремль, корпус 3","phone":"+7 831 439-13-73","subway":"Горьковская","location":"nnv","site_url":"https://kudago.com/nnv/place/nizhegorodskij-hudozhestvennyj-muzey/","is_closed":false,"coords":{"lat":56.32947199999986,"lon":44.006391},"is_stub":false},"description":"<p>Живопись, скульптура, иконопись, графика и другие виды изобразительного искусства в представленные периоды развития национальной культуры: от древнерусских памятников до работ отечественных художников и современных мастеров.</p>\n","categories":["exhibition","permanent-exhibitions"],"age_restriction":null,"price":"от 70 до 120 рублей","is_free":false,"images":[{"image":"https://kudago.com/media/images/event/80/54/80541cb668b7f40b502cada498324c6b.jpg","thumbnails":{"640x384":"https://kudago.com/media/thumbs/640x384/images/event/80/54/80541cb668b7f40b502cada498324c6b.jpg","144x96":"https://kudago.com/media/thumbs/144x96/images/event/80/54/80541cb668b7f40b502cada498324c6b.jpg"},"source":{"name":"liveinternet.ru","link":"http://www.liveinternet.ru/journalshowcomments.php?jpostid=284052125&journalid=4922396&go=prev&categ=1"}}],"favorites_count":48,"comments_count":0,"short_title":"экспозиция русского искусства XIV–XX вв."},{"id":73167,"dates":[{"start":-62135433000,"end":253370754000}],"title":"выставка  «История и развитие ОАО ГАЗ»","slug":"vystavka-istoriya-i-razvitie-oao-gaz","place":{"id":19256,"title":"Музей истории Горьковского автозавода","slug":"muzej-istorii-oao-gaz","address":"пр. Ленина, д. 95.","phone":"+7 831 290-92-50","subway":"","location":"nnv","site_url":"https://kudago.com/nnv/place/muzej-istorii-oao-gaz/","is_closed":false,"coords":{"lat":56.25472699999997,"lon":43.89316699999998},"is_stub":false},"description":"","categories":["exhibition"],"age_restriction":null,"price":"от 50 до 100 рублей","is_free":false,"images":[{"image":"https://kudago.com/media/images/event/e5/82/e582f6e450ddc7ce722f0ce95c379feb.jpg","thumbnails":{"640x384":"https://kudago.com/media/thumbs/640x384/images/event/e5/82/e582f6e450ddc7ce722f0ce95c379feb.jpg","144x96":"https://kudago.com/media/thumbs/144x96/images/event/e5/82/e582f6e450ddc7ce722f0ce95c379feb.jpg"},"source":{"name":"drive","link":"https://www.drive2.ru/l/288230376152194601/"}}],"favorites_count":44,"comments_count":3,"short_title":"История и развитие ОАО ГАЗ"}]}