{"count":1538,"next":"https://kudago.com/public-api/v1.4/events/?actual_since=1567273133.743&expand=place%2Cimages&fields=id%2Ctitle%2Cslug%2Cprice%2Ccategories%2Cimages%2Cis_free%2Cshort_title%2Cdates%2Cdescription%2Cfavorites_count%2Ccomments_count%2Cage_restriction%2Cplace&location=spb&page=2&page_size=5","previous":null,"results":[{"id":151629,"dates":[{"start":1493658000,"end":1505494800},{"start":1494781200,"end":1494781200},{"start":1499187600,"end":1499187600},{"start":1527786000,"end":1527786000},{"start":1528304400,"end":1528304400},{"start":1528477200,"end":1528477200},{"start":1528995600,"end":1528995600},{"start":1529600400,"end":1529600400},{"start":1530810000,"end":1530810000},{"start":1531933200,"end":1531933200},{"start":1532019600,"end":1532019600},{"start":1532192400,"end":1532192400},{"start":1532624400,"end":1532624400},{"start":1532710800,"end":1532710800},{"start":1533229200,"end":1533229200},{"start":1533315600,"end":1533315600},{"start":1533834000,"end":1533834000},{"start":1534438800,"end":1534438800},{"start":1535043600,"end":1535043600},{"start":1535302800,"end":1535302800},{"start":1535475600,"end":1535475600},{"start":1535648400,"end":1535648400},{"start":1537113600,"end":1537113600},{"start":1537549200,"end":1537549200},{"start":1558886400,"end":1558886400},{"start":1559235600,"end":1559235600},{"start":1559322000,"end":1559322000},{"start":1559491200,"end":1559491200},{"start":1560096000,"end":1560096000},{"start":1560445200,"end":1560445200},{"start":1560614400,"end":1560614400},{"start":1560877200,"end":1560877200},{"start":1561050000,"end":1561050000},{"start":1561219200,"end":1561219200},{"start":1561568400,"end":1561568400},{"start":1561741200,"end":1561741200},{"start":1561824000,"end":1561824000},{"start":1561910400,"end":1561910400},{"start":1562173200,"end":1562173200},{"start":1562691600,"end":1562691600},{"start":1562778000,"end":1562778000},{"start":1563120000,"end":1563120000},{"start":1563469200,"end":1563469200},{"start":1563724800,"end":1563724800},{"start":1563987600,"end":1563987600},{"start":1564074000,"end":1564074000},{"start":1564160400,"end":1564160400},{"start":1564848000,"end":1564848000},{"start":1564934400,"end":1564934400},{"start":1565370000,"end":1565370000},{"start":1565802000,"end":1565802000},{"start":1565888400,"end":1565888400},{"start":1566406800,"end":1566406800},{"start":1566579600,"end":1566579600},{"start":1566925200,"end":1566925200},{"start":1567011600,"end":1567011600},{"start":1567702800,"end":1567702800}],"title":"Roof Fest 2019","slug":"kontsert-roof-music-fest-2017","place":{"id":31178,"title":"площадка Roof Place","slug":"prochee-roof-place","address":"Кожевенная линия, д. 30","phone":"","subway":"","location":"spb","site_url":"https://kudago.com/spb/place/prochee-roof-place/","is_closed":false,"coords":{"lat":59.92223649999991,"lon":30.25129300000042},"is_stub":false},"description":"<p>В этом году фестиваль Roof Fest в очередной раз соберёт музыкантов и публику на живописной крыше Санкт-Петербурга.</p>\n","categories":["party","concert","festival","show"],"age_restriction":"12+","price":"от 700 рублей","is_free":false,"images":[{"image":"https://kudago.com/media/images/event/ce/b2/ceb2d8a4b594af1ffb71ef1388b0a3a3.jpg","thumbnails":{"640x384":"https://kudago.com/media/thumbs/640x384/images/event/ce/b2/ceb2d8a4b594af1ffb71ef1388b0a3a3.jpg","144x96":"https://kudago.com/media/thumbs/144x96/images/event/ce/b2/ceb2d8a4b594af1ffb71ef1388b0a3a3.jpg"},"source":{"name":"","link":""}},{"image":"https://kudago.com/media/images/event/f4/ce/f4ce18454ffaff574951be2513f1efff.jpg","thumbnails":{"640x384":"https://kudago.com/media/thumbs/640x384/images/event/f4/ce/f4ce18454ffaff574951be2513f1efff.jpg","144x96":"https://kudago.com/media/thumbs/144x96/images/event/f4/ce/f4ce18454ffaff574951be2513f1efff.jpg"},"source":{"name":"","link":""}},{"image":"https://kudago.com/media/images/event/4a/15/4a156b933d0c4215a7a206540d90ed14.jpg","thumbnails":{"640x384":"https://kudago.com/media/thumbs/640x384/images/event/4a/15/4a156b933d0c4215a7a206540d90ed14.jpg","144x96":"https://kudago.com/media/thumbs/144x96/images/event/4a/15/4a156b933d0c4215a7a206540d90ed14.jpg"},"source":{"name":"","link":""}},{"image":"https://kudago.com/media/images/event/d8/e2/d8e2a2f83afdfed3e780d8930f3bfd8f.jpg","thumbnails":{"640x384":"https://kudago.com/media/thumbs/640x384/images/event/d8/e2/d8e2a2f83afdfed3e780d8930f3bfd8f.jpg","144x96":"https://kudago.com/media/thumbs/144x96/images/event/d8/e2/d8e2a2f83afdfed3e780d8930f3bfd8f.jpg"},"source":{"name":"","link":""}}],"favorites_count":316,"comments_count":0,"short_title":"Roof Fest 2019"},{"id":178999,"dates":[{"start":1558126800,"end":1571000400}],"title":"новый выставочный проект в Музее стрит-арта «Хоть стой, хоть падай»","slug":"vyistavka-hot-stoj-hot-padaj","place":{"id":18179,"title":"музей уличного искусства / Музей стрит-арта","slug":"muzej-ulichnogo-iskusstva-strit-arta","address":"ш. Революции, д. 84","phone":"+7 812 384-48-08","subway":"Ладожская, Площадь Ленина","location":"spb","site_url":"https://kudago.com/spb/place/muzej-ulichnogo-iskusstva-strit-arta/","is_closed":false,"coords":{"lat":59.961287,"lon":30.452726},"is_stub":false},"description":"<p>С 18 мая в Музее стрит-арта откроется новый выставочный проект, вдохновлённый шоком от происходящего вокруг. Именно так. Идея тотального шока вдохновила художников из разных стран на создание произведений, увидеть которые можно будет до середины октября. </p>","categories":["exhibition"],"age_restriction":0,"price":"400 рублей, льготный билет — 300 рублей","is_free":false,"images":[{"image":"https://kudago.com/media/images/event/5f/30/5f30e2695113aec68cf66e6f51f7fdd3.jpg","thumbnails":{"640x384":"https://kudago.com/media/thumbs/640x384/images/event/5f/30/5f30e2695113aec68cf66e6f51f7fdd3.jpg","144x96":"https://kudago.com/media/thumbs/144x96/images/event/5f/30/5f30e2695113aec68cf66e6f51f7fdd3.jpg"},"source":{"name":"","link":""}},{"image":"https://kudago.com/media/images/event/23/7e/237e9c7e31c488d318d725ff0376da9f.jpg","thumbnails":{"640x384":"https://kudago.com/media/thumbs/640x384/images/event/23/7e/237e9c7e31c488d318d725ff0376da9f.jpg","144x96":"https://kudago.com/media/thumbs/144x96/images/event/23/7e/237e9c7e31c488d318d725ff0376da9f.jpg"},"source":{"name":"","link":""}},{"image":"https://kudago.com/media/images/event/c2/c3/c2c385cda5760fcf083e730572bee884.jpg","thumbnails":{"640x384":"https://kudago.com/media/thumbs/640x384/images/event/c2/c3/c2c385cda5760fcf083e730572bee884.jpg","144x96":"https://kudago.com/media/thumbs/144x96/images/event/c2/c3/c2c385cda5760fcf083e730572bee884.jpg"},"source":{"name":"","link":""}},{"image":"https://kudago.com/media/images/event/30/5f/305ff3144000574270209284257dce63.jpg","thumbnails":{"640x384":"https://kudago.com/media/thumbs/640x384/images/event/30/5f/305ff3144000574270209284257dce63.jpg","144x96":"https://kudago.com/media/thumbs/144x96/images/event/30/5f/305ff3144000574270209284257dce63.jpg"},"source":{"name":"","link":""}},{"image":"https://kudago.com/media/images/event/b5/bf/b5bfdab68af137ba572425940ba0f1d7.jpg","thumbnails":{"640x384":"https://kudago.com/media/thumbs/640x384/images/event/b5/bf/b5bfdab68af137ba572425940ba0f1d7.jpg","144x96":"https://kudago.com/media/thumbs/144x96/images/event/b5/bf/b5bfdab68af137ba572425940ba0f1d7.jpg"},"source":{"name":"","link":""}},{"image":"https://kudago.com/media/images/event/c9/06/c906331d9be7c43345fb3f9507a2dde7.jpg","thumbnails":{"640x384":"https://kudago.com/media/thumbs/640x384/images/event/c9/06/c906331d9be7c43345fb3f9507a2dde7.jpg","144x96":"https://kudago.com/media/thumbs/144x96/images/event/c9/06/c906331d9be7c43345fb3f9507a2dde7.jpg"},"source":{"name":"","link":""}},{"image":"https://kudago.com/media/images/event/a9/79/a97932575297e93d3ae3ef0fa32bafba.jpg","thumbnails":{"640x384":"https://kudago.com/media/thumbs/640x384/images/event/a9/79/a97932575297e93d3ae3ef0fa32bafba.jpg","144x96":"https://kudago.com/media/thumbs/144x96/images/event/a9/79/a97932575297e93d3ae3ef0fa32bafba.jpg"},"source":{"name":"","link":""}},{"image":"https://kudago.com/media/images/event/3b/30/3b307538c135ef2e72d05f5fb50d89ba.jpg","thumbnails":{"640x384":"https://kudago.com/media/thumbs/640x384/images/event/3b/30/3b307538c135ef2e72d05f5fb50d89ba.jpg","144x96":"https://kudago.com/media/thumbs/144x96/images/event/3b/30/3b307538c135ef2e72d05f5fb50d89ba.jpg"},"source":{"name":"","link":""}}],"favorites_count":234,"comments_count":0,"short_title":"«Хоть стой, хоть падай»"},{"id":176383,"dates":[{"start":1559250000,"end":1569790800}],"title":"выставка «Марио Тестино: Cуперзвезда»","slug":"vyistavka-fotografii-mario-testino","place":{"id":157,"title":"Музей современного искусства Эрарта","slug":"erarta","address":"29-я линия В. О., д. 2","phone":"+7 812 324-08-09","subway":"Василеостровская, Приморская, Спортивная","location":"spb","site_url":"https://kudago.com/spb/place/erarta/","is_closed":false,"coords":{"lat":59.93178799999995,"lon":30.251674},"is_stub":false},"description":"<p>Марио Тестино — патриарх фэшн-фотографии, снимки которого появлялись на страницах Vogue, Vanity Fair и других известных глянцевых изданий. Знаковые работы мастера можно увидеть в музее Эрарта.</p>","categories":["exhibition","fashion","show"],"age_restriction":"18+","price":"550 рублей (постоянная экспозиция + временные выставки)","is_free":false,"images":[{"image":"https://kudago.com/media/images/event/14/69/1469fd403faee78608b448310c9769f8.jpg","thumbnails":{"640x384":"https://kudago.com/media/thumbs/640x384/images/event/14/69/1469fd403faee78608b448310c9769f8.jpg","144x96":"https://kudago.com/media/thumbs/144x96/images/event/14/69/1469fd403faee78608b448310c9769f8.jpg"},"source":{"name":"","link":""}},{"image":"https://kudago.com/media/images/event/6c/69/6c6963f9ee6eda2f1ad84dec1ab4918a.jpg","thumbnails":{"640x384":"https://kudago.com/media/thumbs/640x384/images/event/6c/69/6c6963f9ee6eda2f1ad84dec1ab4918a.jpg","144x96":"https://kudago.com/media/thumbs/144x96/images/event/6c/69/6c6963f9ee6eda2f1ad84dec1ab4918a.jpg"},"source":{"name":"erarta.com","link":"https://www.erarta.com/ru/calendar/exhibitions/detail/db0659af-9ed1-11e8-bf3b-8920284aa333/"}},{"image":"https://kudago.com/media/images/event/1d/2e/1d2e7651f135f5ca41e6b1218e3ba0a4.jpg","thumbnails":{"640x384":"https://kudago.com/media/thumbs/640x384/images/event/1d/2e/1d2e7651f135f5ca41e6b1218e3ba0a4.jpg","144x96":"https://kudago.com/media/thumbs/144x96/images/event/1d/2e/1d2e7651f135f5ca41e6b1218e3ba0a4.jpg"},"source":{"name":"","link":""}},{"image":"https://kudago.com/media/images/event/45/e5/45e5b39f1cb531be5e962d274361a90e.jpg","thumbnails":{"640x384":"https://kudago.com/media/thumbs/640x384/images/event/45/e5/45e5b39f1cb531be5e962d274361a90e.jpg","144x96":"https://kudago.com/media/thumbs/144x96/images/event/45/e5/45e5b39f1cb531be5e962d274361a90e.jpg"},"source":{"name":"erarta.com","link":"https://www.erarta.com/ru/calendar/exhibitions/detail/db0659af-9ed1-11e8-bf3b-8920284aa333/"}},{"image":"https://kudago.com/media/images/event/8a/68/8a68ee28cd7ecda15b90b3bd44e117c1.jpg","thumbnails":{"640x384":"https://kudago.com/media/thumbs/640x384/images/event/8a/68/8a68ee28cd7ecda15b90b3bd44e117c1.jpg","144x96":"https://kudago.com/media/thumbs/144x96/images/event/8a/68/8a68ee28cd7ecda15b90b3bd44e117c1.jpg"},"source":{"name":"erarta.com","link":"https://www.erarta.com/ru/calendar/exhibitions/detail/db0659af-9ed1-11e8-bf3b-8920284aa333/"}},{"image":"https://kudago.com/media/images/event/e1/47/e1476473def2f52bc3981361b4e49bf7.jpg","thumbnails":{"640x384":"https://kudago.com/media/thumbs/640x384/images/event/e1/47/e1476473def2f52bc3981361b4e49bf7.jpg","144x96":"https://kudago.com/media/thumbs/144x96/images/event/e1/47/e1476473def2f52bc3981361b4e49bf7.jpg"},"source":{"name":"","link":""}},{"image":"https://kudago.com/media/images/event/d4/c1/d4c162a0def7b94bb9723bef9cae5e0d.jpg","thumbnails":{"640x384":"https://kudago.com/media/thumbs/640x384/images/event/d4/c1/d4c162a0def7b94bb9723bef9cae5e0d.jpg","144x96":"https://kudago.com/media/thumbs/144x96/images/event/d4/c1/d4c162a0def7b94bb9723bef9cae5e0d.jpg"},"source":{"name":"erarta.com","link":"https://www.erarta.com/ru/calendar/exhibitions/detail/db0659af-9ed1-11e8-bf3b-8920284aa333/"}}],"favorites_count":68,"comments_count":0,"short_title":"Марио Тестино: Cуперзвезда"},{"id":172266,"dates":[{"start":1534366800,"end":253370754000}],"title":"акция в клубе виртуальной реальности Futurum","slug":"aktsiya-kluba-virtualnoj-realnosti-futurum","place":{"id":30608,"title":"клуб виртуальной реальности Futurum","slug":"attraktsion-futurum","address":"ул. Садовая, д. 59","phone":"+7 812 606-01-66, +7 953 375-17-50","subway":"Садовая, Сенная Площадь, Спасская","location":"spb","site_url":"https://kudago.com/spb/place/attraktsion-futurum/","is_closed":false,"coords":{"lat":59.92256510000008,"lon":30.30700679999956},"is_stub":false},"description":"<p>Думаете, что бы попробовать интересного? Не знаете, как удивить друзей? Головокружительные приключения по фантастическим мирам, сражения на космических станциях, дружеские турниры — в клубе виртуальной реальности Futurum можно оригинально развлечься.</p>","categories":["stock","games","discount"],"age_restriction":"6+","price":"от 3300 рублей","is_free":false,"images":[{"image":"https://kudago.com/media/images/event/5d/2c/5d2c0ff36ad5d58fb5f5c3bda353c3ce.jpg","thumbnails":{"640x384":"https://kudago.com/media/thumbs/640x384/images/event/5d/2c/5d2c0ff36ad5d58fb5f5c3bda353c3ce.jpg","144x96":"https://kudago.com/media/thumbs/144x96/images/event/5d/2c/5d2c0ff36ad5d58fb5f5c3bda353c3ce.jpg"},"source":{"name":"","link":""}},{"image":"https://kudago.com/media/images/event/78/af/78af98a2af3ceff87ec0bfb129c84185.jpg","thumbnails":{"640x384":"https://kudago.com/media/thumbs/640x384/images/event/78/af/78af98a2af3ceff87ec0bfb129c84185.jpg","144x96":"https://kudago.com/media/thumbs/144x96/images/event/78/af/78af98a2af3ceff87ec0bfb129c84185.jpg"},"source":{"name":"","link":""}},{"image":"https://kudago.com/media/images/event/c3/30/c330b4b6501fcf313b77040d8cacd051.jpg","thumbnails":{"640x384":"https://kudago.com/media/thumbs/640x384/images/event/c3/30/c330b4b6501fcf313b77040d8cacd051.jpg","144x96":"https://kudago.com/media/thumbs/144x96/images/event/c3/30/c330b4b6501fcf313b77040d8cacd051.jpg"},"source":{"name":"","link":""}},{"image":"https://kudago.com/media/images/event/21/67/21677d3757cffcc6fcdea1b0d94ac432.jpg","thumbnails":{"640x384":"https://kudago.com/media/thumbs/640x384/images/event/21/67/21677d3757cffcc6fcdea1b0d94ac432.jpg","144x96":"https://kudago.com/media/thumbs/144x96/images/event/21/67/21677d3757cffcc6fcdea1b0d94ac432.jpg"},"source":{"name":"","link":""}},{"image":"https://kudago.com/media/images/event/33/f4/33f48700ab4988a0565a6d0953a02a99.jpg","thumbnails":{"640x384":"https://kudago.com/media/thumbs/640x384/images/event/33/f4/33f48700ab4988a0565a6d0953a02a99.jpg","144x96":"https://kudago.com/media/thumbs/144x96/images/event/33/f4/33f48700ab4988a0565a6d0953a02a99.jpg"},"source":{"name":"","link":""}},{"image":"https://kudago.com/media/images/event/74/ef/74efa22b9f44dd21103e76bcb95dbb08.jpg","thumbnails":{"640x384":"https://kudago.com/media/thumbs/640x384/images/event/74/ef/74efa22b9f44dd21103e76bcb95dbb08.jpg","144x96":"https://kudago.com/media/thumbs/144x96/images/event/74/ef/74efa22b9f44dd21103e76bcb95dbb08.jpg"},"source":{"name":"","link":""}}],"favorites_count":48,"comments_count":2,"short_title":"акция в Futurum"},{"id":170459,"dates":[{"start":1533218400,"end":1533218400},{"start":1533229200,"end":1533229200},{"start":1533315600,"end":1533315600},{"start":1533481200,"end":1533481200},{"start":1536418800,"end":1536418800},{"start":1536429600,"end":1536429600},{"start":1539277200,"end":1539277200},{"start":1540832400,"end":1540832400},{"start":1543597200,"end":1543597200},{"start":1546873200,"end":1546873200},{"start":1550160000,"end":1550160000},{"start":1550169000,"end":1550169000},{"start":1552060800,"end":1552060800},{"start":1555689600,"end":1555689600},{"start":1558713600,"end":1558713600},{"start":1558720800,"end":1558720800},{"start":1569164400,"end":1569164400},{"start":1569171600,"end":1569171600}],"title":"спектакль «Questioning / Кто ты?» в постановке Pop-up театра и театра Magic Garden (Швейцария)","slug":"teatr-questioning--kto-tyi","place":{"id":1049,"title":"театральная площадка «Скороход»","slug":"kulturnyj-centr-skorohod","address":"Московский просп., д. 107, к. 5, 4-й этаж","phone":"+7 812 987-66-90","subway":"Московские Ворота","location":"spb","site_url":"https://kudago.com/spb/place/kulturnyj-centr-skorohod/","is_closed":false,"coords":{"lat":59.89089999999996,"lon":30.31679999999998},"is_stub":false},"description":"<p>Спектакль-игра, идущий на сцене московского «Гоголь-центра», предстанет в петербургской адаптации Семёна Александровского. Это постановка, во время которой зритель узнаёт очень многое о самом себе.</p>","categories":["theater"],"age_restriction":"18+","price":"900 рублей","is_free":false,"images":[{"image":"https://kudago.com/media/images/event/e1/4a/e14a2217383ad13398f0787105fce75c.jpg","thumbnails":{"640x384":"https://kudago.com/media/thumbs/640x384/images/event/e1/4a/e14a2217383ad13398f0787105fce75c.jpg","144x96":"https://kudago.com/media/thumbs/144x96/images/event/e1/4a/e14a2217383ad13398f0787105fce75c.jpg"},"source":{"name":"Наталья Кореновская","link":""}},{"image":"https://kudago.com/media/images/event/27/b2/27b2ed3e5ce58228200d615ac8e67804.jpg","thumbnails":{"640x384":"https://kudago.com/media/thumbs/640x384/images/event/27/b2/27b2ed3e5ce58228200d615ac8e67804.jpg","144x96":"https://kudago.com/media/thumbs/144x96/images/event/27/b2/27b2ed3e5ce58228200d615ac8e67804.jpg"},"source":{"name":"Наталья Кореновская","link":""}},{"image":"https://kudago.com/media/images/event/04/2e/042e21f213eafff46362878238eb89cd.jpg","thumbnails":{"640x384":"https://kudago.com/media/thumbs/640x384/images/event/04/2e/042e21f213eafff46362878238eb89cd.jpg","144x96":"https://kudago.com/media/thumbs/144x96/images/event/04/2e/042e21f213eafff46362878238eb89cd.jpg"},"source":{"name":"Наталья Кореновская","link":""}},{"image":"https://kudago.com/media/images/event/43/1d/431d51f94351d0d66d2a3d3bced18060.jpg","thumbnails":{"640x384":"https://kudago.com/media/thumbs/640x384/images/event/43/1d/431d51f94351d0d66d2a3d3bced18060.jpg","144x96":"https://kudago.com/media/thumbs/144x96/images/event/43/1d/431d51f94351d0d66d2a3d3bced18060.jpg"},"source":{"name":"Наталья Кореновская","link":""}},{"image":"https://kudago.com/media/images/event/76/a2/76a2f21ca79fef2b01d2409a9aed82cd.jpg","thumbnails":{"640x384":"https://kudago.com/media/thumbs/640x384/images/event/76/a2/76a2f21ca79fef2b01d2409a9aed82cd.jpg","144x96":"https://kudago.com/media/thumbs/144x96/images/event/76/a2/76a2f21ca79fef2b01d2409a9aed82cd.jpg"},"source":{"name":"Наталья Кореновская","link":""}}],"favorites_count":90,"comments_count":4,"short_title":"Questioning / Кто ты?"}]}