{"count":74,"next":"https://kudago.com/public-api/v1.4/events/?actual_since=1551578203.996&expand=place%2Cimages&fields=id%2Ctitle%2Cslug%2Cprice%2Ccategories%2Cimages%2Cis_free%2Cshort_title%2Cdates%2Cdescription%2Cfavorites_count%2Ccomments_count%2Cage_restriction%2Cplace&is_free=false&location=kzn&page=6&page_size=12","previous":"https://kudago.com/public-api/v1.4/events/?actual_since=1551578203.996&expand=place%2Cimages&fields=id%2Ctitle%2Cslug%2Cprice%2Ccategories%2Cimages%2Cis_free%2Cshort_title%2Cdates%2Cdescription%2Cfavorites_count%2Ccomments_count%2Cage_restriction%2Cplace&is_free=false&location=kzn&page=4&page_size=12","results":[{"id":63984,"dates":[{"start":-62135433000,"end":253370754000}],"title":"выставка «Листая каменные страницы»","slug":"vystavka-listaya-kamennye-stranicy","place":{"id":4638,"title":"музей естественной истории Татарстана","slug":"muzej-estestvennoj-istorii-tatarstana","address":"Кремль","phone":"+7 843 567-80-37","subway":"Кремлевская","location":"kzn","site_url":"https://kudago.com/kzn/place/muzej-estestvennoj-istorii-tatarstana/","is_closed":false,"coords":{"lat":55.78876299999999,"lon":49.09900299999998},"is_stub":false},"description":"<p>Гости этой естественно-научной выставки познакомятся с богатой коллекцией минералов, по своей красоте и уникальности не уступающей собраниям крупнейших музеев мира.</p>\n","categories":["exhibition"],"age_restriction":"6+","price":"от 50 до 150 рублей","is_free":false,"images":[{"image":"https://kudago.com/media/images/event/63/d0/63d0874e2faa07c9c137f48c4d2f77c3.jpg","thumbnails":{"640x384":"https://kudago.com/media/thumbs/640x384/images/event/63/d0/63d0874e2faa07c9c137f48c4d2f77c3.jpg","144x96":"https://kudago.com/media/thumbs/144x96/images/event/63/d0/63d0874e2faa07c9c137f48c4d2f77c3.jpg"},"source":{"name":"kazan-kremlin.ru","link":"http://kazan-kremlin.ru/archive/news/id/826"}},{"image":"https://kudago.com/media/images/event/c3/74/c37498dce3c9e371e65186f798445fb1.jpg","thumbnails":{"640x384":"https://kudago.com/media/thumbs/640x384/images/event/c3/74/c37498dce3c9e371e65186f798445fb1.jpg","144x96":"https://kudago.com/media/thumbs/144x96/images/event/c3/74/c37498dce3c9e371e65186f798445fb1.jpg"},"source":{"name":"kazan-kremlin.ru","link":"http://kazan-kremlin.ru/archive/news/id/826"}},{"image":"https://kudago.com/media/images/event/cd/94/cd94359cc5b3206c90109fd339fae81d.jpg","thumbnails":{"640x384":"https://kudago.com/media/thumbs/640x384/images/event/cd/94/cd94359cc5b3206c90109fd339fae81d.jpg","144x96":"https://kudago.com/media/thumbs/144x96/images/event/cd/94/cd94359cc5b3206c90109fd339fae81d.jpg"},"source":{"name":"kazan-kremlin.ru","link":"http://kazan-kremlin.ru/archive/news/id/826"}}],"favorites_count":5,"comments_count":0,"short_title":"Листая каменные страницы"},{"id":63995,"dates":[{"start":-62135433000,"end":253370754000}],"title":"выставка «Серебряный Коран»","slug":"vystavka-serebryanyj-koran","place":{"id":4634,"title":"музей-заповедник «Казанский Кремль»","slug":"muzej-zapovednik-kazanskij-kreml","address":"Кремль","phone":"+7 843 567-80-01","subway":"Кремлевская","location":"kzn","site_url":"https://kudago.com/kzn/place/muzej-zapovednik-kazanskij-kreml/","is_closed":false,"coords":{"lat":55.7977017548241,"lon":49.10383097622552},"is_stub":false},"description":"<p>В «Казанском Кремле» выставлен «Серебряный Коран» - выполненная в XXI веке копия древнего «Корана Усмана», датируемого VIII столетием. Этот шедевр современных технологий состоит из ста шестидесяти двух пластин серебра, на которых запечатлен вечный текст.</p>\n","categories":["exhibition"],"age_restriction":"6+","price":"от 150 до 200 рублей","is_free":false,"images":[{"image":"https://kudago.com/media/images/event/40/f1/40f1ec11d4eab51ad9ee3aacf7e054e3.jpg","thumbnails":{"640x384":"https://kudago.com/media/thumbs/640x384/images/event/40/f1/40f1ec11d4eab51ad9ee3aacf7e054e3.jpg","144x96":"https://kudago.com/media/thumbs/144x96/images/event/40/f1/40f1ec11d4eab51ad9ee3aacf7e054e3.jpg"},"source":{"name":"imenno.ru","link":"http://www.imenno.ru/2014/05/04/160362/"}},{"image":"https://kudago.com/media/images/event/82/c6/82c6664b615b8d8f38e030a1084022f1.jpg","thumbnails":{"640x384":"https://kudago.com/media/thumbs/640x384/images/event/82/c6/82c6664b615b8d8f38e030a1084022f1.jpg","144x96":"https://kudago.com/media/thumbs/144x96/images/event/82/c6/82c6664b615b8d8f38e030a1084022f1.jpg"},"source":{"name":"imenno.ru","link":"http://www.imenno.ru/2014/05/04/160362/"}},{"image":"https://kudago.com/media/images/event/6f/a1/6fa18af4e74056d09391d988f47e6bae.jpg","thumbnails":{"640x384":"https://kudago.com/media/thumbs/640x384/images/event/6f/a1/6fa18af4e74056d09391d988f47e6bae.jpg","144x96":"https://kudago.com/media/thumbs/144x96/images/event/6f/a1/6fa18af4e74056d09391d988f47e6bae.jpg"},"source":{"name":"imenno.ru","link":"http://www.imenno.ru/2014/05/04/160362/"}}],"favorites_count":1,"comments_count":0,"short_title":"Серебряный Коран"},{"id":63992,"dates":[{"start":-62135433000,"end":253370754000}],"title":"выставка «Откуда я взялся»","slug":"vystavka-otkuda-ya-vzyalsya","place":{"id":4695,"title":"музей кафедры нормальной анатомии Казанского государственного медицинского университета","slug":"muzej-normalnoj-anatomii-universiteta-kazani","address":"ул. Университетская, д. 13","phone":"+7 843 253-60-26","subway":"Площадь Габдуллы Тукая","location":"kzn","site_url":"https://kudago.com/kzn/place/muzej-normalnoj-anatomii-universiteta-kazani/","is_closed":false,"coords":{"lat":55.78916299999999,"lon":49.12150599999998},"is_stub":false},"description":"<p>Экскурсия посвящена развитию человеческого организма от зачатия до рождения. Посетители увидят препараты эмбрионов человека на разных стадиях беременности, познакомятся с аномалиями плода. Участники экскурсии познакомятся с коллекцией «уродцев», основанной в начале XIX века профессором-анатомом И.П. Каменским.</p>\n","categories":["exhibition"],"age_restriction":"12+","price":"от 50 до 150 рублей","is_free":false,"images":[{"image":"https://kudago.com/media/images/event/e8/7c/e87c6d3968355ba757868cbb138b5545.jpg","thumbnails":{"640x384":"https://kudago.com/media/thumbs/640x384/images/event/e8/7c/e87c6d3968355ba757868cbb138b5545.jpg","144x96":"https://kudago.com/media/thumbs/144x96/images/event/e8/7c/e87c6d3968355ba757868cbb138b5545.jpg"},"source":{"name":"m.prokazan.ru","link":"http://m.prokazan.ru/news/view/50940"}},{"image":"https://kudago.com/media/images/event/d6/b9/d6b92ce7f28e952221c52ba342511f5b.jpg","thumbnails":{"640x384":"https://kudago.com/media/thumbs/640x384/images/event/d6/b9/d6b92ce7f28e952221c52ba342511f5b.jpg","144x96":"https://kudago.com/media/thumbs/144x96/images/event/d6/b9/d6b92ce7f28e952221c52ba342511f5b.jpg"},"source":{"name":"m.prokazan.ru","link":"http://m.prokazan.ru/news/view/50940"}},{"image":"https://kudago.com/media/images/event/47/51/47510ce801030d684aa3702c43a252b9.jpg","thumbnails":{"640x384":"https://kudago.com/media/thumbs/640x384/images/event/47/51/47510ce801030d684aa3702c43a252b9.jpg","144x96":"https://kudago.com/media/thumbs/144x96/images/event/47/51/47510ce801030d684aa3702c43a252b9.jpg"},"source":{"name":"m.prokazan.ru","link":"http://m.prokazan.ru/news/view/50940"}}],"favorites_count":7,"comments_count":0,"short_title":"Откуда я взялся"},{"id":61049,"dates":[{"start":-62135433000,"end":253370754000}],"title":"выставка «Денежное обращение и торговые пути края в X–XV веках»","slug":"vystavka-denezhnoe-obrashenie-i-torgovye-puti-kray","place":{"id":4702,"title":"Национальный музей Республики Татарстан","slug":"nacionalnyj-muzej-respubliki-tatarstan","address":"ул. Кремлевская, д. 2","phone":"+7 843 292-89-84","subway":"Кремлевская","location":"kzn","site_url":"https://kudago.com/kzn/place/nacionalnyj-muzej-respubliki-tatarstan/","is_closed":false,"coords":{"lat":55.79559999999997,"lon":49.11011500000001},"is_stub":false},"description":"<p>Наглядный рассказ о том, какие торговые отношения действовали в крае в средневековье.</p>\n","categories":["exhibition"],"age_restriction":"18+","price":"от 25 до 50 рублей","is_free":false,"images":[{"image":"https://kudago.com/media/images/event/41/55/41556bc576ae8b6f86ae6f1e2c198b16.jpg","thumbnails":{"640x384":"https://kudago.com/media/thumbs/640x384/images/event/41/55/41556bc576ae8b6f86ae6f1e2c198b16.jpg","144x96":"https://kudago.com/media/thumbs/144x96/images/event/41/55/41556bc576ae8b6f86ae6f1e2c198b16.jpg"},"source":{"name":"test2.tatmuseum.ru","link":"http://test2.tatmuseum.ru/%D0%B4%D0%B5%D0%BD%D0%B5%D0%B6%D0%BD%D0%BE%D0%B5-%D0%BE%D0%B1%D1%80%D0%B0%D1%89%D0%B5%D0%BD%D0%B8%D0%B5-%D1%82%D0%BE%D1%80%D0%B3%D0%BE%D0%B2%D0%BB%D1%8F-%D0%B8-%D1%82%D0%BE%D"}}],"favorites_count":1,"comments_count":0,"short_title":"«Денежное обращение и торговые пути края в X–XV веках»"},{"id":63944,"dates":[{"start":-62135433000,"end":253370754000}],"title":"выставка «В гостях у Мусы»","slug":"vystavka-v-gostyah-u-musy","place":{"id":4700,"title":"Музей-квартира Мусы Джалиля","slug":"muzej-kvartira-musy-dzhalilya","address":"ул. Горького, д. 17, кв. 28","phone":"+7 843 238-50-48","subway":"Площадь Габдуллы Тукая","location":"kzn","site_url":"https://kudago.com/kzn/place/muzej-kvartira-musy-dzhalilya/","is_closed":false,"coords":{"lat":55.79320199999996,"lon":49.13760299999999},"is_stub":false},"description":"<p>Экскурсия, в которой дети узнают многое о детстве Джалиля, побывают в деревенской избе, познакомятся с традиционным бытом простой татарской семьи. В ходе экскурсии маленькие гости услышат татарские сказки и легенды, овладеют навыками ведения домашнего хозяйства.</p>\n","categories":["exhibition"],"age_restriction":"6+","price":"от 30 до 70 рублей","is_free":false,"images":[{"image":"https://kudago.com/media/images/event/53/77/53773d2f39a353f9507b6b77e607df5b.jpg","thumbnails":{"640x384":"https://kudago.com/media/thumbs/640x384/images/event/53/77/53773d2f39a353f9507b6b77e607df5b.jpg","144x96":"https://kudago.com/media/thumbs/144x96/images/event/53/77/53773d2f39a353f9507b6b77e607df5b.jpg"},"source":{"name":"m-jalil.tatmuseum.ru","link":"http://m-jalil.tatmuseum.ru/muzejj-detyam/"}},{"image":"https://kudago.com/media/images/event/d2/0c/d20c3b0433f9e473612205ac0759ef17.jpg","thumbnails":{"640x384":"https://kudago.com/media/thumbs/640x384/images/event/d2/0c/d20c3b0433f9e473612205ac0759ef17.jpg","144x96":"https://kudago.com/media/thumbs/144x96/images/event/d2/0c/d20c3b0433f9e473612205ac0759ef17.jpg"},"source":{"name":"m-jalil.tatmuseum.ru","link":"http://m-jalil.tatmuseum.ru/muzejj-detyam/"}},{"image":"https://kudago.com/media/images/event/da/51/da51696be6f516b28fa5d9980c91074d.JPG","thumbnails":{"640x384":"https://kudago.com/media/thumbs/640x384/images/event/da/51/da51696be6f516b28fa5d9980c91074d.JPG","144x96":"https://kudago.com/media/thumbs/144x96/images/event/da/51/da51696be6f516b28fa5d9980c91074d.JPG"},"source":{"name":"school1-kushva.blogspot.ru","link":"http://school1-kushva.blogspot.ru/2014/06/blog-post_16.html"}}],"favorites_count":2,"comments_count":0,"short_title":"В гостях у Мусы"},{"id":63994,"dates":[{"start":-62135433000,"end":253370754000}],"title":"выставка «Русское искусство XVII — первой трети XX веков»","slug":"vystavka-russkoe-iskusstva-xvii-pervoj-treti-xx-ve","place":{"id":4698,"title":"Музей изобразительных искусств Республики Татарстан","slug":"muzej-izobrazitelnyh-iskusstv","address":"ул. К.Маркса, 64","phone":"+7 843 236-69-31","subway":"","location":"kzn","site_url":"https://kudago.com/kzn/place/muzej-izobrazitelnyh-iskusstv/","is_closed":false,"coords":{"lat":55.7946839999999,"lon":49.13417199999999},"is_stub":false},"description":"<p>Выставка произведений живописи XVII–XX столетий, входящих в коллекцию Музея изобразительных искусств Татарстана. Основой этой богатой коллекции является частное собрание картин А.Ф. Лихачёва. Особое место занимают картины И.И. Шишкина и Н.И. Фешина.</p>\n","categories":["exhibition","permanent-exhibitions"],"age_restriction":"6+","price":"от 50 до 300 рублей","is_free":false,"images":[{"image":"https://kudago.com/media/images/event/43/1e/431ee6b3bee4ac2e56b8f55e7af5deb1.jpg","thumbnails":{"640x384":"https://kudago.com/media/thumbs/640x384/images/event/43/1e/431ee6b3bee4ac2e56b8f55e7af5deb1.jpg","144x96":"https://kudago.com/media/thumbs/144x96/images/event/43/1e/431ee6b3bee4ac2e56b8f55e7af5deb1.jpg"},"source":{"name":"g2.izo-museum.ru","link":"http://g2.izo-museum.ru/v/kollekciya/jivopis_kak-by-kollekciya_20120422/russkaya_jivopis/zh-845zhivopis20120422.jpg.html"}},{"image":"https://kudago.com/media/images/event/c5/30/c530977acea987db73344142d3dc096f.jpg","thumbnails":{"640x384":"https://kudago.com/media/thumbs/640x384/images/event/c5/30/c530977acea987db73344142d3dc096f.jpg","144x96":"https://kudago.com/media/thumbs/144x96/images/event/c5/30/c530977acea987db73344142d3dc096f.jpg"},"source":{"name":"g2.izo-museum.ru","link":"http://g2.izo-museum.ru/v/kollekciya/jivopis_kak-by-kollekciya_20120422/russkaya_jivopis/zh-845zhivopis20120422.jpg.html"}},{"image":"https://kudago.com/media/images/event/27/d5/27d5191541c3026672817f46104ff8c0.jpg","thumbnails":{"640x384":"https://kudago.com/media/thumbs/640x384/images/event/27/d5/27d5191541c3026672817f46104ff8c0.jpg","144x96":"https://kudago.com/media/thumbs/144x96/images/event/27/d5/27d5191541c3026672817f46104ff8c0.jpg"},"source":{"name":"g2.izo-museum.ru","link":"http://g2.izo-museum.ru/v/kollekciya/jivopis_kak-by-kollekciya_20120422/russkaya_jivopis/zh-845zhivopis20120422.jpg.html"}}],"favorites_count":7,"comments_count":2,"short_title":"Русское искусство XVII — первой трети XX веков"},{"id":61172,"dates":[{"start":-62135433000,"end":253370754000}],"title":"выставка «Дары и дарители»","slug":"vystavka-dary-i-dariteli","place":{"id":4702,"title":"Национальный музей Республики Татарстан","slug":"nacionalnyj-muzej-respubliki-tatarstan","address":"ул. Кремлевская, д. 2","phone":"+7 843 292-89-84","subway":"Кремлевская","location":"kzn","site_url":"https://kudago.com/kzn/place/nacionalnyj-muzej-respubliki-tatarstan/","is_closed":false,"coords":{"lat":55.79559999999997,"lon":49.11011500000001},"is_stub":false},"description":"<p>Выставка раскроет закрома коллекции известного археолога, историка и нумизмата.</p>\n","categories":["exhibition"],"age_restriction":null,"price":"","is_free":false,"images":[{"image":"https://kudago.com/media/images/event/9c/3a/9c3a2bae05205f9758fd270aac5d8f77.jpg","thumbnails":{"640x384":"https://kudago.com/media/thumbs/640x384/images/event/9c/3a/9c3a2bae05205f9758fd270aac5d8f77.jpg","144x96":"https://kudago.com/media/thumbs/144x96/images/event/9c/3a/9c3a2bae05205f9758fd270aac5d8f77.jpg"},"source":{"name":"tonkosti.ru","link":"http://tonkosti.ru/%D0%9D%D0%B0%D1%86%D0%B8%D0%BE%D0%BD%D0%B0%D0%BB%D1%8C%D0%BD%D1%8B%D0%B9_%D0%BC%D1%83%D0%B7%D0%B5%D0%B9_%D0%A0%D0%B5%D1%81%D0%BF%D1%83%D0%B1%D0%BB%D0%B8%D0%BA%D0%B8_%D0%A2%D0%B0%D1%"}}],"favorites_count":4,"comments_count":0,"short_title":"Дары и дарители"},{"id":60992,"dates":[{"start":-62135433000,"end":253370754000}],"title":"выставка «В поисках счастья»","slug":"vystavka-v-poiskah-schastya","place":{"id":4694,"title":"Литературный музей Габдуллы Тукая","slug":"literaturnyj-muzej-gabdully-tukaya","address":"ул. Тукая, д. 74","phone":"+7 843 293-17-50","subway":"Площадь Габдуллы Тукая","location":"kzn","site_url":"https://kudago.com/kzn/place/literaturnyj-muzej-gabdully-tukaya/","is_closed":false,"coords":{"lat":55.77751999999993,"lon":49.115289},"is_stub":false},"description":"<p>Экспозиция посвящена 125-летию Шарифа Камала – тараского литератора и драматурга, оставившего несомненный вклад в культуре своего народа.</p>\n","categories":["exhibition","permanent-exhibitions"],"age_restriction":null,"price":"от 25 до 40 рублей","is_free":false,"images":[{"image":"https://kudago.com/media/images/event/60/36/60367ab2d3e1216c16011adc4af3cb8c.jpg","thumbnails":{"640x384":"https://kudago.com/media/thumbs/640x384/images/event/60/36/60367ab2d3e1216c16011adc4af3cb8c.jpg","144x96":"https://kudago.com/media/thumbs/144x96/images/event/60/36/60367ab2d3e1216c16011adc4af3cb8c.jpg"},"source":{"name":"101hotels.ru","link":"http://www.101hotels.ru/main/cities/Kazan/points/museums/muzei_kamala"}}],"favorites_count":2,"comments_count":0,"short_title":"В поисках счастья"},{"id":64000,"dates":[{"start":-62135433000,"end":253370754000}],"title":"выставка «Татарское декоративно-прикладное искусство Республики Татарстан»","slug":"vystavka-tatarskoe-dekorativno-prikladnoe-iskusstv","place":{"id":4698,"title":"Музей изобразительных искусств Республики Татарстан","slug":"muzej-izobrazitelnyh-iskusstv","address":"ул. К.Маркса, 64","phone":"+7 843 236-69-31","subway":"","location":"kzn","site_url":"https://kudago.com/kzn/place/muzej-izobrazitelnyh-iskusstv/","is_closed":false,"coords":{"lat":55.7946839999999,"lon":49.13417199999999},"is_stub":false},"description":"<p>Выставка лучших произведений татарского декоративно-прикладного искусства с орнаментами, популярными еще в эпоху Золотой Орды и Казанского ханства.</p>\n","categories":["exhibition","permanent-exhibitions"],"age_restriction":"12+","price":"от 50 до 300 рублей","is_free":false,"images":[{"image":"https://kudago.com/media/images/event/92/3a/923a088be724e7f695f9927b64b4ce33.jpg","thumbnails":{"640x384":"https://kudago.com/media/thumbs/640x384/images/event/92/3a/923a088be724e7f695f9927b64b4ce33.jpg","144x96":"https://kudago.com/media/thumbs/144x96/images/event/92/3a/923a088be724e7f695f9927b64b4ce33.jpg"},"source":{"name":"izo-museum.ru","link":"http://izo-museum.ru/article/2013/12/17/hudozhestvennye-sokrovishcha-tatarstana-tatarskoe-dekorativno-prikladnoe"}},{"image":"https://kudago.com/media/images/event/9b/c3/9bc3617c01cb2b4b2e2e8c0b560c6ecc.jpg","thumbnails":{"640x384":"https://kudago.com/media/thumbs/640x384/images/event/9b/c3/9bc3617c01cb2b4b2e2e8c0b560c6ecc.jpg","144x96":"https://kudago.com/media/thumbs/144x96/images/event/9b/c3/9bc3617c01cb2b4b2e2e8c0b560c6ecc.jpg"},"source":{"name":"izo-museum.ru","link":"http://izo-museum.ru/article/2013/12/17/hudozhestvennye-sokrovishcha-tatarstana-tatarskoe-dekorativno-prikladnoe"}},{"image":"https://kudago.com/media/images/event/96/8b/968bcd3110fb18c93f2964e98c01fb1f.jpg","thumbnails":{"640x384":"https://kudago.com/media/thumbs/640x384/images/event/96/8b/968bcd3110fb18c93f2964e98c01fb1f.jpg","144x96":"https://kudago.com/media/thumbs/144x96/images/event/96/8b/968bcd3110fb18c93f2964e98c01fb1f.jpg"},"source":{"name":"izo-museum.ru","link":"http://izo-museum.ru/article/2013/12/17/hudozhestvennye-sokrovishcha-tatarstana-tatarskoe-dekorativno-prikladnoe"}}],"favorites_count":0,"comments_count":0,"short_title":"Татарское декоративно-прикладное искусство Республики Татарстан"},{"id":63958,"dates":[{"start":-62135433000,"end":253370754000}],"title":"экскурсия «Жизнь и деятельность Каюма Насыри»","slug":"ekskursiya-zhizn-i-deyatelnost-kayuma-nasyri","place":{"id":4677,"title":"Музей Каюма Насыри","slug":"muzej-kayuma-nasyri","address":"ул. Парижской Коммуны, д. 35","phone":"+7 843 292-76-94","subway":"Площадь Габдуллы Тукая","location":"kzn","site_url":"https://kudago.com/kzn/place/muzej-kayuma-nasyri/","is_closed":false,"coords":{"lat":55.78023300000001,"lon":49.110654},"is_stub":false},"description":"<p>Выставка проходит в Музее Каюма Насыри – одного из самых известных в Татарстане и далеко за его пределами ученого-энциклопедиста. Посетители этой экспозиции познакомятся с обстановкой дома Насыри, предметами, окружавшими его в жизни и научной деятельности.</p>\n","categories":["exhibition","tour"],"age_restriction":"6+","price":"от 10 до 140 рублей","is_free":false,"images":[{"image":"https://kudago.com/media/images/event/fd/6a/fd6a49f4b9cac9f4b8196670b2a04343.jpg","thumbnails":{"640x384":"https://kudago.com/media/thumbs/640x384/images/event/fd/6a/fd6a49f4b9cac9f4b8196670b2a04343.jpg","144x96":"https://kudago.com/media/thumbs/144x96/images/event/fd/6a/fd6a49f4b9cac9f4b8196670b2a04343.jpg"},"source":{"name":"museum.ru","link":"http://www.museum.ru/M2763"}},{"image":"https://kudago.com/media/images/event/67/a0/67a02f608baf9b261f18e3329cea5932.jpg","thumbnails":{"640x384":"https://kudago.com/media/thumbs/640x384/images/event/67/a0/67a02f608baf9b261f18e3329cea5932.jpg","144x96":"https://kudago.com/media/thumbs/144x96/images/event/67/a0/67a02f608baf9b261f18e3329cea5932.jpg"},"source":{"name":"museum.ru","link":"http://www.museum.ru/M2763"}},{"image":"https://kudago.com/media/images/event/79/c7/79c7067db47ef6f89e06cbe166bcc0ff.jpg","thumbnails":{"640x384":"https://kudago.com/media/thumbs/640x384/images/event/79/c7/79c7067db47ef6f89e06cbe166bcc0ff.jpg","144x96":"https://kudago.com/media/thumbs/144x96/images/event/79/c7/79c7067db47ef6f89e06cbe166bcc0ff.jpg"},"source":{"name":"museum.ru","link":"http://www.museum.ru/M2763"}}],"favorites_count":0,"comments_count":0,"short_title":"Жизнь и деятельность Каюма Насыри "},{"id":63942,"dates":[{"start":-62135433000,"end":253370754000}],"title":"выставка «Боратынские: век в Казани»","slug":"vystavka-boratynskie-vek-v-kazani","place":{"id":4693,"title":"музей Е. А. Баратынского","slug":"muzej-e-boratynskogo","address":"ул. Горького, д. 25/28","phone":"+7 843 236-13-22","subway":"Площадь Габдуллы Тукая","location":"kzn","site_url":"https://kudago.com/kzn/place/muzej-e-boratynskogo/","is_closed":false,"coords":{"lat":55.79389999999997,"lon":49.135403},"is_stub":false},"description":"<p>В Музее Е.А. Боратынского работает постоянная выставка, посвященная жизни и различным этапам творческого пути великого русского поэта. Посетители познакомятся с интереснейшими фактами жизни Боратынского, его знакомства с Пушкиным, культурными событиями, происходившими в Казани в конце XIX – начале XX столетия. Также представлены предметы быта провинциальных дворян того времени.</p>\n","categories":["exhibition","permanent-exhibitions"],"age_restriction":"6+","price":"от 30 до 150 рублей","is_free":false,"images":[{"image":"https://kudago.com/media/images/event/40/d4/40d4b555b32c0a87a10f83a5390bb71c.jpg","thumbnails":{"640x384":"https://kudago.com/media/thumbs/640x384/images/event/40/d4/40d4b555b32c0a87a10f83a5390bb71c.jpg","144x96":"https://kudago.com/media/thumbs/144x96/images/event/40/d4/40d4b555b32c0a87a10f83a5390bb71c.jpg"},"source":{"name":"tatmuseum.ru","link":"http://tatmuseum.ru/%D0%BC%D1%83%D0%B7%D0%B5%D0%B9-%D0%B5-%D0%B0-%D0%B1%D0%BE%D1%80%D0%B0%D1%82%D1%8B%D0%BD%D1%81%D0%BA%D0%BE%D0%B3%D0%BE/"}},{"image":"https://kudago.com/media/images/event/5d/a6/5da6dc52fc437972fe8f9ba2be98c499.jpg","thumbnails":{"640x384":"https://kudago.com/media/thumbs/640x384/images/event/5d/a6/5da6dc52fc437972fe8f9ba2be98c499.jpg","144x96":"https://kudago.com/media/thumbs/144x96/images/event/5d/a6/5da6dc52fc437972fe8f9ba2be98c499.jpg"},"source":{"name":"facebook.com/tatar.museum","link":"https://www.facebook.com/media/set/?set=a.319129951473912.77600.225788890808019&type=1"}},{"image":"https://kudago.com/media/images/event/22/aa/22aaef66030e68901321a268c6b6fcbc.jpg","thumbnails":{"640x384":"https://kudago.com/media/thumbs/640x384/images/event/22/aa/22aaef66030e68901321a268c6b6fcbc.jpg","144x96":"https://kudago.com/media/thumbs/144x96/images/event/22/aa/22aaef66030e68901321a268c6b6fcbc.jpg"},"source":{"name":"facebook.com/tatar.museum","link":"https://www.facebook.com/media/set/?set=a.319129951473912.77600.225788890808019&type=1"}}],"favorites_count":1,"comments_count":0,"short_title":"Боратынские: век в Казани"},{"id":63967,"dates":[{"start":-62135433000,"end":253370754000}],"title":"выставка «Искусство совершенства»","slug":"vystavka-iskusstvo-sovershenstva","place":{"id":4634,"title":"музей-заповедник «Казанский Кремль»","slug":"muzej-zapovednik-kazanskij-kreml","address":"Кремль","phone":"+7 843 567-80-01","subway":"Кремлевская","location":"kzn","site_url":"https://kudago.com/kzn/place/muzej-zapovednik-kazanskij-kreml/","is_closed":false,"coords":{"lat":55.7977017548241,"lon":49.10383097622552},"is_stub":false},"description":"<p>Выставка работ известного каллиграфа Татарстана Рамиля Насыбуллова, мастера искусства хаттата, единственного в республике обладателя диплома-иджазу. Обучался в Стамбуле, где овладел многими видами почерков и техниками восточного оформления книг – тазхибом (золочением бумаги) и эбру (приданием бумаге мраморного оттенка).</p>\n","categories":["exhibition"],"age_restriction":"6+","price":"от 40 до 100 рублей","is_free":false,"images":[{"image":"https://kudago.com/media/images/event/c1/99/c19951a683c12616e9ef7c3c5b6589bd.jpg","thumbnails":{"640x384":"https://kudago.com/media/thumbs/640x384/images/event/c1/99/c19951a683c12616e9ef7c3c5b6589bd.jpg","144x96":"https://kudago.com/media/thumbs/144x96/images/event/c1/99/c19951a683c12616e9ef7c3c5b6589bd.jpg"},"source":{"name":"kazan-kremlin.ru","link":"http://www.kazan-kremlin.ru/archive/photo/741"}},{"image":"https://kudago.com/media/images/event/b5/bf/b5bffda87297264a5cb7b8f926c13367.jpg","thumbnails":{"640x384":"https://kudago.com/media/thumbs/640x384/images/event/b5/bf/b5bffda87297264a5cb7b8f926c13367.jpg","144x96":"https://kudago.com/media/thumbs/144x96/images/event/b5/bf/b5bffda87297264a5cb7b8f926c13367.jpg"},"source":{"name":"kazan-kremlin.ru","link":"http://www.kazan-kremlin.ru/archive/photo/741"}},{"image":"https://kudago.com/media/images/event/b9/99/b9994ef735d3e4cfa3add8ade17c9cb1.jpg","thumbnails":{"640x384":"https://kudago.com/media/thumbs/640x384/images/event/b9/99/b9994ef735d3e4cfa3add8ade17c9cb1.jpg","144x96":"https://kudago.com/media/thumbs/144x96/images/event/b9/99/b9994ef735d3e4cfa3add8ade17c9cb1.jpg"},"source":{"name":"kazan-kremlin.ru","link":"http://www.kazan-kremlin.ru/archive/photo/741"}}],"favorites_count":0,"comments_count":0,"short_title":"Искусство совершенства"}]}