{"count":37,"next":"https://kudago.com/public-api/v1.4/events/?actual_since=1567260188.271&expand=place%2Cimages&fields=id%2Ctitle%2Cslug%2Cprice%2Ccategories%2Cimages%2Cis_free%2Cshort_title%2Cdates%2Cdescription%2Cfavorites_count%2Ccomments_count%2Cage_restriction%2Cplace&is_free=false&location=sochi&page=2&page_size=12","previous":null,"results":[{"id":180691,"dates":[{"start":1562655600,"end":1570640400}],"title":"выставка «Гиганты вечной мерзлоты»","slug":"vyistavka-gigantyi-vechnoj-merzlotyi","place":null,"description":"<p>Гигантские мамонты, шерстистые носороги, саблезубые тигры — исчезнувшие тысячи лет назад древние животные родом из самого холодного и северного региона России предстанут перед жителями Сочи на интерактивной выставке.</p>","categories":["exhibition"],"age_restriction":0,"price":"от 350 до 500 рублей","is_free":false,"images":[{"image":"https://kudago.com/media/images/event/b1/eb/b1ebba3cbd93dad5ec73928c6004cfca.jpg","thumbnails":{"640x384":"https://kudago.com/media/thumbs/640x384/images/event/b1/eb/b1ebba3cbd93dad5ec73928c6004cfca.jpg","144x96":"https://kudago.com/media/thumbs/144x96/images/event/b1/eb/b1ebba3cbd93dad5ec73928c6004cfca.jpg"},"source":{"name":"","link":""}},{"image":"https://kudago.com/media/images/event/c9/ec/c9ecabee251813b95acf5c01f3bfedb9.jpg","thumbnails":{"640x384":"https://kudago.com/media/thumbs/640x384/images/event/c9/ec/c9ecabee251813b95acf5c01f3bfedb9.jpg","144x96":"https://kudago.com/media/thumbs/144x96/images/event/c9/ec/c9ecabee251813b95acf5c01f3bfedb9.jpg"},"source":{"name":"","link":""}},{"image":"https://kudago.com/media/images/event/a3/83/a3835f8bc359d63531187bbb507523a3.jpg","thumbnails":{"640x384":"https://kudago.com/media/thumbs/640x384/images/event/a3/83/a3835f8bc359d63531187bbb507523a3.jpg","144x96":"https://kudago.com/media/thumbs/144x96/images/event/a3/83/a3835f8bc359d63531187bbb507523a3.jpg"},"source":{"name":"","link":""}},{"image":"https://kudago.com/media/images/event/3c/10/3c10a7d37192013836352de0b4963acd.jpg","thumbnails":{"640x384":"https://kudago.com/media/thumbs/640x384/images/event/3c/10/3c10a7d37192013836352de0b4963acd.jpg","144x96":"https://kudago.com/media/thumbs/144x96/images/event/3c/10/3c10a7d37192013836352de0b4963acd.jpg"},"source":{"name":"","link":""}},{"image":"https://kudago.com/media/images/event/73/30/73308b44eeea7bba074fa6a3e449e2cd.jpg","thumbnails":{"640x384":"https://kudago.com/media/thumbs/640x384/images/event/73/30/73308b44eeea7bba074fa6a3e449e2cd.jpg","144x96":"https://kudago.com/media/thumbs/144x96/images/event/73/30/73308b44eeea7bba074fa6a3e449e2cd.jpg"},"source":{"name":"","link":""}},{"image":"https://kudago.com/media/images/event/07/59/075966d95c19518e6620b343ca0d09fb.jpg","thumbnails":{"640x384":"https://kudago.com/media/thumbs/640x384/images/event/07/59/075966d95c19518e6620b343ca0d09fb.jpg","144x96":"https://kudago.com/media/thumbs/144x96/images/event/07/59/075966d95c19518e6620b343ca0d09fb.jpg"},"source":{"name":"","link":""}}],"favorites_count":0,"comments_count":0,"short_title":"Гиганты вечной мерзлоты"},{"id":170448,"dates":[{"start":-62135433000,"end":253370754000}],"title":"мастер-классы в студии живописи «Краски» для детей и взрослых","slug":"znaniya-master-klassyi-v-studii-kraski","place":{"id":31204,"title":"студия живописи «Краски»","slug":"shkola-risovaniya-kraski","address":"г. Адлер, ул. Авиационная, д. 34, этаж 3 (ориентир — авторынок «Ферара»)","phone":"+7 989 084-71-85","subway":"","location":"sochi","site_url":"https://kudago.com/sochi/place/shkola-risovaniya-kraski/","is_closed":false,"coords":{"lat":43.43013129999967,"lon":39.93606510000016},"is_stub":true},"description":"<p>Проводите отпуск с пользой и удовольствием — приходите на занятия по живописи для детей от 3 лет и взрослых! Здесь обучают живописи и рисунку учеников с любым уровнем знаний, даже нулевым.</p>","categories":["education","romance"],"age_restriction":0,"price":"уточняется","is_free":false,"images":[{"image":"https://kudago.com/media/images/event/ef/e8/efe8d377915676ffb389bbb56ffd50cf.jpg","thumbnails":{"640x384":"https://kudago.com/media/thumbs/640x384/images/event/ef/e8/efe8d377915676ffb389bbb56ffd50cf.jpg","144x96":"https://kudago.com/media/thumbs/144x96/images/event/ef/e8/efe8d377915676ffb389bbb56ffd50cf.jpg"},"source":{"name":"","link":""}},{"image":"https://kudago.com/media/images/event/ff/82/ff82fb3576b00a77673026a83ae531ce.JPG","thumbnails":{"640x384":"https://kudago.com/media/thumbs/640x384/images/event/ff/82/ff82fb3576b00a77673026a83ae531ce.JPG","144x96":"https://kudago.com/media/thumbs/144x96/images/event/ff/82/ff82fb3576b00a77673026a83ae531ce.JPG"},"source":{"name":"","link":""}},{"image":"https://kudago.com/media/images/event/03/d7/03d7ca283c4b55cfa5b59790cce8a577.JPG","thumbnails":{"640x384":"https://kudago.com/media/thumbs/640x384/images/event/03/d7/03d7ca283c4b55cfa5b59790cce8a577.JPG","144x96":"https://kudago.com/media/thumbs/144x96/images/event/03/d7/03d7ca283c4b55cfa5b59790cce8a577.JPG"},"source":{"name":"","link":""}},{"image":"https://kudago.com/media/images/event/b9/b8/b9b8086a89c53d619634fa7ed6bfa917.JPG","thumbnails":{"640x384":"https://kudago.com/media/thumbs/640x384/images/event/b9/b8/b9b8086a89c53d619634fa7ed6bfa917.JPG","144x96":"https://kudago.com/media/thumbs/144x96/images/event/b9/b8/b9b8086a89c53d619634fa7ed6bfa917.JPG"},"source":{"name":"","link":""}},{"image":"https://kudago.com/media/images/event/47/83/4783a271c14c2da538769d78faf057ad.jpg","thumbnails":{"640x384":"https://kudago.com/media/thumbs/640x384/images/event/47/83/4783a271c14c2da538769d78faf057ad.jpg","144x96":"https://kudago.com/media/thumbs/144x96/images/event/47/83/4783a271c14c2da538769d78faf057ad.jpg"},"source":{"name":"","link":""}},{"image":"https://kudago.com/media/images/event/97/7b/977b687cb70676b17606a55c59e5894d.jpg","thumbnails":{"640x384":"https://kudago.com/media/thumbs/640x384/images/event/97/7b/977b687cb70676b17606a55c59e5894d.jpg","144x96":"https://kudago.com/media/thumbs/144x96/images/event/97/7b/977b687cb70676b17606a55c59e5894d.jpg"},"source":{"name":"","link":""}},{"image":"https://kudago.com/media/images/event/0c/7d/0c7df84e6d83069feebd9f9129713764.jpg","thumbnails":{"640x384":"https://kudago.com/media/thumbs/640x384/images/event/0c/7d/0c7df84e6d83069feebd9f9129713764.jpg","144x96":"https://kudago.com/media/thumbs/144x96/images/event/0c/7d/0c7df84e6d83069feebd9f9129713764.jpg"},"source":{"name":"","link":""}},{"image":"https://kudago.com/media/images/event/6d/b0/6db0196554a7ab78f9021103275c1739.jpg","thumbnails":{"640x384":"https://kudago.com/media/thumbs/640x384/images/event/6d/b0/6db0196554a7ab78f9021103275c1739.jpg","144x96":"https://kudago.com/media/thumbs/144x96/images/event/6d/b0/6db0196554a7ab78f9021103275c1739.jpg"},"source":{"name":"","link":""}},{"image":"https://kudago.com/media/images/event/d3/65/d365d17b602fdde6c44c3591a559b2ee.jpg","thumbnails":{"640x384":"https://kudago.com/media/thumbs/640x384/images/event/d3/65/d365d17b602fdde6c44c3591a559b2ee.jpg","144x96":"https://kudago.com/media/thumbs/144x96/images/event/d3/65/d365d17b602fdde6c44c3591a559b2ee.jpg"},"source":{"name":"","link":""}}],"favorites_count":1,"comments_count":0,"short_title":"мастер-классы в студии «Краски»"},{"id":66289,"dates":[{"start":-62135433000,"end":253370754000}],"title":"Тесла-шоу в музее Николы Тесла","slug":"tesla-shou-v-muzee-nikoly-tesla","place":{"id":18420,"title":"электрический музей Николы Тесла","slug":"muzej-nikoly-tesla","address":"Олимпийский парк, ул. Международная, д.8","phone":"+7 988 241-01-80","subway":"","location":"sochi","site_url":"https://kudago.com/sochi/place/muzej-nikoly-tesla/","is_closed":false,"coords":{"lat":43.40620410000028,"lon":39.96592619999958},"is_stub":false},"description":"","categories":["kids","show","tour"],"age_restriction":null,"price":"350 рублей","is_free":false,"images":[{"image":"https://kudago.com/media/images/event/36/74/36744efb59de3beeaea3803732564a61.jpg","thumbnails":{"640x384":"https://kudago.com/media/thumbs/640x384/images/event/36/74/36744efb59de3beeaea3803732564a61.jpg","144x96":"https://kudago.com/media/thumbs/144x96/images/event/36/74/36744efb59de3beeaea3803732564a61.jpg"},"source":{"name":"runews24.ru","link":"http://runews24.ru/russia/krasnodar/15122014-muzej-nikoly-tesla.html"}}],"favorites_count":34,"comments_count":0,"short_title":""},{"id":95415,"dates":[{"start":-62135433000,"end":253370754000}],"title":"выставка «Кунсткамера»","slug":"vystavka-kunstkamera","place":{"id":4279,"title":"Парк культуры и отдыха «Ривьера»","slug":"park-kultury-i-otdyha-rivera","address":"ул. Егорова, д. 1","phone":"","subway":"","location":"sochi","site_url":"https://kudago.com/sochi/place/park-kultury-i-otdyha-rivera/","is_closed":false,"coords":{"lat":43.59227599999993,"lon":39.71818400000001},"is_stub":false},"description":"<p>Выставка человеческой анатомии и аномалий — для посетителей с крепким здоровьем и устойчивой психикой.</p>\n","categories":["exhibition"],"age_restriction":"16+","price":"100 рублей","is_free":false,"images":[{"image":"https://kudago.com/media/images/event/61/41/61412d6aed1f748f03fd7e2aa3e496c2.jpg","thumbnails":{"640x384":"https://kudago.com/media/thumbs/640x384/images/event/61/41/61412d6aed1f748f03fd7e2aa3e496c2.jpg","144x96":"https://kudago.com/media/thumbs/144x96/images/event/61/41/61412d6aed1f748f03fd7e2aa3e496c2.jpg"},"source":{"name":"ponominalu.ru","link":"http://ponominalu.ru/event/kunstkamera-vvc"}}],"favorites_count":23,"comments_count":0,"short_title":"Кунсткамера"},{"id":155314,"dates":[{"start":-62135433000,"end":253370754000}],"title":"вечер классической «Мафии»","slug":"igra-mafiya-155314","place":{"id":28020,"title":"антикафе «Территория»","slug":"antikafe-territoriya","address":"ул. Горького, д. 53","phone":"","subway":"","location":"sochi","site_url":"https://kudago.com/sochi/place/antikafe-territoriya/","is_closed":false,"coords":{"lat":43.589965,"lon":39.726215},"is_stub":true},"description":"<p>Ничто так не красит досуг, как интриги, козни и беззастенчивый блеф.</p>\n","categories":["games"],"age_restriction":"16+","price":"от 120 рублей","is_free":false,"images":[{"image":"https://kudago.com/media/images/event/33/b1/33b16add3347fca4cd92cb911bb10ca6.jpg","thumbnails":{"640x384":"https://kudago.com/media/thumbs/640x384/images/event/33/b1/33b16add3347fca4cd92cb911bb10ca6.jpg","144x96":"https://kudago.com/media/thumbs/144x96/images/event/33/b1/33b16add3347fca4cd92cb911bb10ca6.jpg"},"source":{"name":"lingvo-svoboda.ru","link":"https://www.lingvo-svoboda.ru/news/english-club-24-sentyabrya/"}},{"image":"https://kudago.com/media/images/event/9d/4d/9d4d1eac1d53779e6109c086aea09016.jpg","thumbnails":{"640x384":"https://kudago.com/media/thumbs/640x384/images/event/9d/4d/9d4d1eac1d53779e6109c086aea09016.jpg","144x96":"https://kudago.com/media/thumbs/144x96/images/event/9d/4d/9d4d1eac1d53779e6109c086aea09016.jpg"},"source":{"name":"samiye.ru","link":"http://samiye.ru/tech/populyarnye-kartochnye-igry.html"}},{"image":"https://kudago.com/media/images/event/55/8b/558b0a35d79a1a4b684b2fa22e89e629.jpg","thumbnails":{"640x384":"https://kudago.com/media/thumbs/640x384/images/event/55/8b/558b0a35d79a1a4b684b2fa22e89e629.jpg","144x96":"https://kudago.com/media/thumbs/144x96/images/event/55/8b/558b0a35d79a1a4b684b2fa22e89e629.jpg"},"source":{"name":"mkrf.ru","link":"http://mkrf.ru/press-center/news/events/intellektualnaya-igra-mafiya/intellektualnaya-igra-mafiya?sphrase_id=5767254"}}],"favorites_count":9,"comments_count":0,"short_title":"Мафия"},{"id":95800,"dates":[{"start":-62135433000,"end":253370754000}],"title":"выставка «Космонавты в Сочи»","slug":"kosmonavty-v-sochi","place":{"id":4210,"title":"Музей истории города–курорта Сочи","slug":"muzej-istorii-goroda-kurorta-sochi","address":"ул. Воровского, д. 54/11.","phone":"+7 862 264-23-31","subway":"","location":"sochi","site_url":"https://kudago.com/sochi/place/muzej-istorii-goroda-kurorta-sochi/","is_closed":false,"coords":{"lat":43.59029799999997,"lon":39.72350199999999},"is_stub":false},"description":"<p>Прекрасная возможность познакомиться с редкими экспонатами, относящимися к советской эпохе освоения космоса.</p>\n","categories":["exhibition"],"age_restriction":0,"price":"от 50 до 100 рублей","is_free":false,"images":[{"image":"https://kudago.com/media/images/event/7f/d7/7fd73f6ea05d0bb34a4897149c9b0db0.jpg","thumbnails":{"640x384":"https://kudago.com/media/thumbs/640x384/images/event/7f/d7/7fd73f6ea05d0bb34a4897149c9b0db0.jpg","144x96":"https://kudago.com/media/thumbs/144x96/images/event/7f/d7/7fd73f6ea05d0bb34a4897149c9b0db0.jpg"},"source":{"name":"«Музей истории города-курорта Сочи»","link":"http://vk.com/albums-91580914?z=photo-91580914_359216657%2Fphotos-91580914"}},{"image":"https://kudago.com/media/images/event/e8/51/e85187e81f3564ae22fc41753234aed5.JPG","thumbnails":{"640x384":"https://kudago.com/media/thumbs/640x384/images/event/e8/51/e85187e81f3564ae22fc41753234aed5.JPG","144x96":"https://kudago.com/media/thumbs/144x96/images/event/e8/51/e85187e81f3564ae22fc41753234aed5.JPG"},"source":{"name":"toufik.fr","link":"http://www.toufik.fr/index.php?q=aHR0cDovL3N0cmFuYS5ydS9qb3VybmFsLzIzNjQ1NTQ1"}},{"image":"https://kudago.com/media/images/event/e1/7d/e17d06c255cd6df5b0631b0faaf07093.jpg","thumbnails":{"640x384":"https://kudago.com/media/thumbs/640x384/images/event/e1/7d/e17d06c255cd6df5b0631b0faaf07093.jpg","144x96":"https://kudago.com/media/thumbs/144x96/images/event/e1/7d/e17d06c255cd6df5b0631b0faaf07093.jpg"},"source":{"name":"gctc.ru","link":"http://www.gctc.ru/print.php?id=2638"}}],"favorites_count":18,"comments_count":0,"short_title":"Космонавты в Сочи"},{"id":158481,"dates":[{"start":-62135433000,"end":253370754000}],"title":"выставка музея занимательных наук «Экспериментаниум»","slug":"vyistavka-eksperimentanium","place":{"id":4254,"title":"Дельфинарий в парке «Ривьера»","slug":"delfinarij-v-parke-rivera","address":"ул. Егорова 1, парк «Ривьера»","phone":"+7 800 770-07-23","subway":"","location":"sochi","site_url":"https://kudago.com/sochi/place/delfinarij-v-parke-rivera/","is_closed":false,"coords":{"lat":43.607337,"lon":39.712668},"is_stub":false},"description":"<p>Выставка-приключение, где все экспонаты рассчитаны на взаимодействие со зрителями.</p>\n","categories":["exhibition","kids"],"age_restriction":"6+","price":"350 рублей","is_free":false,"images":[{"image":"https://kudago.com/media/images/event/6e/5e/6e5e99e2c84cff0e12ed195adab412f6.jpg","thumbnails":{"640x384":"https://kudago.com/media/thumbs/640x384/images/event/6e/5e/6e5e99e2c84cff0e12ed195adab412f6.jpg","144x96":"https://kudago.com/media/thumbs/144x96/images/event/6e/5e/6e5e99e2c84cff0e12ed195adab412f6.jpg"},"source":{"name":"vk.com","link":"https://vk.com/experimentanium"}},{"image":"https://kudago.com/media/images/event/07/b4/07b4be35265358ac4d31b944da9190ed.jpg","thumbnails":{"640x384":"https://kudago.com/media/thumbs/640x384/images/event/07/b4/07b4be35265358ac4d31b944da9190ed.jpg","144x96":"https://kudago.com/media/thumbs/144x96/images/event/07/b4/07b4be35265358ac4d31b944da9190ed.jpg"},"source":{"name":"vk.com","link":"https://vk.com/experimentanium"}},{"image":"https://kudago.com/media/images/event/ab/7b/ab7b6f6a18e1edb8edc74651e1bc1e58.jpg","thumbnails":{"640x384":"https://kudago.com/media/thumbs/640x384/images/event/ab/7b/ab7b6f6a18e1edb8edc74651e1bc1e58.jpg","144x96":"https://kudago.com/media/thumbs/144x96/images/event/ab/7b/ab7b6f6a18e1edb8edc74651e1bc1e58.jpg"},"source":{"name":"vk.com","link":"https://vk.com/experimentanium"}},{"image":"https://kudago.com/media/images/event/cc/97/cc9789c66fb6fb3ac191fefed20e83cd.jpg","thumbnails":{"640x384":"https://kudago.com/media/thumbs/640x384/images/event/cc/97/cc9789c66fb6fb3ac191fefed20e83cd.jpg","144x96":"https://kudago.com/media/thumbs/144x96/images/event/cc/97/cc9789c66fb6fb3ac191fefed20e83cd.jpg"},"source":{"name":"vk.com","link":"https://vk.com/experimentanium"}},{"image":"https://kudago.com/media/images/event/55/ac/55acb54da06435ac080c7d354c23bed5.jpg","thumbnails":{"640x384":"https://kudago.com/media/thumbs/640x384/images/event/55/ac/55acb54da06435ac080c7d354c23bed5.jpg","144x96":"https://kudago.com/media/thumbs/144x96/images/event/55/ac/55acb54da06435ac080c7d354c23bed5.jpg"},"source":{"name":"vk.com","link":"https://vk.com/experimentanium"}},{"image":"https://kudago.com/media/images/event/a0/8b/a08b6d3611ad50ac80b48e06ab2dd7dc.jpg","thumbnails":{"640x384":"https://kudago.com/media/thumbs/640x384/images/event/a0/8b/a08b6d3611ad50ac80b48e06ab2dd7dc.jpg","144x96":"https://kudago.com/media/thumbs/144x96/images/event/a0/8b/a08b6d3611ad50ac80b48e06ab2dd7dc.jpg"},"source":{"name":"vk.com","link":"https://vk.com/experimentanium"}},{"image":"https://kudago.com/media/images/event/13/21/13217e603ad7a9c13f1aa60aea33a5c0.jpg","thumbnails":{"640x384":"https://kudago.com/media/thumbs/640x384/images/event/13/21/13217e603ad7a9c13f1aa60aea33a5c0.jpg","144x96":"https://kudago.com/media/thumbs/144x96/images/event/13/21/13217e603ad7a9c13f1aa60aea33a5c0.jpg"},"source":{"name":"vk.com","link":"https://vk.com/experimentanium"}}],"favorites_count":5,"comments_count":0,"short_title":"Экспериментаниум"},{"id":89609,"dates":[{"start":-62135433000,"end":253370754000}],"title":"кулинарные курсы от филиала Московского учебного центра","slug":"kulinarnye-kursy-ot-filiala-moskovskogo-uchebnogo-","place":{"id":22670,"title":"филиал Московского учебного центра","slug":"filial-moskovskogo-uchebnogo-centra","address":"ул. Виноградная, д. 2/3.","phone":"+7 862 253-80-61","subway":"","location":"sochi","site_url":"https://kudago.com/sochi/place/filial-moskovskogo-uchebnogo-centra/","is_closed":false,"coords":{"lat":43.595946,"lon":39.717295},"is_stub":true},"description":"<p>Серьёзные образовательные курсы, рассчитанные на несколько месяцев. После обучения новичок превращается в повара.</p>\n","categories":["education"],"age_restriction":null,"price":"9250 рублей","is_free":false,"images":[{"image":"https://kudago.com/media/images/event/ee/f9/eef9e470eb0d0cd4879d2c4acd359f6a.jpg","thumbnails":{"640x384":"https://kudago.com/media/thumbs/640x384/images/event/ee/f9/eef9e470eb0d0cd4879d2c4acd359f6a.jpg","144x96":"https://kudago.com/media/thumbs/144x96/images/event/ee/f9/eef9e470eb0d0cd4879d2c4acd359f6a.jpg"},"source":{"name":"delikates.me","link":"http://delikates.me/images/%D0%BA%D0%B0%D0%BA_%D0%BD%D0%B0%D1%83%D1%87%D0%B8%D1%82%D1%8C%D1%81%D1%8F_%D0%B3%D0%BE%D1%82%D0%BE%D0%B2%D0%B8%D1%82%D1%8C.jpg"}},{"image":"https://kudago.com/media/images/event/a6/55/a655bd653a5973f972e21079f01021bf.jpg","thumbnails":{"640x384":"https://kudago.com/media/thumbs/640x384/images/event/a6/55/a655bd653a5973f972e21079f01021bf.jpg","144x96":"https://kudago.com/media/thumbs/144x96/images/event/a6/55/a655bd653a5973f972e21079f01021bf.jpg"},"source":{"name":"www.aeao-tour.ru","link":"http://www.aeao-tour.ru/assets/images/Italy/Merano/cources.jpg"}},{"image":"https://kudago.com/media/images/event/20/6a/206ac6ff1758b0e46f78f3367d33fa9f.jpg","thumbnails":{"640x384":"https://kudago.com/media/thumbs/640x384/images/event/20/6a/206ac6ff1758b0e46f78f3367d33fa9f.jpg","144x96":"https://kudago.com/media/thumbs/144x96/images/event/20/6a/206ac6ff1758b0e46f78f3367d33fa9f.jpg"},"source":{"name":"relax.com.ua","link":"http://relax.com.ua/wp-content/media/kiew/2011/10/cooking_kiev.jpg"}}],"favorites_count":4,"comments_count":4,"short_title":"кулинарные курсы"},{"id":72717,"dates":[{"start":-62135433000,"end":253370754000}],"title":"выставка  «Жуки и бабочки мира»","slug":"vystavka-zhuki-i-babochki-mira","place":{"id":4279,"title":"Парк культуры и отдыха «Ривьера»","slug":"park-kultury-i-otdyha-rivera","address":"ул. Егорова, д. 1","phone":"","subway":"","location":"sochi","site_url":"https://kudago.com/sochi/place/park-kultury-i-otdyha-rivera/","is_closed":false,"coords":{"lat":43.59227599999993,"lon":39.71818400000001},"is_stub":false},"description":"<p>Говорят, что бабочки — это ожившие кусочки радуги. И в каждой стране радуга рисует разные узоры на их тоненьких крылышках. Увидеть почти полторы тысячи этих волшебных рисунков можно в парке «Ривьера».</p>\n","categories":["exhibition"],"age_restriction":0,"price":"от 100 до 150 рублей","is_free":false,"images":[{"image":"https://kudago.com/media/images/event/d6/13/d613b3dc055a08fcf70a2da470f06c2d.jpg","thumbnails":{"640x384":"https://kudago.com/media/thumbs/640x384/images/event/d6/13/d613b3dc055a08fcf70a2da470f06c2d.jpg","144x96":"https://kudago.com/media/thumbs/144x96/images/event/d6/13/d613b3dc055a08fcf70a2da470f06c2d.jpg"},"source":{"name":"vk.com","link":"https://pp.vk.me/c621727/v621727924/fe30/iwFs82Dcadc.jpg"}},{"image":"https://kudago.com/media/images/event/3e/d4/3ed4c759505d24004c358970accaa8fb.jpg","thumbnails":{"640x384":"https://kudago.com/media/thumbs/640x384/images/event/3e/d4/3ed4c759505d24004c358970accaa8fb.jpg","144x96":"https://kudago.com/media/thumbs/144x96/images/event/3e/d4/3ed4c759505d24004c358970accaa8fb.jpg"},"source":{"name":"vk.com","link":"https://pp.vk.me/c622528/v622528426/26a6a/7tOdBJIDDA0.jpg"}},{"image":"https://kudago.com/media/images/event/83/b1/83b1fded0e3545348236a7a2e95b2416.jpg","thumbnails":{"640x384":"https://kudago.com/media/thumbs/640x384/images/event/83/b1/83b1fded0e3545348236a7a2e95b2416.jpg","144x96":"https://kudago.com/media/thumbs/144x96/images/event/83/b1/83b1fded0e3545348236a7a2e95b2416.jpg"},"source":{"name":"vk.com","link":"https://pp.vk.me/c623923/v623923753/21ff9/4XJaGoQ-22s.jpg"}}],"favorites_count":12,"comments_count":0,"short_title":"жуки и бабочки мира"},{"id":158477,"dates":[{"start":-62135433000,"end":253370754000}],"title":"выставка музея человека «Живые системы»","slug":"vyistavka-zhivyie-sistemyi","place":{"id":4254,"title":"Дельфинарий в парке «Ривьера»","slug":"delfinarij-v-parke-rivera","address":"ул. Егорова 1, парк «Ривьера»","phone":"+7 800 770-07-23","subway":"","location":"sochi","site_url":"https://kudago.com/sochi/place/delfinarij-v-parke-rivera/","is_closed":false,"coords":{"lat":43.607337,"lon":39.712668},"is_stub":false},"description":"<p>Полсотни интерактивных объектов помогут понять законы функционирования человеческого организма и живой природы, а также провести ряд увлекательных экспериментов на самих себе.</p>\n","categories":["exhibition","kids"],"age_restriction":"6+","price":"250 рублей","is_free":false,"images":[{"image":"https://kudago.com/media/images/event/0b/d8/0bd8c28a00033fb66d3f730dd73dc619.jpg","thumbnails":{"640x384":"https://kudago.com/media/thumbs/640x384/images/event/0b/d8/0bd8c28a00033fb66d3f730dd73dc619.jpg","144x96":"https://kudago.com/media/thumbs/144x96/images/event/0b/d8/0bd8c28a00033fb66d3f730dd73dc619.jpg"},"source":{"name":"vk.com","link":"https://vk.com/bioexperimentanium"}},{"image":"https://kudago.com/media/images/event/a8/e3/a8e380686ac79f80eb14e3d6cf161090.jpg","thumbnails":{"640x384":"https://kudago.com/media/thumbs/640x384/images/event/a8/e3/a8e380686ac79f80eb14e3d6cf161090.jpg","144x96":"https://kudago.com/media/thumbs/144x96/images/event/a8/e3/a8e380686ac79f80eb14e3d6cf161090.jpg"},"source":{"name":"vk.com","link":"https://vk.com/bioexperimentanium"}},{"image":"https://kudago.com/media/images/event/de/a8/dea8d42939a87c933f4e042184aa7087.jpg","thumbnails":{"640x384":"https://kudago.com/media/thumbs/640x384/images/event/de/a8/dea8d42939a87c933f4e042184aa7087.jpg","144x96":"https://kudago.com/media/thumbs/144x96/images/event/de/a8/dea8d42939a87c933f4e042184aa7087.jpg"},"source":{"name":"vk.com","link":"https://vk.com/bioexperimentanium"}},{"image":"https://kudago.com/media/images/event/33/61/3361c0287e2fb3b730e221158d4f5670.jpg","thumbnails":{"640x384":"https://kudago.com/media/thumbs/640x384/images/event/33/61/3361c0287e2fb3b730e221158d4f5670.jpg","144x96":"https://kudago.com/media/thumbs/144x96/images/event/33/61/3361c0287e2fb3b730e221158d4f5670.jpg"},"source":{"name":"vk.com","link":"https://vk.com/bioexperimentanium"}},{"image":"https://kudago.com/media/images/event/8f/05/8f05bc0cff2cdbfd10d382de70e93cac.jpg","thumbnails":{"640x384":"https://kudago.com/media/thumbs/640x384/images/event/8f/05/8f05bc0cff2cdbfd10d382de70e93cac.jpg","144x96":"https://kudago.com/media/thumbs/144x96/images/event/8f/05/8f05bc0cff2cdbfd10d382de70e93cac.jpg"},"source":{"name":"vk.com","link":"https://vk.com/bioexperimentanium"}}],"favorites_count":9,"comments_count":0,"short_title":"Живые системы"},{"id":113732,"dates":[{"start":-62135433000,"end":253370754000}],"title":"выставка «Сочи в период 1946—1990 гг.»","slug":"vystavka-sochi-v-period-19461990-gg","place":{"id":4210,"title":"Музей истории города–курорта Сочи","slug":"muzej-istorii-goroda-kurorta-sochi","address":"ул. Воровского, д. 54/11.","phone":"+7 862 264-23-31","subway":"","location":"sochi","site_url":"https://kudago.com/sochi/place/muzej-istorii-goroda-kurorta-sochi/","is_closed":false,"coords":{"lat":43.59029799999997,"lon":39.72350199999999},"is_stub":false},"description":"<p>Выставка посвящена сложному периоду в истории России, в который Сочи между тем являлся Всесоюзной здравницей и имел статус международного курорта.</p>\n","categories":["exhibition","permanent-exhibitions"],"age_restriction":0,"price":"от 50 до 100 рублей","is_free":false,"images":[{"image":"https://kudago.com/media/images/event/70/ef/70efb23bef5133df23978820fcf8ca0b.jpg","thumbnails":{"640x384":"https://kudago.com/media/thumbs/640x384/images/event/70/ef/70efb23bef5133df23978820fcf8ca0b.jpg","144x96":"https://kudago.com/media/thumbs/144x96/images/event/70/ef/70efb23bef5133df23978820fcf8ca0b.jpg"},"source":{"name":"museumsochi.ru","link":"http://museumsochi.ru/exposition/1/84"}},{"image":"https://kudago.com/media/images/event/81/a6/81a6dc295e5caf5e4969b9f169a37de0.jpg","thumbnails":{"640x384":"https://kudago.com/media/thumbs/640x384/images/event/81/a6/81a6dc295e5caf5e4969b9f169a37de0.jpg","144x96":"https://kudago.com/media/thumbs/144x96/images/event/81/a6/81a6dc295e5caf5e4969b9f169a37de0.jpg"},"source":{"name":"museumsochi.ru","link":"http://museumsochi.ru/exposition/1/84"}},{"image":"https://kudago.com/media/images/event/72/3a/723a98cc2f4262cad0863438129feb8a.jpg","thumbnails":{"640x384":"https://kudago.com/media/thumbs/640x384/images/event/72/3a/723a98cc2f4262cad0863438129feb8a.jpg","144x96":"https://kudago.com/media/thumbs/144x96/images/event/72/3a/723a98cc2f4262cad0863438129feb8a.jpg"},"source":{"name":"museumsochi.ru","link":"http://museumsochi.ru/exposition/1/84"}},{"image":"https://kudago.com/media/images/event/86/17/86178fe9d2b5650bbbe98ac242d14031.jpg","thumbnails":{"640x384":"https://kudago.com/media/thumbs/640x384/images/event/86/17/86178fe9d2b5650bbbe98ac242d14031.jpg","144x96":"https://kudago.com/media/thumbs/144x96/images/event/86/17/86178fe9d2b5650bbbe98ac242d14031.jpg"},"source":{"name":"museumsochi.ru","link":"http://museumsochi.ru/exposition/1/84"}}],"favorites_count":2,"comments_count":0,"short_title":"Сочи в период 1946—1990 гг."},{"id":81359,"dates":[{"start":-62135433000,"end":253370754000}],"title":"выставка  «Русское искусство XIX-XXI веков»","slug":"vystavka-russkoe-iskusstvo-xix-xxi-vekov","place":{"id":4209,"title":"Сочинский художественный музей","slug":"sochinskij-hudozhestvennyj-muzej","address":"Курортный проспект, д.  51.","phone":"","subway":"","location":"sochi","site_url":"https://kudago.com/sochi/place/sochinskij-hudozhestvennyj-muzej/","is_closed":false,"coords":{"lat":43.57623799999995,"lon":39.72838899999998},"is_stub":false},"description":"<p>Эта постоянная экспозиция по праву считается гордостью Сочинского художественного музея. Богатое собрание полотен российских художников.</p>\n","categories":["exhibition","permanent-exhibitions"],"age_restriction":0,"price":"200 рублей","is_free":false,"images":[{"image":"https://kudago.com/media/images/event/90/ea/90ea37c12c431fdb2b3390f2a6db9ee4.jpg","thumbnails":{"640x384":"https://kudago.com/media/thumbs/640x384/images/event/90/ea/90ea37c12c431fdb2b3390f2a6db9ee4.jpg","144x96":"https://kudago.com/media/thumbs/144x96/images/event/90/ea/90ea37c12c431fdb2b3390f2a6db9ee4.jpg"},"source":{"name":"http://sochiartmuseum.ru/","link":""}},{"image":"https://kudago.com/media/images/event/2c/10/2c10c720073e93e64d8621b31994ba60.jpg","thumbnails":{"640x384":"https://kudago.com/media/thumbs/640x384/images/event/2c/10/2c10c720073e93e64d8621b31994ba60.jpg","144x96":"https://kudago.com/media/thumbs/144x96/images/event/2c/10/2c10c720073e93e64d8621b31994ba60.jpg"},"source":{"name":"http://sochiartmuseum.ru/","link":""}},{"image":"https://kudago.com/media/images/event/fc/84/fc8484347fda160ec8245673ef2f0a75.jpg","thumbnails":{"640x384":"https://kudago.com/media/thumbs/640x384/images/event/fc/84/fc8484347fda160ec8245673ef2f0a75.jpg","144x96":"https://kudago.com/media/thumbs/144x96/images/event/fc/84/fc8484347fda160ec8245673ef2f0a75.jpg"},"source":{"name":"http://sochiartmuseum.ru/","link":""}}],"favorites_count":9,"comments_count":2,"short_title":" Русское искусство XIX-XXI веков"}]}