{"count":58,"next":"https://kudago.com/public-api/v1.4/events/?actual_since=1566636811.127&expand=place%2Cimages&fields=id%2Ctitle%2Cslug%2Cprice%2Ccategories%2Cimages%2Cis_free%2Cshort_title%2Cdates%2Cdescription%2Cfavorites_count%2Ccomments_count%2Cage_restriction%2Cplace&location=ekb&page=2&page_size=5","previous":null,"results":[{"id":155657,"dates":[{"start":-62135433000,"end":253370754000}],"title":"«Мафия» в антикафе «Совушки»","slug":"igra-mafiya-155657","place":{"id":18466,"title":"антикафе «Совушки»","slug":"antikafe-sovushki","address":"ул. Первомайская, д. 24б","phone":"+7 343 350-79-23","subway":"","location":"ekb","site_url":"https://kudago.com/ekb/place/antikafe-sovushki/","is_closed":false,"coords":{"lat":56.842339,"lon":60.614893},"is_stub":false},"description":"<p>В последнее время мафия совсем потеряла стыд. Пора городу что-то с этим сделать!</p>\n","categories":["games"],"age_restriction":"16+","price":"1 рубль в мнуту","is_free":false,"images":[{"image":"https://kudago.com/media/images/event/f1/9c/f19c926ad287a5d290a3c6b474a7cfb2.jpg","thumbnails":{"640x384":"https://kudago.com/media/thumbs/640x384/images/event/f1/9c/f19c926ad287a5d290a3c6b474a7cfb2.jpg","144x96":"https://kudago.com/media/thumbs/144x96/images/event/f1/9c/f19c926ad287a5d290a3c6b474a7cfb2.jpg"},"source":{"name":"vk.com","link":"http://kontakt.by/predprijatija/browse/?q_k=играть%20в%20могилеве"}},{"image":"https://kudago.com/media/images/event/ce/de/cede9bc2f9aa0b5b02763d204b6f6ff2.jpg","thumbnails":{"640x384":"https://kudago.com/media/thumbs/640x384/images/event/ce/de/cede9bc2f9aa0b5b02763d204b6f6ff2.jpg","144x96":"https://kudago.com/media/thumbs/144x96/images/event/ce/de/cede9bc2f9aa0b5b02763d204b6f6ff2.jpg"},"source":{"name":"vk.com","link":"https://vk.com/mafiasovushek"}},{"image":"https://kudago.com/media/images/event/68/5a/685ac22c4ce9b6c671d549834f414cfe.jpg","thumbnails":{"640x384":"https://kudago.com/media/thumbs/640x384/images/event/68/5a/685ac22c4ce9b6c671d549834f414cfe.jpg","144x96":"https://kudago.com/media/thumbs/144x96/images/event/68/5a/685ac22c4ce9b6c671d549834f414cfe.jpg"},"source":{"name":"vk.com","link":"https://vk.com/mafiasovushek"}},{"image":"https://kudago.com/media/images/event/84/17/8417243b392d9d8b4f9ade580c954025.jpg","thumbnails":{"640x384":"https://kudago.com/media/thumbs/640x384/images/event/84/17/8417243b392d9d8b4f9ade580c954025.jpg","144x96":"https://kudago.com/media/thumbs/144x96/images/event/84/17/8417243b392d9d8b4f9ade580c954025.jpg"},"source":{"name":"vk.com","link":"https://vk.com/mafiasovushek"}},{"image":"https://kudago.com/media/images/event/1c/6a/1c6a96cb1b81cf9668fd64b714983562.jpg","thumbnails":{"640x384":"https://kudago.com/media/thumbs/640x384/images/event/1c/6a/1c6a96cb1b81cf9668fd64b714983562.jpg","144x96":"https://kudago.com/media/thumbs/144x96/images/event/1c/6a/1c6a96cb1b81cf9668fd64b714983562.jpg"},"source":{"name":"vk.com","link":"https://vk.com/mafiasovushek"}},{"image":"https://kudago.com/media/images/event/cb/19/cb19267ebf7ff78dcef0a5f4760c16b0.jpg","thumbnails":{"640x384":"https://kudago.com/media/thumbs/640x384/images/event/cb/19/cb19267ebf7ff78dcef0a5f4760c16b0.jpg","144x96":"https://kudago.com/media/thumbs/144x96/images/event/cb/19/cb19267ebf7ff78dcef0a5f4760c16b0.jpg"},"source":{"name":"vk.com","link":"https://vk.com/mafiasovushek"}},{"image":"https://kudago.com/media/images/event/b3/b7/b3b7da4ae3abc7bb7bfed70e18e759fe.jpg","thumbnails":{"640x384":"https://kudago.com/media/thumbs/640x384/images/event/b3/b7/b3b7da4ae3abc7bb7bfed70e18e759fe.jpg","144x96":"https://kudago.com/media/thumbs/144x96/images/event/b3/b7/b3b7da4ae3abc7bb7bfed70e18e759fe.jpg"},"source":{"name":"vk.com","link":"https://vk.com/mafiasovushek"}}],"favorites_count":16,"comments_count":0,"short_title":"Мафия"},{"id":180962,"dates":[{"start":1563858000,"end":1573398000}],"title":"выставка «Сокровища гробницы Тутанхамона»","slug":"vyistavka-sokrovischa-grobnitsyi-tutnahamona","place":{"id":18890,"title":"музейно-выставочный центр «Дом Поклевских-Козелл»","slug":"muzejno-vystavochnyj-centr-dom-poklevskih-kozell","address":"ул. Малышева, д. 46","phone":"+7 343 376-47-93","subway":"Площадь 1905 Года","location":"ekb","site_url":"https://kudago.com/ekb/place/muzejno-vystavochnyj-centr-dom-poklevskih-kozell/","is_closed":false,"coords":{"lat":56.83410699999998,"lon":60.60248700000002},"is_stub":false},"description":"<p>Увидеть воочию легендарные шедевры искусства Древнего Египта, обнаруженные почти 100 лет назад в гробнице Тутанхамона, теперь можно и в Екатеринбурге. Выставка в Свердловском краеведческом музее — это уникальная возможность оценить изумительно точные копии более ста экспонатов, часть из которых уже утеряна навсегда.</p>","categories":["exhibition"],"age_restriction":0,"price":"от 0 до 450 рублей","is_free":false,"images":[{"image":"https://kudago.com/media/images/event/84/85/8485a9bd018fbaab744b03c0ff41dfd3.jpg","thumbnails":{"640x384":"https://kudago.com/media/thumbs/640x384/images/event/84/85/8485a9bd018fbaab744b03c0ff41dfd3.jpg","144x96":"https://kudago.com/media/thumbs/144x96/images/event/84/85/8485a9bd018fbaab744b03c0ff41dfd3.jpg"},"source":{"name":"","link":""}},{"image":"https://kudago.com/media/images/event/c4/cf/c4cf86812e69b3a6b621d011de3a34df.jpg","thumbnails":{"640x384":"https://kudago.com/media/thumbs/640x384/images/event/c4/cf/c4cf86812e69b3a6b621d011de3a34df.jpg","144x96":"https://kudago.com/media/thumbs/144x96/images/event/c4/cf/c4cf86812e69b3a6b621d011de3a34df.jpg"},"source":{"name":"","link":""}},{"image":"https://kudago.com/media/images/event/66/fc/66fcacabaada1083b93c664d7d545768.jpg","thumbnails":{"640x384":"https://kudago.com/media/thumbs/640x384/images/event/66/fc/66fcacabaada1083b93c664d7d545768.jpg","144x96":"https://kudago.com/media/thumbs/144x96/images/event/66/fc/66fcacabaada1083b93c664d7d545768.jpg"},"source":{"name":"","link":""}},{"image":"https://kudago.com/media/images/event/47/fd/47fd93b09a8f3646447e63b641e1c872.jpg","thumbnails":{"640x384":"https://kudago.com/media/thumbs/640x384/images/event/47/fd/47fd93b09a8f3646447e63b641e1c872.jpg","144x96":"https://kudago.com/media/thumbs/144x96/images/event/47/fd/47fd93b09a8f3646447e63b641e1c872.jpg"},"source":{"name":"","link":""}},{"image":"https://kudago.com/media/images/event/b3/61/b36186384f93f5d67252624c8384b7ed.jpg","thumbnails":{"640x384":"https://kudago.com/media/thumbs/640x384/images/event/b3/61/b36186384f93f5d67252624c8384b7ed.jpg","144x96":"https://kudago.com/media/thumbs/144x96/images/event/b3/61/b36186384f93f5d67252624c8384b7ed.jpg"},"source":{"name":"","link":""}},{"image":"https://kudago.com/media/images/event/c6/64/c664f09fb8d072abea08c5233c57c2e9.jpg","thumbnails":{"640x384":"https://kudago.com/media/thumbs/640x384/images/event/c6/64/c664f09fb8d072abea08c5233c57c2e9.jpg","144x96":"https://kudago.com/media/thumbs/144x96/images/event/c6/64/c664f09fb8d072abea08c5233c57c2e9.jpg"},"source":{"name":"","link":""}},{"image":"https://kudago.com/media/images/event/7a/16/7a1601a3e716d563b892323acfc5abb1.jpg","thumbnails":{"640x384":"https://kudago.com/media/thumbs/640x384/images/event/7a/16/7a1601a3e716d563b892323acfc5abb1.jpg","144x96":"https://kudago.com/media/thumbs/144x96/images/event/7a/16/7a1601a3e716d563b892323acfc5abb1.jpg"},"source":{"name":"","link":""}}],"favorites_count":0,"comments_count":0,"short_title":"Сокровища гробницы Тутанхамона"},{"id":181294,"dates":[{"start":1569042000,"end":1569070800},{"start":1569128400,"end":1569153600}],"title":"выставка Hi-Fi & High End Show 2019","slug":"vyistavka-hi-fi-and-high-end-show-2019","place":{"id":32613,"title":"Отель «Московская горка»","slug":"otel-moskovskaya-gorka","address":"ул. Московская, д. 131","phone":"","subway":"","location":"ekb","site_url":"https://kudago.com/ekb/place/otel-moskovskaya-gorka/","is_closed":false,"coords":{"lat":56.82254299999993,"lon":60.58777609999987},"is_stub":true},"description":"<p>Знаменитая выставка аудио- и видеоаппаратуры едет на Урал! 21—22 сентября жители Екатеринбурга  и близлежащих городов смогут протестировать акустические системы, виниловые проигрыватели, домашние кинотеатры, наушники и другие товары от брендов с мировым именем и выбрать аудио- и видеотехнику для дома.</p>","categories":["exhibition","yarmarki-razvlecheniya-yarmarki"],"age_restriction":"12+","price":"","is_free":true,"images":[{"image":"https://kudago.com/media/images/event/39/12/3912582aab89bdff4e9e6dfc6abb397d.jpg","thumbnails":{"640x384":"https://kudago.com/media/thumbs/640x384/images/event/39/12/3912582aab89bdff4e9e6dfc6abb397d.jpg","144x96":"https://kudago.com/media/thumbs/144x96/images/event/39/12/3912582aab89bdff4e9e6dfc6abb397d.jpg"},"source":{"name":"","link":""}},{"image":"https://kudago.com/media/images/event/f9/54/f954796ff63f56c4fc3eee380b0a2c48.jpg","thumbnails":{"640x384":"https://kudago.com/media/thumbs/640x384/images/event/f9/54/f954796ff63f56c4fc3eee380b0a2c48.jpg","144x96":"https://kudago.com/media/thumbs/144x96/images/event/f9/54/f954796ff63f56c4fc3eee380b0a2c48.jpg"},"source":{"name":"","link":""}},{"image":"https://kudago.com/media/images/event/8b/89/8b89641460c07fd5ceb979796abcac19.jpg","thumbnails":{"640x384":"https://kudago.com/media/thumbs/640x384/images/event/8b/89/8b89641460c07fd5ceb979796abcac19.jpg","144x96":"https://kudago.com/media/thumbs/144x96/images/event/8b/89/8b89641460c07fd5ceb979796abcac19.jpg"},"source":{"name":"","link":""}},{"image":"https://kudago.com/media/images/event/92/11/9211f32d31ec33d2a3b4d117edccc7d3.jpg","thumbnails":{"640x384":"https://kudago.com/media/thumbs/640x384/images/event/92/11/9211f32d31ec33d2a3b4d117edccc7d3.jpg","144x96":"https://kudago.com/media/thumbs/144x96/images/event/92/11/9211f32d31ec33d2a3b4d117edccc7d3.jpg"},"source":{"name":"","link":""}},{"image":"https://kudago.com/media/images/event/df/8d/df8da956e48b1e9177fbfe7b1cb2e37a.jpg","thumbnails":{"640x384":"https://kudago.com/media/thumbs/640x384/images/event/df/8d/df8da956e48b1e9177fbfe7b1cb2e37a.jpg","144x96":"https://kudago.com/media/thumbs/144x96/images/event/df/8d/df8da956e48b1e9177fbfe7b1cb2e37a.jpg"},"source":{"name":"","link":""}},{"image":"https://kudago.com/media/images/event/ee/7a/ee7add91adcc2fc6558fb2d6bc1c9bda.jpg","thumbnails":{"640x384":"https://kudago.com/media/thumbs/640x384/images/event/ee/7a/ee7add91adcc2fc6558fb2d6bc1c9bda.jpg","144x96":"https://kudago.com/media/thumbs/144x96/images/event/ee/7a/ee7add91adcc2fc6558fb2d6bc1c9bda.jpg"},"source":{"name":"","link":""}},{"image":"https://kudago.com/media/images/event/cf/3e/cf3ea0a325e2a0dffb2a89256664f27e.jpg","thumbnails":{"640x384":"https://kudago.com/media/thumbs/640x384/images/event/cf/3e/cf3ea0a325e2a0dffb2a89256664f27e.jpg","144x96":"https://kudago.com/media/thumbs/144x96/images/event/cf/3e/cf3ea0a325e2a0dffb2a89256664f27e.jpg"},"source":{"name":"","link":""}},{"image":"https://kudago.com/media/images/event/d4/14/d414c5fba7b616cd3402ff72be7f0ac6.jpg","thumbnails":{"640x384":"https://kudago.com/media/thumbs/640x384/images/event/d4/14/d414c5fba7b616cd3402ff72be7f0ac6.jpg","144x96":"https://kudago.com/media/thumbs/144x96/images/event/d4/14/d414c5fba7b616cd3402ff72be7f0ac6.jpg"},"source":{"name":"","link":""}},{"image":"https://kudago.com/media/images/event/60/ed/60ed6a9768b2bcb742384cd4c91e5478.jpg","thumbnails":{"640x384":"https://kudago.com/media/thumbs/640x384/images/event/60/ed/60ed6a9768b2bcb742384cd4c91e5478.jpg","144x96":"https://kudago.com/media/thumbs/144x96/images/event/60/ed/60ed6a9768b2bcb742384cd4c91e5478.jpg"},"source":{"name":"","link":""}},{"image":"https://kudago.com/media/images/event/4c/07/4c078378fffc9ee04f094b59abe77300.jpg","thumbnails":{"640x384":"https://kudago.com/media/thumbs/640x384/images/event/4c/07/4c078378fffc9ee04f094b59abe77300.jpg","144x96":"https://kudago.com/media/thumbs/144x96/images/event/4c/07/4c078378fffc9ee04f094b59abe77300.jpg"},"source":{"name":"","link":""}},{"image":"https://kudago.com/media/images/event/91/ae/91aef7e9bd6eb2e59c63203a79953fe8.jpg","thumbnails":{"640x384":"https://kudago.com/media/thumbs/640x384/images/event/91/ae/91aef7e9bd6eb2e59c63203a79953fe8.jpg","144x96":"https://kudago.com/media/thumbs/144x96/images/event/91/ae/91aef7e9bd6eb2e59c63203a79953fe8.jpg"},"source":{"name":"","link":""}},{"image":"https://kudago.com/media/images/event/98/c4/98c42adb166628662320279b344ca12a.jpg","thumbnails":{"640x384":"https://kudago.com/media/thumbs/640x384/images/event/98/c4/98c42adb166628662320279b344ca12a.jpg","144x96":"https://kudago.com/media/thumbs/144x96/images/event/98/c4/98c42adb166628662320279b344ca12a.jpg"},"source":{"name":"","link":""}}],"favorites_count":1,"comments_count":0,"short_title":"Hi-Fi & High End Show 2019"},{"id":172745,"dates":[{"start":-62135433000,"end":253370754000}],"title":"выставка живописи и графики Марины Кутявиной «Где-нибудь нигде...»","slug":"vyistavka-gde-nibud-nigde","place":{"id":31546,"title":"выставка Марины Кутявиной «Где-нибудь нигде...»","slug":"galereya-vyistavka-marinyi-kutyavinoj","address":"ул. Добролюбова, д. 16, 2-й эт., оф. 23","phone":"","subway":"","location":"ekb","site_url":"https://kudago.com/ekb/place/galereya-vyistavka-marinyi-kutyavinoj/","is_closed":false,"coords":{"lat":56.83138079999995,"lon":60.60396500000029},"is_stub":true},"description":"<p>Персональная выставка Марины Кутявиной — это эмоциональное путешествие по удивительному миру невероятно трогательных образов родом из детства и глубин нашего сентиментального Я, которое позволит увидеть сказочное в обыденном и по-новому взглянуть на привычное бытовое. На выставке представлено более 100 работ художницы.</p>","categories":["exhibition","other"],"age_restriction":0,"price":"","is_free":true,"images":[{"image":"https://kudago.com/media/images/event/c7/55/c7550b03009df59befd4dcccdfbd2b89.jpg","thumbnails":{"640x384":"https://kudago.com/media/thumbs/640x384/images/event/c7/55/c7550b03009df59befd4dcccdfbd2b89.jpg","144x96":"https://kudago.com/media/thumbs/144x96/images/event/c7/55/c7550b03009df59befd4dcccdfbd2b89.jpg"},"source":{"name":"","link":""}},{"image":"https://kudago.com/media/images/event/73/c5/73c57deda3ee579b76c681e13af0bcda.jpg","thumbnails":{"640x384":"https://kudago.com/media/thumbs/640x384/images/event/73/c5/73c57deda3ee579b76c681e13af0bcda.jpg","144x96":"https://kudago.com/media/thumbs/144x96/images/event/73/c5/73c57deda3ee579b76c681e13af0bcda.jpg"},"source":{"name":"","link":""}},{"image":"https://kudago.com/media/images/event/90/38/90383457cc7156b06e010b24f0a02986.jpg","thumbnails":{"640x384":"https://kudago.com/media/thumbs/640x384/images/event/90/38/90383457cc7156b06e010b24f0a02986.jpg","144x96":"https://kudago.com/media/thumbs/144x96/images/event/90/38/90383457cc7156b06e010b24f0a02986.jpg"},"source":{"name":"","link":""}},{"image":"https://kudago.com/media/images/event/ad/52/ad52d0c53a986d7cbe135c17de608b6d.jpg","thumbnails":{"640x384":"https://kudago.com/media/thumbs/640x384/images/event/ad/52/ad52d0c53a986d7cbe135c17de608b6d.jpg","144x96":"https://kudago.com/media/thumbs/144x96/images/event/ad/52/ad52d0c53a986d7cbe135c17de608b6d.jpg"},"source":{"name":"","link":""}},{"image":"https://kudago.com/media/images/event/e6/ff/e6ff535c648e2441c0c8550d0ae3a62a.jpg","thumbnails":{"640x384":"https://kudago.com/media/thumbs/640x384/images/event/e6/ff/e6ff535c648e2441c0c8550d0ae3a62a.jpg","144x96":"https://kudago.com/media/thumbs/144x96/images/event/e6/ff/e6ff535c648e2441c0c8550d0ae3a62a.jpg"},"source":{"name":"","link":""}},{"image":"https://kudago.com/media/images/event/54/29/542962451aaf87719700817811424865.jpg","thumbnails":{"640x384":"https://kudago.com/media/thumbs/640x384/images/event/54/29/542962451aaf87719700817811424865.jpg","144x96":"https://kudago.com/media/thumbs/144x96/images/event/54/29/542962451aaf87719700817811424865.jpg"},"source":{"name":"","link":""}},{"image":"https://kudago.com/media/images/event/1a/73/1a73e9b2ef63561bd8061717b9aade7d.jpg","thumbnails":{"640x384":"https://kudago.com/media/thumbs/640x384/images/event/1a/73/1a73e9b2ef63561bd8061717b9aade7d.jpg","144x96":"https://kudago.com/media/thumbs/144x96/images/event/1a/73/1a73e9b2ef63561bd8061717b9aade7d.jpg"},"source":{"name":"","link":""}}],"favorites_count":6,"comments_count":0,"short_title":"Где-нибудь нигде..."},{"id":181722,"dates":[{"start":1568610000,"end":1571587200}],"title":"мультимедийная выставка «Валентин Серов. Свет и тени»","slug":"vyistavka-valentin-serov-svet-i-teni","place":{"id":22501,"title":"Свердловская киностудия","slug":"sverdlovskaya-kinostudiya","address":"просп. Ленина, д. 50, лит. Ж","phone":"","subway":"","location":"ekb","site_url":"https://kudago.com/ekb/place/sverdlovskaya-kinostudiya/","is_closed":false,"coords":{"lat":56.838071,"lon":60.623588},"is_stub":true},"description":"<p>Хотите увидеть шедевры Валентина Серова из разных музеев России, собранные в одном месте? Приходите на Свердловскую киностудию, где произведения великого портретиста и одного из первых русских импрессионистов показывают в мультимедийном формате.</p>","categories":["exhibition","show"],"age_restriction":0,"price":"от 300 до 490 рублей","is_free":false,"images":[{"image":"https://kudago.com/media/images/event/53/f3/53f3094869647459d9bf660e370983c3.jpg","thumbnails":{"640x384":"https://kudago.com/media/thumbs/640x384/images/event/53/f3/53f3094869647459d9bf660e370983c3.jpg","144x96":"https://kudago.com/media/thumbs/144x96/images/event/53/f3/53f3094869647459d9bf660e370983c3.jpg"},"source":{"name":"","link":""}},{"image":"https://kudago.com/media/images/event/90/de/90de12a3dacd56c5ffa78a5dfcd4ef91.jpg","thumbnails":{"640x384":"https://kudago.com/media/thumbs/640x384/images/event/90/de/90de12a3dacd56c5ffa78a5dfcd4ef91.jpg","144x96":"https://kudago.com/media/thumbs/144x96/images/event/90/de/90de12a3dacd56c5ffa78a5dfcd4ef91.jpg"},"source":{"name":"","link":""}},{"image":"https://kudago.com/media/images/event/b9/67/b9672ce4e0af1d52aa2855184d165a04.jpg","thumbnails":{"640x384":"https://kudago.com/media/thumbs/640x384/images/event/b9/67/b9672ce4e0af1d52aa2855184d165a04.jpg","144x96":"https://kudago.com/media/thumbs/144x96/images/event/b9/67/b9672ce4e0af1d52aa2855184d165a04.jpg"},"source":{"name":"","link":""}}],"favorites_count":0,"comments_count":0,"short_title":"Валентин Серов. Свет и тени"}]}